{
    "job": {
        "content": [
            {
                "reader": {
                    "name": "oraclereader",
                    "parameter": {
                        "column": [],
                        "connection": [
                            {
							    "querySql": ["SELECT ATTRIBCODE as ic_id, ATTRIBNAME as ic_name, ATTRIBCODE as ic_code FROM M_DIM WHERE M_DIMDEF_ID =20 and ISACTIVE ='Y'"],
                                "jdbcUrl": ["jdbc:oracle:thin:@//192.168.10.101/ORCL"],
                            }
                        ],
                        "password": "abc123",
                        "username": "bosnds3"
                    }
                },
                "writer": {
                    "name": "mysqlwriter",
                    "parameter": {
                        "column": ["ic_id","ic_name","ic_code"],
                        "connection": [
                            {
                                "jdbcUrl": "jdbc:mysql://localhost:3306/report_db?characterEncoding=UTF-8&useSSL=false&serverTimezone=Asia/Shanghai",
                                "table": ["sy_v_category"]
                            }
                        ],
                        "password": "9cjEVa83",
                        "preSql": [],
                        "session": ["set session sql_mode='ANSI'"],
                        "username": "rpdbuser",
                        "writeMode": "update"
                    }
                }
            }
        ],
        "setting": {
            "speed": {
                "channel": "5"
            }
        }
    }
}
