{
    "job": {
        "content": [
            {
                "reader": {
                    "name": "oraclereader",
                    "parameter": {
                        "column": [],
                        "connection": [
                            {
							    "querySql": ["SELECT rtrim(C_STORE.CODE) as shop_code, trunc(TO_NUMBER(to_date(C_STOREMARKITEM.MONTHDATE,'yyyy-mm-dd') - TO_DATE('1970-01-01 8:0:0', 'yyyy-mm-dd hh24:mi:ss')) * 24 * 60 * 60) as plan_date, C_STOREMARKITEM.TOT_AMT_MARK as plan_amt FROM C_STOREMARKITEM LEFT JOIN C_STOREMARK ON C_STOREMARKITEM.C_STOREMARK_ID=C_STOREMARK.ID LEFT JOIN C_STORE ON C_STOREMARK.C_STORE_ID =C_STORE.ID where C_STOREMARKITEM.MONTHDATE >= to_char(trunc(sysdate, 'mm'),'yyyymmdd')"],
                                "jdbcUrl": ["jdbc:oracle:thin:@//192.168.10.101/ORCL"],
                            }
                        ],
                        "password": "abc123",
                        "username": "bosnds3"
                    }
                },
                "writer": {
                    "name": "mysqlwriter",
                    "parameter": {
                        "column": ["shop_code","plan_date","plan_amt"],
                        "connection": [
                            {
                                "jdbcUrl": "jdbc:mysql://localhost:3306/report_db?characterEncoding=UTF-8&useSSL=false&serverTimezone=Asia/Shanghai",
                                "table": ["sy_v_plani"]
                            }
                        ],
                        "password": "9cjEVa83",
                        "preSql": ["delete from sy_v_plani where plan_date >= UNIX_TIMESTAMP(DATE_ADD(curdate(),interval -day(curdate())+1 day))"],
                        "session": ["set session sql_mode='ANSI'"],
                        "username": "rpdbuser",
                        "writeMode": "update"
                    }
                }
            }
        ],
        "setting": {
            "speed": {
                "channel": "5"
            }
        }
    }
}
