{
    "job": {
        "content": [
            {
                "reader": {
                    "name": "oraclereader",
                    "parameter": {
                        "column": [],
                        "connection": [
                            {
							    "querySql": ["SELECT M_RETAIL.DOCNO as inv_no, rtrim(C_STORE.CODE) as shop_code, M_RETAILITEM.MODIFIEDDATE as sale_date, rtrim(M_PRODUCT.NAME) as item_id, M_ATTRIBUTESETINSTANCE.VALUE1_CODE as color_id, M_ATTRIBUTESETINSTANCE.VALUE2_CODE as size_id, sum(M_RETAILITEM.QTY) as inv_qtys, sum(M_RETAILITEM.TOT_AMT_ACTUAL) as inv_money, avg(M_RETAILITEM.PRICELIST) as tag_price FROM M_RETAILITEM LEFT JOIN M_RETAIL ON M_RETAILITEM.M_RETAIL_ID =M_RETAIL.ID LEFT JOIN M_PRODUCT ON M_RETAILITEM.M_PRODUCT_ID=M_PRODUCT.ID LEFT JOIN M_ATTRIBUTESETINSTANCE ON M_RETAILITEM.M_ATTRIBUTESETINSTANCE_ID=M_ATTRIBUTESETINSTANCE.ID left join C_STORE on M_RETAIL.C_STORE_ID=C_STORE.ID WHERE M_RETAIL.STATUS=2 and TO_CHAR(M_RETAILITEM.MODIFIEDDATE, 'yyyy-mm-dd') >= '${s_day}' and TO_CHAR(M_RETAILITEM.MODIFIEDDATE, 'yyyy-mm-dd') < '${e_day}' group by M_RETAIL.DOCNO,rtrim(C_STORE.CODE),M_RETAILITEM.MODIFIEDDATE,rtrim(M_PRODUCT.NAME),M_ATTRIBUTESETINSTANCE.VALUE1_CODE,M_ATTRIBUTESETINSTANCE.VALUE2_CODE"],
                                "jdbcUrl": ["jdbc:oracle:thin:@//192.168.10.101/ORCL"],
                            }
                        ],
                        "password": "abc123",
                        "username": "bosnds3"
                    }
                },
                "writer": {
                    "name": "mysqlwriter",
                    "parameter": {
                        "column": ["inv_no","shop_code","sale_date","item_id","color_id","size_id","inv_qtys","inv_money","tag_price"],
                        "connection": [
                            {
                                "jdbcUrl": "jdbc:mysql://localhost:3306/report_db?characterEncoding=UTF-8&useSSL=false&serverTimezone=Asia/Shanghai",
                                "table": ["sales_detail"]
                            }
                        ],
                        "password": "9cjEVa83",
                        "preSql": ["delete from sales_detail where sale_date >='${s_day}' and sale_date<'${e_day}'"],
                        "session": ["set session sql_mode='ANSI'"],
                        "username": "rpdbuser",
                        "writeMode": "insert"
                    }
                }
            }
        ],
        "setting": {
            "speed": {
                "channel": "10"
            }
        }
    }
}
