{
    "job": {
        "content": [
            {
                "reader": {
                    "name": "oraclereader",
                    "parameter": {
                        "column": [],
                        "connection": [
                            {
							    "querySql": ["select stock_date as stock_date, shop_code as shop_code, item_id as item_id, color_id as color_id, size_id as size_id, stock_qtys as stock_qtys from (
                    SELECT TO_CHAR( TO_DATE(A .datein, 'YYYY-MM-DD'), 'YYYY-MM-DD') AS stock_date, TRIM(E .code) AS shop_code, D . NAME AS item_id, c.value1_code AS color_id, c.value2_code AS size_id, SUM(b.qtyin) AS stock_qtys FROM m_transfer A, m_transferitem b, m_attributesetinstance c, m_product D, c_store E WHERE A . ID = b.m_transfer_id AND c. ID = b.m_attributesetinstance_id AND D . ID = b.m_product_id AND A .c_dest_id = E . ID AND A .status = 2 AND A .out_status = 2 AND A .in_status = 2 AND A .confirm_status = 2 AND A .isactive = 'Y' AND TO_CHAR( TO_DATE(A .datein, 'YYYY-MM-DD'), 'YYYY-MM-DD') >= '${s_day}' AND TO_CHAR( TO_DATE(A .datein, 'YYYY-MM-DD'), 'YYYY-MM-DD') < '${e_day}' GROUP BY A .datein, E .code, D . NAME, c.value1_code, c.value2_code
                    UNION ALL
                    SELECT TO_CHAR( TO_DATE(A .datein, 'YYYY-MM-DD'), 'YYYY-MM-DD') AS stock_date, TRIM(E .code) AS shop_code, D . NAME AS item_id, c.value1_code AS color_id, c.value2_code AS size_id, SUM(b.qtyin) AS stock_qtys FROM m_sale A, m_saleitem b, m_attributesetinstance c, m_product D, c_store E WHERE A . ID = b.m_sale_id AND c. ID = b.m_attributesetinstance_id AND D . ID = b.m_product_id AND A .c_dest_id = E . ID AND A .status = 2 AND A .confirm_status = 2 AND A .out_status = 2 AND A .in_status = 2 AND A .isactive = 'Y' AND TO_CHAR( TO_DATE(A .datein, 'YYYY-MM-DD'), 'YYYY-MM-DD') >= '${s_day}' AND TO_CHAR( TO_DATE(A .datein, 'YYYY-MM-DD'), 'YYYY-MM-DD') < '${e_day}' GROUP BY A .datein, E .code, D . NAME, c.value1_code, c.value2_code
                    ) a"],
                                "jdbcUrl": ["jdbc:oracle:thin:@//192.168.10.101/ORCL"],
                            }
                        ],
                        "password": "abc123",
                        "username": "bosnds3"
                    }
                },
                "writer": {
                    "name": "mysqlwriter",
                    "parameter": {
                        "column": ["stock_date","shop_code","item_id","color_id","size_id","stock_qtys"],
                        "connection": [
                            {
                                "jdbcUrl": "jdbc:mysql://localhost:3306/report_db?characterEncoding=UTF-8&useSSL=false&serverTimezone=Asia/Shanghai",
                                "table": ["sy_v_shopstock"]
                            }
                        ],
                        "password": "9cjEVa83",
                        "preSql": ["delete from sy_v_shopstock where stock_date>='${s_day}' and stock_date<'${e_day}'"],
                        "session": ["set session sql_mode='ANSI'"],
                        "username": "rpdbuser",
                        "writeMode": "insert"
                    }
                }
            }
        ],
        "setting": {
            "speed": {
                "channel": "5"
            }
        }
    }
}
