{
    "job": {
        "content": [
            {
                "reader": {
                    "name": "sqlserverreader", 
                    "parameter": {
                        "column": [], 
                        "connection": [
                            {
							    "querySql": ["select upper(rtrim(VIP)) as vip_no,isnull(Name,'') as cust_name,upper(ltrim(rtrim(Customer_id)))as shop_code,
                                              Case Sex When '女' Then '2' When '男' Then '1' ELSE '4' END as cust_sex,0 as age,convert(varchar(10), BirthDate, 120) as born_date,
                                              convert(varchar(10), BegainDate, 120) as register_date,' ' as vip_level,isnull(MobileTel,'') as mobile,
                                              isnull(Address,'') as address,isnull(MaiBuisnessManID,'') as staff_id,(CASE WHEN  status ='正常' THEN 1 ELSE 0 END) as vip_state,0 as active_money,
                                              0 as vip_points from CustomerVIP
                                              where (ltrim(rtrim(Customer_id)) <>'' AND VIP not like ' %')"],
                                "jdbcUrl": ["jdbc:sqlserver://10.5.5.25:1433;DatabaseName=dailiNewL"],
                            }
                        ], 
                        "password": "DUOyi&*&*?", 
                        "username": "app"        
                    }
                }, 
                "writer": {
                    "name": "mysqlwriter", 
                    "parameter": {
                        "column": [
						     "vip_no",
							 "cust_name",
							 "shop_code",
							 "cust_sex",
							 "age",
							 "born_date",
							 "register_date",
							 "vip_level",
							 "mobile",
							 "address",
							 "staff_id",
							 "vip_state",
							 "active_money",
							 "vip_points"
							 ], 
                        "connection": [
                            {
                                "jdbcUrl": "jdbc:mysql://127.0.0.1:3306/report_db?useUnicode=true&characterEncoding=utf8", 
                                "table": ["sy_v_vip"]
                            }
                        ], 
                        "password": "DUC#581NeHfZ", 
                        "preSql": ["truncate sy_v_vip"], 
                        "session": ["set session sql_mode='ANSI'"], 
                        "username": "rpdbuser", 
                        "writeMode": "insert"
                    }
                }
            }
        ], 
        "setting": {
            "speed": {
                "channel": "10",
				"batchSize":2048
            }
        }
    }
}

