{
    "job": {
        "content": [
            {
                "reader": {
                    "name": "sqlserverreader",
                    "parameter": {
                        "column": [],
                        "connection": [
                            {
							    "querySql": ["SELECT item_id as item_id, color_id as color_id, item_picture as item_picture FROM (select distinct goodsdtl.code as item_id,case when goodsdtl.L2code ='' or goodsdtl.L2code is null then '9999' when left(goods.brand,1) ='k' then goodsdtl.L2code+'_'+left(goods.brand,1)  else  goodsdtl.L2code+'_'+goods.brand end as color_id,
                  goodsdtl.code+case when goodsdtl.L2code='' then '9999' else goodsdtl.L2code end + '.jpg' as item_picture from goodsdtl
                  left join goods on goodsdtl.code=goods.code) as goodsdtl where color_id is not null and color_id <> ''"],
                                "jdbcUrl": ["jdbc:sqlserver://10.10.0.174:86;DatabaseName=DILI"],
                            }
                        ],
                        "password": "sanyun13710319680",
                        "username": "sanyun"
                    }
                },
                "writer": {
                    "name": "mysqlwriter",
                    "parameter": {
                        "column": ["item_id","color_id","item_picture"],
                        "connection": [
                            {
                                "jdbcUrl": "jdbc:mysql://localhost:3306/report_db_dili?characterEncoding=UTF-8&useSSL=false&serverTimezone=Asia/Shanghai",
                                "table": ["sy_v_itemcolor"]
                            }
                        ],
                        "password": "9cjEVa83",
                        "preSql": ["truncate sy_v_itemcolor"],
                        "postSql": [""],
                        "session": ["set session sql_mode='ANSI'"],
                        "username": "rpdbuser",
                        "writeMode": "insert"
                    }
                }
            }
        ],
        "setting": {
            "speed": {
                "channel": "6"
            }
        }
    }
}
