{
    "job": {
        "content": [
            {
                "reader": {
                    "name": "sqlserverreader",
                    "parameter": {
                        "column": [],
                        "connection": [
                            {
							    "querySql": ["SELECT st_code as st_code, st_name as st_name, st_type_code as st_type_code, st_type_name as st_type_name, 999 as st_order_seq, '1' as st_state FROM (select code as st_code,name as st_name,'49' as st_type_code,'门店等级' as st_type_name from SYS_CSB where brand='49'
                                    union all
                                   select code as st_code,name as st_name,brand as st_type_code,'门店分类' as st_type_name from s_shoptype) as xxx"],
                                "jdbcUrl": ["jdbc:sqlserver://10.10.0.174:86;DatabaseName=DILI"],
                            }
                        ],
                        "password": "sanyun13710319680",
                        "username": "sanyun"
                    }
                },
                "writer": {
                    "name": "mysqlwriter",
                    "parameter": {
                        "column": ["st_code","st_name","st_type_code","st_type_name","st_order_seq","st_state"],
                        "connection": [
                            {
                                "jdbcUrl": "jdbc:mysql://localhost:3306/report_db_dili?characterEncoding=UTF-8&useSSL=false&serverTimezone=Asia/Shanghai",
                                "table": ["sy_v_shop_type"]
                            }
                        ],
                        "password": "9cjEVa83",
                        "preSql": ["truncate sy_v_shop_type"],
                        "session": ["set session sql_mode='ANSI'"],
                        "username": "rpdbuser",
                        "writeMode": "insert"
                    }
                }
            }
        ],
        "setting": {
            "speed": {
                "channel": "6"
            }
        }
    }
}
