{
    "job": {
        "content": [
            {
                "reader": {
                    "name": "sqlserverreader",
                    "parameter": {
                        "column": [],
                        "connection": [
                            {
							    "querySql": ["SELECT RIGHT(code, 1) AS sea_id, CASE RIGHT(code, 1) WHEN '1' THEN '春' WHEN '2' THEN '夏' WHEN '3' THEN '秋' WHEN '4' THEN '冬' ELSE '常年款' END AS sea_name, CASE RIGHT(code, 1) WHEN '1' THEN '春' WHEN '2' THEN '夏' WHEN '3' THEN '秋' WHEN '4' THEN '冬' ELSE '常年款' END AS sea_desc, CASE RIGHT(code, 1) WHEN '1' THEN '12' WHEN '2' THEN '02' WHEN '3' THEN '07' WHEN '4' THEN '09' ELSE '01' END AS s_mon, CASE RIGHT(code, 1) WHEN '1' THEN '04' WHEN '2' THEN '08' WHEN '3' THEN '12' WHEN '4' THEN '02' ELSE '12' END AS e_mon, CASE RIGHT(code, 1) WHEN '1' THEN '-1' WHEN '4' THEN '1' ELSE '0' END AS is_span_sea FROM g_season WHERE len(code) = '3' AND LEFT(code, 2) >= '17' GROUP BY RIGHT(code, 1), CASE RIGHT(code, 1) WHEN '1' THEN '春' WHEN '2' THEN '夏' WHEN '3' THEN '秋' WHEN '4' THEN '冬' ELSE '常年款' END"],
                                "jdbcUrl": ["jdbc:sqlserver://10.10.0.174:86;DatabaseName=DILI"],
                            }
                        ],
                        "password": "sanyun13710319680",
                        "username": "sanyun"
                    }
                },
                "writer": {
                    "name": "mysqlwriter",
                    "parameter": {
                        "column": ["sea_id","sea_name","sea_desc","s_mon","e_mon","is_span_sea"],
                        "connection": [
                            {
                                "jdbcUrl": "jdbc:mysql://localhost:3306/report_db_dili?characterEncoding=UTF-8&useSSL=false&serverTimezone=Asia/Shanghai",
                                "table": ["sy_v_sea"]
                            }
                        ],
                        "password": "9cjEVa83",
                        "preSql": [""],
                        "session": ["set session sql_mode='ANSI'"],
                        "username": "rpdbuser",
                        "writeMode": "update"
                    }
                }
            }
        ],
        "setting": {
            "speed": {
                "channel": "6"
            }
        }
    }
}
