{
    "job": {
        "content": [
            {
                "reader": {
                    "name": "sqlserverreader",
                    "parameter": {
                        "column": [],
                        "connection": [
                            {
							    "querySql": ["SELECT st_code as st_code, shop_code as shop_code FROM (select account as st_code,code as shop_code from SHOP where LOWER(code) not like '%a'
                                   union all
                                   select shoptype as st_code,code as shop_code from shop where LOWER(code) not like '%a') as xxx "],
                                "jdbcUrl": ["jdbc:sqlserver://10.10.0.174:86;DatabaseName=DILI"],
                            }
                        ],
                        "password": "sanyun13710319680",
                        "username": "sanyun"
                    }
                },
                "writer": {
                    "name": "mysqlwriter",
                    "parameter": {
                        "column": ["st_code","shop_code"],
                        "connection": [
                            {
                                "jdbcUrl": "jdbc:mysql://localhost:3306/report_db_dili?characterEncoding=UTF-8&useSSL=false&serverTimezone=Asia/Shanghai",
                                "table": ["sy_v_typeshop"]
                            }
                        ],
                        "password": "9cjEVa83",
                        "preSql": ["truncate sy_v_typeshop"],
                        "session": ["set session sql_mode='ANSI'"],
                        "username": "rpdbuser",
                        "writeMode": "insert"
                    }
                }
            }
        ],
        "setting": {
            "speed": {
                "channel": "6"
            }
        }
    }
}
