{
    "job": {
        "content": [
            {
                "reader": {
                    "name": "sqlserverreader",
                    "parameter": {
                        "column": [],
                        "connection": [
                            {
							    "querySql": ["SELECT pos_sale.code as inv_no, pos_sale.dhcodefrm as shop_code, convert(char(19),pos_sale.gsdate,120) as sale_date, case len(pos_sale.dhcodeto) when 0 then 0 else 1 end as vip_state, upper(pos_sale.empcodegs) as staff_id, pos_sale.dhcodeto as vip_no, pos_sale.totqty as inv_qtys, pos_sale.totamount-isnull(pos_paydtl.amount,0) as inv_money, pos_sale.totstdamt as tag_money FROM pos_sale LEFT JOIN (select code,sum(amount) as amount from pos_paydtl where sku in ('ZSM','YHQ') group by code) as pos_paydtl ON pos_sale.code=pos_paydtl.code WHERE LOWER(pos_sale.dhcodefrm) not like '%a' and pos_sale.gsdate >= '${s_day}' and pos_sale.gsdate < '${e_day}'"],
                                "jdbcUrl": ["jdbc:sqlserver://10.10.0.174:86;DatabaseName=DILI"],
                            }
                        ],
                        "password": "sanyun13710319680",
                        "username": "sanyun"
                    }
                },
                "writer": {
                    "name": "mysqlwriter",
                    "parameter": {
                        "column": ["inv_no","shop_code","sale_date","vip_state","staff_id","vip_no","inv_qtys","inv_money","tag_money"],
                        "connection": [
                            {
                                "jdbcUrl": "jdbc:mysql://localhost:3306/report_db_dili?characterEncoding=UTF-8&useSSL=false&serverTimezone=Asia/Shanghai",
                                "table": ["sales_info"]
                            }
                        ],
                        "password": "9cjEVa83",
                        "preSql": ["delete from sales_info where sale_date>='${s_day}' and sale_date<'${e_day}'"],
                        "session": ["set session sql_mode='ANSI'"],
                        "username": "rpdbuser",
                        "writeMode": "insert"
                    }
                }
            }
        ],
        "setting": {
            "speed": {
                "channel": "5"
            }
        }
    }
}
