{
    "job": {
        "content": [
            {
                "reader": {
                    "name": "oraclereader",
                    "parameter": {
                        "column": [],
                        "connection": [
                            {
							    "querySql": ["SELECT vip_no as vip_no, cust_name as cust_name, shop_code as shop_code, case when cust_sex='W' then '2' else '1' end as cust_sex, 0 as age, to_char(to_date(born_date, 'yyyy-mm-dd'),'yyyy-mm-dd') as born_date, to_char(to_date(register_date,'yyyy-mm-dd hh24:mi:ss'),'yyyy-mm-dd hh24:mi:ss') as register_date, v1_name as vip_level, mobile as mobile, address as address, staff_id as staff_id, 1 as vip_state, 0 as active_money, vip_points as vip_points FROM sy_v_vip left join BOSNDS3.SY_V_VIP_LEVEL on sy_v_vip.vip_level=SY_V_VIP_LEVEL.v1_code where to_char(to_date(register_date,'yyyy-mm-dd hh24:mi:ss'),'yyyy-mm-dd hh24:mi:ss')>='${s_day}' and to_char(to_date(register_date,'yyyy-mm-dd hh24:mi:ss'),'yyyy-mm-dd hh24:mi:ss')<'${e_day}'"],
                                "jdbcUrl": ["jdbc:oracle:thin:@//192.168.0.18/orcl"],
                            }
                        ],
                        "password": "syvuser",
                        "username": "syvuser"
                    }
                },
                "writer": {
                    "name": "mysqlwriter",
                    "parameter": {
                        "column": ["vip_no","cust_name","shop_code","cust_sex","age","born_date","register_date","vip_level","mobile","address","staff_id","vip_state","active_money","vip_points"],
                        "connection": [
                            {
                                "jdbcUrl": "jdbc:mysql://localhost:3306/report_db?characterEncoding=UTF-8&useSSL=false&serverTimezone=Asia/Shanghai",
                                "table": ["sy_v_vip"]
                            }
                        ],
                        "password": "9cjEVa83",
                        "preSql": ["delete from sy_v_vip where register_date>='${s_day}' and register_date<'${e_day}'"],
                        "session": ["set session sql_mode='ANSI'"],
                        "username": "rpdbuser",
                        "writeMode": "insert"
                    }
                }
            }
        ],
        "setting": {
            "speed": {
                "channel": "10",
				"batchSize":2048
            }
        }
    }
}
