{
    "job": {
        "content": [
            {
                "reader": {
                    "name": "oraclereader",
                    "parameter": {
                        "column": [],
                        "connection": [
                            {
							    "querySql": ["SELECT item_id as item_id, decode(item_key, null, ' ', item_key) as item_key, 'SYJ' as brand_id, year_id as year_id, sea_id as sea_id, sea_name as sea_name, cost as cost, ic_id as ic_id, ic_name as ic_name, 'N' as is_acc, sale_price as sale_price, item_desc as item_desc, '' as sales_point, item_id||'.jpg' as item_file, '' as info_url, decode(style_id, null, '0', style_id) as style_id, decode(pub_date, NULL, 0, trunc(TO_NUMBER(to_date(pub_date, 'yyyymmdd') - TO_DATE('1970-01-01 8:0:0', 'yyyy-mm-dd hh24:mi:ss'))*24*60*60)) as pub_date FROM sy_v_item"],
                                "jdbcUrl": ["jdbc:oracle:thin:@//192.168.0.18/orcl"],
                            }
                        ],
                        "password": "syvuser",
                        "username": "syvuser"
                    }
                },
                "writer": {
                    "name": "mysqlwriter",
                    "parameter": {
                        "column": ["item_id","item_key","brand_id","year_id","sea_id","sea_name","cost","ic_id","ic_name","is_acc","sale_price","item_desc","sales_point","item_file","info_url","style_id","pub_date"],
                        "connection": [
                            {
                                "jdbcUrl": "jdbc:mysql://localhost:3306/report_db?characterEncoding=UTF-8&useSSL=false&serverTimezone=Asia/Shanghai",
                                "table": ["sy_v_item"]
                            }
                        ],
                        "password": "9cjEVa83",
                        "preSql": ["truncate sy_v_item"],
						"postSql":["update sy_v_item a left join (select year_id, i.sea_id, s_mon, e_mon, concat(if(is_span_sea<0, year_id+is_span_sea, year_id), '-', LPAD(s_mon,2,'0'), '-01') as s, LAST_DAY(concat(if(is_span_sea>0, year_id+is_span_sea, year_id), '-', LPAD(e_mon,2,'0'), '-01')) as e from sy_v_item i left join sy_v_sea s on s.sea_id = i.sea_id where i.sea_id is not null and i.sea_id <> '' and year_id > 0 GROUP BY year_id, i.sea_id)b on a.sea_id = b.sea_id and a.year_id = b.year_id set s_date = s, e_date = e where a.year_id > 0 and a.sea_id is not null and a.sea_id <> ''",
              "update sy_v_item set s_date = concat(if(year_id=0, '2006', year_id), '-01-01'), e_date = concat(if(year_id=0, '2006', year_id), '-12-31') where s_date = '0000-00-00'",
                  "update sy_v_item set pub_date=UNIX_TIMESTAMP(s_date) where pub_date <= 0 and s_date <> '0000-00-00'",
						            "update sy_v_item a,sy_v_category b set a.is_add =2 where a.ic_id = b.ic_id and b.ic_prop >2",
									"update sy_v_item a,sy_v_category b set a.is_acc='Y' where a.ic_id = b.ic_id and b.ic_prop <>2"],
                        "session": ["set session sql_mode='ANSI'"],
                        "username": "rpdbuser",
                        "writeMode": "insert"
                    }
                }
            }
        ],
        "setting": {
            "speed": {
                "channel": "10"
            }
        }
    }
}
