{
    "job": {
        "content": [
            {
                "reader": {
                    "name": "oraclereader",
                    "parameter": {
                        "column": [],
                        "connection": [
                            {
							    "querySql": ["SELECT to_char(to_date(sale_date,'yyyy-mm-dd hh24:mi:ss'),'yyyy-mm-dd hh24:mi:ss') as sale_date, shop_code as shop_code, staff_id as staff_id, sale_amt as sale_amt FROM sy_v_staff_sales WHERE to_char(to_date(sale_date,'yyyy-mm-dd hh24:mi:ss'),'yyyy-mm-dd hh24:mi:ss') >= '${s_day}' and to_char(to_date(sale_date,'yyyy-mm-dd hh24:mi:ss'),'yyyy-mm-dd hh24:mi:ss') < '${e_day}'"],
                                "jdbcUrl": ["jdbc:oracle:thin:@//192.168.0.18/orcl"],
                            }
                        ],
                        "password": "syvuser",
                        "username": "syvuser"
                    }
                },
                "writer": {
                    "name": "mysqlwriter",
                    "parameter": {
                        "column": ["sale_date","shop_code","staff_id","sale_amt"],
                        "connection": [
                            {
                                "jdbcUrl": "jdbc:mysql://localhost:3306/report_db?characterEncoding=UTF-8&useSSL=false&serverTimezone=Asia/Shanghai",
                                "table": ["sy_v_staff_sales"]
                            }
                        ],
                        "password": "9cjEVa83",
                        "preSql": ["delete from sy_v_staff_sales where sale_date>='${s_day}' and sale_date<'${e_day}'"],
                        "session": ["set session sql_mode='ANSI'"],
                        "username": "rpdbuser",
                        "writeMode": "insert"
                    }
                }
            }
        ],
        "setting": {
            "speed": {
                "channel": "6"
            }
        }
    }
}
