{
    "job": {
        "content": [
            {
                "reader": {
                    "name": "oraclereader",
                    "parameter": {
                        "column": [],
                        "connection": [
                            {
							    "querySql": ["SELECT shop_code as shop_code, item_id as item_id, color_id as color_id, size_id as size_id, stock_qtys as stock_qtys FROM sy_v_stock WHERE stock_qtys <> 0"],
                                "jdbcUrl": ["jdbc:oracle:thin:@//192.168.0.18/orcl"],
                            }
                        ],
                        "password": "syvuser",
                        "username": "syvuser"
                    }
                },
                "writer": {
                    "name": "mysqlwriter",
                    "parameter": {
                        "column": ["shop_code","item_id","color_id","size_id","stock_qtys"],
                        "connection": [
                            {
                                "jdbcUrl": "jdbc:mysql://localhost:3306/report_db?characterEncoding=UTF-8&useSSL=false&serverTimezone=Asia/Shanghai",
                                "table": ["sy_v_stock"]
                            }
                        ],
                        "password": "9cjEVa83",
                        "preSql": ["truncate sy_v_stock"],
                        "session": ["set session sql_mode='ANSI'"],
                        "username": "rpdbuser",
                        "writeMode": "insert"
                    }
                }
            }
        ],
        "setting": {
            "speed": {
                "channel": "10",
				"batchSize":2048
            }
        }
    }
}
