{
    "job": {
        "content": [
            {
                "reader": {
                    "name": "mysqlreader",
                    "parameter": {
                        "column": [],
                        "connection": [
                            {
							    "querySql": ["select ic_id, ic_name, ic_code, class_id, ic_prop, 1, ic_order from sy_v_category"],
                                "jdbcUrl": ["jdbc:mysql://localhost:3306/report_db?characterEncoding=UTF-8&useSSL=false&serverTimezone=Asia/Shanghai"],

                            }
                        ],
                        "password": "SyRp#7951",
                        "username": "root",
                        "where": ""
                    }
                },

                "writer": {
                    "name": "mysqlwriter",
                    "parameter": {
                        "column": ["style_id"," style_name"," style_code"," class_id"," style_prop"," style_state"," style_order"],
                        "connection": [
                            {
                                "jdbcUrl": "jdbc:mysql://localhost:3306/lsl_report_db?characterEncoding=UTF-8&useSSL=false&serverTimezone=Asia/Shanghai",
                                "table": ["sy_v_item_style"]
                            }
                        ],
                        "password": "SyRp#7951",
                        "preSql": ["truncate sy_v_item_style"],
                        "session": ["set session sql_mode='ANSI'"],
                        "username": "root",
                        "writeMode": "insert"
                    }
                }
            }
        ],
        "setting": {
            "speed": {
                "channel": "10",
				"batchSize":2048
            }
        }
    }
}
