{
    "job": {
        "content": [
            {
                "reader": {
                    "name": "mysqlreader",
                    "parameter": {
                        "column": [],
                        "connection": [
                            {
							    "querySql": ["select item_id, brand_id, is_add, is_included, year_id, sea_id, sea_name, cost, sub_icid, wave_no, ic_id, ic_name, class_id, class_name, sc_id, sc_name, is_acc, sale_price, item_desc, sales_point, item_file, info_url, style_id, s_date, e_date, pub_date from sy_v_item"],
                                "jdbcUrl": ["jdbc:mysql://localhost:3306/report_db?characterEncoding=UTF-8&useSSL=false&serverTimezone=Asia/Shanghai"],

                            }
                        ],
                        "password": "SyRp#7951",
                        "username": "root",
                        "where": ""
                    }
                },

                "writer": {
                    "name": "mysqlwriter",
                    "parameter": {
                        "column": ["item_id"," brand_id"," is_add"," is_included"," year_id"," sea_id"," sea_name"," cost"," sub_icid"," wave_no"," ic_id"," ic_name"," class_id"," class_name"," sc_id"," sc_name"," is_acc"," sale_price"," item_desc"," sales_point"," item_file"," info_url"," style_id"," s_date"," e_date"," pub_date"],
                        "connection": [
                            {
                                "jdbcUrl": "jdbc:mysql://localhost:3306/lsl_report_db?characterEncoding=UTF-8&useSSL=false&serverTimezone=Asia/Shanghai",
                                "table": ["sy_v_item"]
                            }
                        ],
                        "password": "SyRp#7951",
                        "preSql": ["truncate sy_v_item"],
                        "postSql": ["update sy_v_item i set i.class_id = i.ic_id, i.class_name = i.ic_name",
                            "update sy_v_item i, sy_v_category c set i.ic_id = i.sc_id, i.ic_name = c.ic_name WHERE i.sc_id = c.ic_id",
                            "update sy_v_item i set i.sc_id = '',i.sc_name = ''",
                          "-- 5
                          update sy_v_item i ,(
                          select item_id,cat_id , cat_extra from sy_v_item i, sy_v_category_all c where i.ic_id = c.cat_extra and cat_level=5
                          ) c set i.cat_id5 = c.cat_id where i.item_id = c.item_id",
                          "-- 4
                          update sy_v_item i ,(
                          select item_id,c4.cat_id from sy_v_item i, sy_v_category_all c5, sy_v_category_all c4 where i.cat_id5 = c5.cat_id and c5.parent_cat_id = c4.cat_id and c5.cat_level=5
                          ) c set i.cat_id4 = c.cat_id where i.item_id = c.item_id",
                          "-- 3
                          update sy_v_item i ,(
                            select item_id,c1.cat_id from sy_v_item i, sy_v_category_all c2, sy_v_category_all c1 where i.cat_id4 = c2.cat_id and c2.parent_cat_id = c1.cat_id and c2.cat_level=4
                            ) c set i.cat_id3 = c.cat_id where i.item_id = c.item_id",
                          "-- 2
                          update sy_v_item i ,(
                            select item_id,c1.cat_id from sy_v_item i, sy_v_category_all c2, sy_v_category_all c1 where i.cat_id3 = c2.cat_id and c2.parent_cat_id = c1.cat_id and c2.cat_level=3
                            ) c set i.cat_id2 = c.cat_id where i.item_id = c.item_id",
                          "-- 1
                          update sy_v_item i ,(
                            select item_id,c1.cat_id from sy_v_item i, sy_v_category_all c2, sy_v_category_all c1 where i.cat_id2 = c2.cat_id and c2.parent_cat_id = c1.cat_id and c2.cat_level=2
                            ) c set i.cat_id1 = c.cat_id where i.item_id = c.item_id",
                        "-- style
                        update sy_v_item i set i.style_id = i.cat_id4"],
                        "session": ["set session sql_mode='ANSI'"],
                        "username": "root",
                        "writeMode": "insert"
                    }
                }
            }
        ],
        "setting": {
            "speed": {
                "channel": "10",
				"batchSize":2048
            }
        }
    }
}
