{
    "job": {
        "content": [
            {
                "reader": {
                    "name": "mysqlreader",
                    "parameter": {
                        "column": [],
                        "connection": [
                            {
							    "querySql": ["select vip_no, cust_name, vip_level, shop_code, register_date, cust_sex, age, if(born_date='0000-00-00','1970-01-01',born_date), mobile, address, staff_id, vip_state, active_money, vip_points from sy_v_vip"],
                                "jdbcUrl": ["jdbc:mysql://localhost:3306/report_db?characterEncoding=UTF-8&useSSL=false&serverTimezone=Asia/Shanghai"],

                            }
                        ],
                        "password": "SyRp#7951",
                        "username": "root",
                        "where": ""
                    }
                },

                "writer": {
                    "name": "mysqlwriter",
                    "parameter": {
                        "column": ["vip_no","cust_name","vip_level","shop_code","register_date","cust_sex","age","born_date","mobile","address","staff_id","vip_state","active_money","vip_points"],
                        "connection": [
                            {
                                "jdbcUrl": "jdbc:mysql://localhost:3306/lsl_report_db?characterEncoding=UTF-8&useSSL=false&serverTimezone=Asia/Shanghai",
                                "table": ["sy_v_vip"]
                            }
                        ],
                        "password": "SyRp#7951",
                        "preSql": ["truncate sy_v_vip"],
                        "session": ["set session sql_mode='ANSI'"],
                        "username": "root",
                        "writeMode": "insert"
                    }
                }
            }
        ],
        "setting": {
            "speed": {
                "channel": "10",
				"batchSize":2048
            }
        }
    }
}
