{
    "job": {
        "content": [
            {
                "reader": {
                    "name": "mysqlreader",
                    "parameter": {
                        "column": [],
                        "connection": [
                            {
							    "querySql": ["select item_id,color_id,item_picture from sy_v_itemcolor"],
                                "jdbcUrl": ["jdbc:mysql://localhost:3306/report_db?characterEncoding=UTF-8&useSSL=false&serverTimezone=Asia/Shanghai"],

                            }
                        ],
                        "password": "SyRp#7951",
                        "username": "root",
                        "where": ""
                    }
                },

                "writer": {
                    "name": "mysqlwriter",
                    "parameter": {
                        "column": ["item_id","color_id","item_picture"],
                        "connection": [
                            {
                                "jdbcUrl": "jdbc:mysql://localhost:3306/lsl_report_db?characterEncoding=UTF-8&useSSL=false&serverTimezone=Asia/Shanghai",
                                "table": ["sy_v_itemcolor"]
                            }
                        ],
                        "password": "SyRp#7951",
                        "preSql": ["truncate sy_v_itemcolor"],
                        "postSql": [""],
                        "session": ["set session sql_mode='ANSI'"],
                        "username": "root",
                        "writeMode": "insert"
                    }
                }
            }
        ],
        "setting": {
            "speed": {
                "channel": "10",
				"batchSize":2048
            }
        }
    }
}
