{
    "job": {
        "content": [
            {
                "reader": {
                    "name": "sqlserverreader",
                    "parameter": {
                        "column": [],
                        "connection": [
                            {
							                  "querySql": ["SELECT CKDM as shop_code, CKMC as shop_name, '' as ref_shopcode, '' as branch_id, 0 as shop_area, 0 as stand_staffs, 0 as real_staff, 0 as tel_no, '' as addr, '' as contact FROM CANGKU WHERE CKDM in ('000','002','008')"],
                                "jdbcUrl": ["jdbc:sqlserver://172.20.18.105:1433;DatabaseName=BSERP3MGN"],
                            }
                        ],
                        "password": "it@!123456",
                        "username": "it"
                    }
                },
                "writer": {
                    "name": "mysqlwriter",
                    "parameter": {
                        "column": ["shop_code","shop_name","ref_shopcode","branch_id","shop_area","stand_staffs","real_staff","tel_no","addr","contact"],
                        "connection": [
                            {
                                "jdbcUrl": "jdbc:mysql://localhost:3306/report_db_mgn?characterEncoding=UTF-8&useSSL=false&serverTimezone=Asia/Shanghai",
                                "table": ["sy_v_shop"]
                            }
                        ],
                        "password": "9cjEVa83",
                        "preSql": [""],
                        "session": ["set session sql_mode='ANSI'"],
                        "username": "rpdbuser",
                        "writeMode": "update"
                    }
                }
            }
        ],
        "setting": {
            "speed": {
                "channel": "6"
            }
        }
    }
}
