{
    "job": {
        "content": [
            {
                "reader": {
                    "name": "sqlserverreader",
                    "parameter": {
                        "column": [],
                        "connection": [
                            {
							    "querySql": ["SELECT goodsbarcode.barcode as bar_no, goodsdtl.code as item_id, case when goodsdtl.L2code ='' or goodsdtl.L2code is null then '9999' when left(goods.brand,1) ='k' then goodsdtl.L2code+'_'+left(goods.brand,1)  else  goodsdtl.L2code+'_'+goods.brand end as color_id, case when goodsdtl.L2code='' then '未定义' else g_level2.name end as color_name, case when goodsdtl.l3code='' then 'F' else goodsdtl.l3code end as size_id, case when goodsdtl.l3code='' then 'F' else goodsdtl.l3code end as size_code FROM goodsbarcode LEFT JOIN goodsdtl ON goodsbarcode.sku=goodsdtl.sku LEFT JOIN goods ON goodsdtl.code=goods.code LEFT JOIN g_level2 ON goodsdtl.L2code=g_level2.code and goods.brand=g_level2.brand LEFT JOIN g_level3 ON goodsdtl.l3code=g_level3.code and goods.lvlcode=g_level3.brand WHERE len(goods.season)='3' and left(goods.season,2)>='17' and goodsbarcode.barcode like '69%'"],
                                "jdbcUrl": ["jdbc:sqlserver://10.10.0.198:87;DatabaseName=yjfsnew"],

                            }
                        ],
                        "password": "sanyun13710319680",
                        "username": "sanyun"
                    }
                },
                "writer": {
                    "name": "mysqlwriter",
                    "parameter": {
                        "column": ["bar_no","item_id","color_id","color_name","size_id","size_code"],
                        "connection": [
                            {
                                "jdbcUrl": "jdbc:mysql://localhost:3306/report_db_kj?characterEncoding=UTF-8&useSSL=false&serverTimezone=Asia/Shanghai",
                                "table": ["sy_v_barcode"]
                            }
                        ],
                        "password": "9cjEVa83",
                        "preSql": ["truncate sy_v_barcode"],
                        "session": ["set session sql_mode='ANSI'"],
                        "username": "rpdbuser",
                        "writeMode": "insert"
                    }
                }
            }
        ],
        "setting": {
            "speed": {
                "channel": "6"
            }
        }
    }
}
