{
    "job": {
        "content": [
            {
                "reader": {
                    "name": "sqlserverreader",
                    "parameter": {
                        "column": [],
                        "connection": [
                            {
							    "querySql": ["SELECT goods.code as item_id, goods.brand as brand_id, 1 as is_add, '20'+left(g_season.code,2) as year_id, right(g_season.code,1) as sea_id, case right(g_season.code,1) when '1' then '春' when '2' then '夏' when '3' then '秋' when '4' then '冬' else '常年款' end as sea_name, cast(isnull(soPrice,0) as decimal(12,2)) as cost, case when goods.othertype10 is null then '9999' else goods.othertype10 end as class_id, case  when goods.othertype10 is null then '未分类' else g_othertype10.name end as class_name, case when goods.othertype11 is null then '9999' else goods.othertype11 end as ic_id, case when goods.othertype11 is null then '未分类' else g_othertype11.name end as ic_name, 'N' as is_acc, cast(price as decimal(10,2)) as sale_price, goods.name as item_desc, goods.code+'.jpg' as item_file, DATEDIFF(s, '19700101',GETDATE()) as pub_date, ' ' as info_url, '0' as style_id FROM goods LEFT JOIN g_season ON goods.season=g_season.code LEFT JOIN g_othertype10 ON goods.othertype10=g_othertype10.code LEFT JOIN g_othertype11 ON goods.othertype11=g_othertype11.code WHERE len(g_season.code)='3' and left(g_season.code,2)>='18'"],
                                "jdbcUrl": ["jdbc:sqlserver://10.10.0.198:87;DatabaseName=yjfsnew"],
                            }
                        ],
                        "password": "sanyun13710319680",
                        "username": "sanyun"
                    }
                },
                "writer": {
                    "name": "mysqlwriter",
                    "parameter": {
                        "column": ["item_id","brand_id","is_add","year_id","sea_id","sea_name","cost","class_id","class_name","ic_id","ic_name","is_acc","sale_price","item_desc","item_file","pub_date","info_url","style_id"],
                        "connection": [
                            {
                                "jdbcUrl": "jdbc:mysql://localhost:3306/report_db_kj?characterEncoding=UTF-8&useSSL=false&serverTimezone=Asia/Shanghai",
                                "table": ["sy_v_item"]
                            }
                        ],
                        "password": "9cjEVa83",
                        "preSql": ["truncate sy_v_item"],
						"postSql":["update sy_v_item a left join (select year_id, i.sea_id, s_mon, e_mon, concat(if(is_span_sea<0, year_id+is_span_sea, year_id), '-', LPAD(s_mon,2,'0'), '-01') as s, LAST_DAY(concat(if(is_span_sea>0, year_id+is_span_sea, year_id), '-', LPAD(e_mon,2,'0'), '-01')) as e from sy_v_item i left join sy_v_sea s on s.sea_id = i.sea_id where i.sea_id is not null and i.sea_id <> '' and year_id > 0 GROUP BY year_id, i.sea_id)b on a.sea_id = b.sea_id and a.year_id = b.year_id set s_date = s, e_date = e where a.year_id > 0 and a.sea_id is not null and a.sea_id <> ''",
              "update sy_v_item set s_date = concat(if(year_id=0, '2006', year_id), '-01-01'), e_date = concat(if(year_id=0, '2006', year_id), '-12-31') where s_date = '0000-00-00'",
                  "update sy_v_item set pub_date=UNIX_TIMESTAMP(s_date) where pub_date <= 0 and s_date <> '0000-00-00'",
						            "update sy_v_item a,sy_v_category b set a.is_add =2 where a.ic_id = b.ic_id and b.ic_prop >2",
									"update sy_v_item a,sy_v_category b set a.is_acc='Y' where a.ic_id = b.ic_id and b.ic_prop <>2"],
                        "session": ["set session sql_mode='ANSI'"],
                        "username": "rpdbuser",
                        "writeMode": "update"
                    }
                }
            }
        ],
        "setting": {
            "speed": {
                "channel": "10"
            }
        }
    }
}
