{
    "job": {
        "content": [
            {
                "reader": {
                    "name": "mysqlreader",
                    "parameter": {
                        "column": [],
                        "connection": [
                            {
							    "querySql": ["select shop_code as shop_code,UNIX_TIMESTAMP(sale_date) as sale_date,sum(sale_qtys) as sale_qtys,sum(sale_amt) as sale_amt,sum(tag_amt) as tag_amt,sum(new_amt) as new_amt,sum(tag_amt2) as tag_amt2,
											 sum(add_qtys) as add_qtys,sum(sale_sheets) as sale_sheets,sum(new_vips) as new_vips,sum(vip_sheets) as vip_sheets,sum(vip_amt) as vip_amt,rec_amt as rec_amt,arr_amt as arr_amt
                                              from(
                                              select b.shop_code as shop_code,date_format(b.sale_date,'%Y-%m-%d') as sale_date,sum(a.inv_qtys) as sale_qtys,sum(a.inv_money) as sale_amt,sum(a.inv_qtys*a.tag_price) as tag_amt,
											  sum(case when b.sale_date >=c.s_date and b.sale_date <= c.e_date then a.inv_money else 0 end) as new_amt,sum(case when b.sale_date >=c.s_date and b.sale_date <=c.e_date then a.inv_qtys*a.tag_price else 0 end) as tag_amt2,
											  sum(case c.is_add when 1 then a.inv_qtys else 0 end) as add_qtys,0 as sale_sheets,0 as new_vips, 0 as vip_sheets,sum(case b.vip_state when '1' then a.inv_money else 0 end) as vip_amt,sum(a.rec_money) as rec_amt,sum(a.arr_money) as arr_amt
                                              from sales_detail a, sales_info b,sy_v_item c,sy_v_category d
                                              where a.inv_no= b.inv_no and a.item_id = c.item_id and c.ic_id = d.ic_id and d.ic_prop<>3
                                              and b.sale_date>='${s_day}' and b.sale_date<'${e_day}'
                                               group by b.shop_code,date_format(b.sale_date,'%Y-%m-%d')
                                              union all
                                              select b.shop_code as shop_code,date_format(b.sale_date,'%Y-%m-%d') as sale_date,sum(a.inv_qtys) as sale_qtys,sum(a.inv_money) as sale_amt,sum(a.inv_qtys*a.tag_price) as tag_amt,
                                              0 as new_amt,0 as tag_amt2,
                                              sum(a.inv_qtys) as add_qtys,0 as sale_sheets,0 as new_vips, 0 as vip_sheets,sum(case b.vip_state when 1 then a.inv_money else 0 end) as vip_amt,sum(a.rec_money) as rec_amt,sum(a.arr_money) as arr_amt
                                              from sales_detail a,sales_info b
                                              where a.inv_no= b.inv_no and NOT EXISTS (SELECT item_id FROM sy_v_item c WHERE a.item_id = c.item_id)
                                              and b.sale_date>=date_format('${s_day}','%Y-%m-%d') and b.sale_date<date_format('${e_day}','%Y-%m-%d')
                                              group by shop_code,date_format(sale_date,'%Y-%m-%d')
                                              union all
                                              select shop_code as shop_code,date_format(sale_date,'%Y-%m-%d') as sale_date,0 as sale_qtys,0 as sale_amt,0 as tag_amt,0 as new_amt,0 as tag_amt2,0 as add_qtys,
											  sum(case when inv_type=1 then 1 when inv_type=2 then -1 else 0 end) as sale_sheets,0 as new_vips,
											  sum(case when vip_state='1' and inv_type=1 then 1 when vip_state='1' and inv_type=2 then -1 else 0 end) as vip_sheets,0 as vip_amt,0 as rec_amt,0 as arr_amt
                                              from sales_info
                                              where sale_date>='${s_day}' and sale_date<'${e_day}'
                                              group by shop_code,date_format(sale_date,'%Y-%m-%d')
                                               union all
                                              select shop_code as shop_code,date_format(register_date,'%Y-%m-%d') as sale_date,0 as sale_qtys,0 as sale_amt,0 as tag_amt,0 as new_amt,0 as tag_amt2,0 as add_qtys,
											  0 as sale_sheets,count(*) as new_vips,0 as vip_sheets,0 as vip_amt,0 as rec_amt,0 as arr_amt
                                              from sy_v_vip
                                              where register_date>='${s_day}' and register_date<'${e_day}'
                                              group by shop_code,date_format(register_date,'%Y-%m-%d') ) as xxx
											  group by shop_code,sale_date"],
                                "jdbcUrl": ["jdbc:mysql://localhost:3306/report_db_kj?characterEncoding=UTF-8&useSSL=false&serverTimezone=Asia/Shanghai"],

                            }
                        ],
                        "password": "9cjEVa83",
                        "username": "rpdbuser",
                        "where": ""
                    }
                },

                "writer": {
                    "name": "mysqlwriter",
                    "parameter": {
                        "column": ["shop_code","sale_date","sale_qtys","sale_amt","tag_amt","new_amt","tag_amt2","add_qtys","sale_sheets","new_vips","vip_sheets","vip_amt","rec_amt","arr_amt"],
                        "connection": [
                            {
                                "jdbcUrl": "jdbc:mysql://localhost:3306/report_db_kj?characterEncoding=UTF-8&useSSL=false&serverTimezone=Asia/Shanghai",
                                "table": ["sy_v_sales"]
                            }
                        ],
                        "password": "9cjEVa83",
                        "preSql": ["delete from sy_v_sales where sale_date >=UNIX_TIMESTAMP('${s_day}') and sale_date<UNIX_TIMESTAMP('${e_day}')"],
                        "session": ["set session sql_mode='ANSI'"],
                        "username": "rpdbuser",
                        "writeMode": "insert"
                    }
                }
            }
        ],
        "setting": {
            "speed": {
                "channel": "10",
				"batchSize":2048
            }
        }
    }
}
