{
    "job": {
        "content": [
            {
                "reader": {
                    "name": "oraclereader",
                    "parameter": {
                        "column": [],
                        "connection": [
                            {
							    "querySql": ["SELECT CASE WHEN SUBSTR(A.INTL_BC,0,1)='@' THEN A.INNER_BC ELSE A.INTL_BC END AS bao_no, B.PROD_CLS_CODE AS item_id, NVL(C.COLOR_CODE,'9999') AS color_id, NVL(C.COLOR_CODE,'') AS color_name, CASE WHEN D.SPEC_CODE='*' THEN 'F' ELSE D.SPEC_CODE END AS size_id FROM crosslink.PRODUCT A LEFT JOIN crosslink.PROD_CLS B ON A.PROD_CLS_ID = B.PROD_CLS_ID LEFT JOIN crosslink.COLOR C ON A.COLOR_ID=C.COLOR_ID LEFT JOIN crosslink.SPEC D ON A.SPEC_ID = D.SPEC_ID"],
                                "jdbcUrl": ["jdbc:oracle:thin:@//172.16.80.17:21521/ghdxposadg"],
                            }
                        ],
                        "password": "a123qwe",
                        "username": "sy_bi"
                    }
                },
                "writer": {
                    "name": "mysqlwriter",
                    "parameter": {
                        "column": ["bar_no","item_id","color_id","color_name","size_id"],
                        "connection": [
                            {
                                "jdbcUrl": "jdbc:mysql://localhost:3306/report_db?characterEncoding=UTF-8&useSSL=false&serverTimezone=Asia/Shanghai",
                                "table": ["sy_v_barcode"]
                            }
                        ],
                        "password": "9cjEVa83",
                        "preSql": ["truncate sy_v_barcode"],
                        "session": ["set session sql_mode='ANSI'"],
                        "username": "rpdbuser",
                        "writeMode": "update"
                    }
                }
            }
        ],
        "setting": {
            "speed": {
                "channel": "5"
            }
        }
    }
}
