{
    "job": {
        "content": [
            {
                "reader": {
                    "name": "oraclereader",
                    "parameter": {
                        "column": [],
                        "connection": [
                            {
							    "querySql": ["SELECT A.STB_NUM AS IVN_NO, D.RCV_TIME AS STOCK_DATE, E.UNIT_CODE AS SHOP_CODE, H.PROD_CLS_CODE AS ITEM_ID, NVL(F.COLOR_CODE, '9999') AS COLOR_ID, (CASE WHEN F.SPEC_CODE='*' THEN 'F' ELSE F.SPEC_CODE END) AS SPEC_ID, SUM(F.QTY) AS INSTOCK_QTYS, SUM(F.QTY*H.LST_PRICE) AS INSTOCK_MONEY FROM CROSSLINK.STB A LEFT JOIN CROSSLINK.GRN D ON A.UNIT_ID=D.UNIT_ID AND A.STB_NUM = D.GRN_NUM LEFT JOIN CROSSLINK.SYS_UNIT E ON A.WAREH_ID = E.UNIT_ID LEFT JOIN CROSSLINK.STB_GH_DTL F ON A.UNIT_ID = F.UNIT_ID AND A.STB_NUM = F.STB_NUM LEFT JOIN CROSSLINK.PRODUCT G ON F.PROD_ID = G.PROD_ID LEFT JOIN CROSSLINK.PROD_CLS H ON G.PROD_CLS_ID = H.PROD_CLS_ID WHERE A.DR_TYPE = 'R' AND D.PROGRESS='RD' AND A.SRC_DOC_TYPE IN ('IBC','TFN') AND to_char(D.RCV_TIME,'yyyy-mm-dd hh24:mi:ss') >= '${s_day}' and to_char(D.RCV_TIME,'yyyy-mm-dd hh24:mi:ss') < '${e_day}' GROUP BY A.STB_NUM, D.RCV_TIME, E.UNIT_CODE, H.PROD_CLS_CODE, F.COLOR_CODE, F.SPEC_CODE"],
                                "jdbcUrl": ["jdbc:oracle:thin:@//172.16.80.17:21521/ghdxposadg"],
                            }
                        ],
                        "password": "a123qwe",
                        "username": "sy_bi"
                    }
                },
                "writer": {
                    "name": "mysqlwriter",
                    "parameter": {
                        "column": ["inv_no","stock_date","shop_code","item_id","color_id","size_id","stock_qtys","stock_money"],
                        "connection": [
                            {
                                "jdbcUrl": "jdbc:mysql://localhost:3306/report_db?characterEncoding=UTF-8&useSSL=false&serverTimezone=Asia/Shanghai",
                                "table": ["sy_v_shopstock"]
                            }
                        ],
                        "password": "9cjEVa83",
                        "preSql": ["delete from sy_v_shopstock where stock_date>='${s_day}' and stock_date<'${e_day}'"],
                        "session": ["set session sql_mode='ANSI'"],
                        "username": "rpdbuser",
                        "writeMode": "insert"
                    }
                }
            }
        ],
        "setting": {
            "speed": {
                "channel": "5"
            }
        }
    }
}
