{
    "job": {
        "content": [
            {
                "reader": {
                    "name": "oraclereader",
                    "parameter": {
                        "column": [],
                        "connection": [
                            {
							    "querySql": ["SELECT A.PROD_CLS_CODE AS item_id, A.YEAR_VAL AS year_id, NVL(C.PROD_CAT_ID,'9999') AS ic_id, CASE WHEN C.PROD_CAT_ID IS NULL THEN '其他-其他' ELSE D.PROD_CAT_NAME||'-'||C.PROD_CAT_NAME END AS ic_name, NVL(D.PROD_CAT_ID,'9999') AS class_id,
                  CASE WHEN D.PROD_CAT_ID IS NULL THEN '其他' ELSE D.PROD_CAT_NAME END AS class_name, '99' as sea_id, '全季' as sea_name,A.LST_PRICE AS sale_price, 'N' as is_acc, A.PROD_NAME AS item_desc, A.PROD_CLS_CODE||'.jpg' as item_file, '0' as style_id
                  FROM crosslink.PROD_CLS A
                  LEFT JOIN crosslink.PROD_CAT B ON A.PROD_CAT_ID = B.PROD_CAT_ID
                  LEFT JOIN crosslink.PROD_CAT C ON B.PARN_CAT_ID = C.PROD_CAT_ID
                  LEFT JOIN crosslink.PROD_CAT D ON C.PARN_CAT_ID = D.PROD_CAT_ID"],
                                "jdbcUrl": ["jdbc:oracle:thin:@//172.16.80.17:21521/ghdxposadg"],
                            }
                        ],
                        "password": "a123qwe",
                        "username": "sy_bi"
                    }
                },
                "writer": {
                    "name": "mysqlwriter",
                    "parameter": {
                        "column": ["item_id","year_id","ic_id","ic_name","class_id","class_name","sea_id","sea_name","sale_price","is_acc", "item_desc","item_file", "style_id"],
                        "connection": [
                            {
                                "jdbcUrl": "jdbc:mysql://localhost:3306/report_db?characterEncoding=UTF-8&useSSL=false&serverTimezone=Asia/Shanghai",
                                "table": ["sy_v_item"]
                            }
                        ],
                        "password": "9cjEVa83",
                        "preSql": ["truncate sy_v_item"],
                        "postSql":["update sy_v_item a left join (select year_id, i.sea_id, s_mon, e_mon, concat(if(is_span_sea<0, year_id+is_span_sea, year_id), '-', LPAD(s_mon,2,'0'), '-01') as s, LAST_DAY(concat(if(is_span_sea>0, year_id+is_span_sea, year_id), '-', LPAD(e_mon,2,'0'), '-01')) as e from sy_v_item i left join sy_v_sea s on s.sea_id = i.sea_id where i.sea_id is not null and i.sea_id <> '' and year_id > 0 GROUP BY year_id, i.sea_id)b on a.sea_id = b.sea_id and a.year_id = b.year_id set s_date = s, e_date = e where a.year_id > 0 and a.sea_id is not null and a.sea_id <> ''",
                          "update sy_v_item set s_date = concat(if(year_id=0, '2006', year_id), '-01-01'), e_date = concat(if(year_id=0, '2006', year_id), '-12-31') where s_date = '0000-00-00'",
                          "update sy_v_item set class_id = '9999', class_name = '其他', ic_id = '9999', ic_name = '其他-其他' where class_id not in (select class_id from sy_v_item_class)",
                          "update sy_v_item set is_add = 0 where class_id NOT IN ('11','12','13','23','24','25','80')",
            									"update sy_v_item a,sy_v_category b set a.is_acc='Y' where a.ic_id = b.ic_id and b.ic_prop <>2"],
                        "session": ["set session sql_mode='ANSI'"],
                        "username": "rpdbuser",
                        "writeMode": "insert"
                    }
                }
            }
        ],
        "setting": {
            "speed": {
                "channel": "5"
            }
        }
    }
}
