{
    "job": {
        "content": [
            {
                "reader": {
                    "name": "oraclereader",
                    "parameter": {
                        "column": [],
                        "connection": [
                            {
							    "querySql": ["SELECT c2.PROD_CAT_ID AS ic_id, c1.PROD_CAT_NAME||'-'||c2.PROD_CAT_NAME AS ic_name, c2.PROD_CAT_ID AS ic_code, c2.PARN_CAT_ID AS class_id FROM crosslink.PROD_CAT c2 left join crosslink.PROD_CAT c1 on c2.PARN_CAT_ID = c1.PROD_CAT_ID WHERE c2.PROD_CAT_LVL=2 AND c2.PARN_CAT_ID in ('11','12','13','19','23','24','25','45','80')"],
                                "jdbcUrl": ["jdbc:oracle:thin:@//172.16.80.17:21521/ghdxposadg"],
                            }
                        ],
                        "password": "a123qwe",
                        "username": "sy_bi"
                    }
                },
                "writer": {
                    "name": "mysqlwriter",
                    "parameter": {
                        "column": ["ic_id","ic_name","ic_code","class_id"],
                        "connection": [
                            {
                                "jdbcUrl": "jdbc:mysql://localhost:3306/report_db?characterEncoding=UTF-8&useSSL=false&serverTimezone=Asia/Shanghai",
                                "table": ["sy_v_category"]
                            }
                        ],
                        "password": "9cjEVa83",
                        "preSql": [],
                        "session": ["set session sql_mode='ANSI'"],
                        "username": "rpdbuser",
                        "writeMode": "update"
                    }
                }
            }
        ],
        "setting": {
            "speed": {
                "channel": "5"
            }
        }
    }
}
