{
    "job": {
        "content": [
            {
                "reader": {
                    "name": "mysqlreader",
                    "parameter": {
                        "column": [],
                        "connection": [
                            {
							    "querySql": ["SELECT shop_code as shop_code, LEFT(sales_date, 10) as sales_date, item_code as item_code, color_code as color_code, sum(sales_qty) as sales_qty, sum(sales_amt) as sales_amt, sum(tag_amt) as tag_amt, sum(rec_amt) as rec_amt, sum(arr_amt) as arr_amt from dm_salesdet WHERE sales_date >= '${s_day}' AND sales_date < '${e_day}' group by LEFT(sales_date, 10),shop_code,item_code, color_code"],
                                "jdbcUrl": ["jdbc:mysql://localhost:3306/lst_report_db?characterEncoding=UTF-8&useSSL=false&serverTimezone=Asia/Shanghai"],

                            }
                        ],
                        "password": "9cjEVa83",
                        "username": "rpdbuser",
                        "where": ""
                    }
                },

                "writer": {
                    "name": "mysqlwriter",
                    "parameter": {
                        "column": ["shop_code","sales_date","item_code","color_code","sales_qty","sales_amt","tag_amt","rec_amt","arr_amt"],
                        "connection": [
                            {
                                "jdbcUrl": "jdbc:mysql://localhost:3306/lst_report_db?characterEncoding=UTF-8&useSSL=false&serverTimezone=Asia/Shanghai",
                                "table": ["dm_sales_itemcolor_calc"]
                            }
                        ],
                        "password": "9cjEVa83",
                        "preSql": ["delete from dm_sales_itemcolor_calc where sales_date >= '${s_day}' and sales_date< '${e_day}'"],
                        "postSql":[],
                        "session": ["set session sql_mode='ANSI'"],
                        "username": "rpdbuser",
                        "writeMode": "insert"
                    }
                }
            }
        ],
        "setting": {
            "speed": {
                "channel": "10",
				"batchSize":2048
            }
        }
    }
}
