{
    "job": {
        "content": [
            {
                "reader": {
                    "name": "oraclereader",
                    "parameter": {
                        "column": [],
                        "connection": [
                            {
							    "querySql": ["SELECT st_code as sp_code, shop_code as shop_code FROM sy_v_typeshop WHERE st_code is not null"],
                                "jdbcUrl": ["jdbc:oracle:thin:@//192.168.0.18/orcl"],
                            }
                        ],
                        "password": "syvuser",
                        "username": "syvuser"
                    }
                },
                "writer": {
                    "name": "mysqlwriter",
                    "parameter": {
                        "column": ["sp_code","shop_code"],
                        "connection": [
                            {
                                "jdbcUrl": "jdbc:mysql://localhost:3306/lst_report_db?characterEncoding=UTF-8&useSSL=false&serverTimezone=Asia/Shanghai",
                                "table": ["dm_shop_prop_det"]
                            }
                        ],
                        "password": "9cjEVa83",
                        "preSql": ["truncate dm_shop_prop_det"],
                        "session": ["set session sql_mode='ANSI'"],
                        "username": "rpdbuser",
                        "writeMode": "insert"
                    }
                }
            }
        ],
        "setting": {
            "speed": {
                "channel": "6"
            }
        }
    }
}
