{
    "job": {
        "content": [
            {
                "reader": {
                    "name": "oraclereader",
                    "parameter": {
                        "column": [],
                        "connection": [
                            {
							    "querySql": [" SELECT class_id as class_code, class_name as class_name FROM sy_v_item_class"],
                                "jdbcUrl": ["jdbc:oracle:thin:@//192.168.0.18/orcl"],
                            }
                        ],
                        "password": "syvuser",
                        "username": "syvuser"
                    }
                },
                "writer": {
                    "name": "mysqlwriter",
                    "parameter": {
                        "column": ["class_code","class_name"],
                        "connection": [
                            {
                                "jdbcUrl": "jdbc:mysql://localhost:3306/lst_report_db?characterEncoding=UTF-8&useSSL=false&serverTimezone=Asia/Shanghai",
                                "table": ["dm_class"]
                            }
                        ],
                        "password": "9cjEVa83",
                        "preSql": [],
                        "session": ["set session sql_mode='ANSI'"],
                        "username": "rpdbuser",
                        "writeMode": "update"
                    }
                }
            }
        ],
        "setting": {
            "speed": {
                "channel": "5"
            }
        }
    }
}
