{
    "job": {
        "content": [
            {
                "reader": {
                    "name": "mysqlreader",
                    "parameter": {
                        "column": [],
                        "connection": [
                            {
							    "querySql": ["SELECT shop_code, item_code, max(sales_date) as last_sales_date from dm_salesdet where sales_date >= '${s_day}' group by shop_code, item_code"],
                                "jdbcUrl": ["jdbc:mysql://localhost:3306/lst_report_db?characterEncoding=UTF-8&useSSL=false&serverTimezone=Asia/Shanghai"],

                            }
                        ],
                        "password": "9cjEVa83",
                        "username": "rpdbuser",
                        "where": ""
                    }
                },

                "writer": {
                    "name": "mysqlwriter",
                    "parameter": {
                        "column": ["shop_code","item_code","last_sales_date"],
                        "connection": [
                            {
                                "jdbcUrl": "jdbc:mysql://localhost:3306/lst_report_db?characterEncoding=UTF-8&useSSL=false&serverTimezone=Asia/Shanghai",
                                "table": ["dm_item_sales_date"]
                            }
                        ],
                        "password": "9cjEVa83",
                        "preSql": ["DELETE FROM dm_item_sales_date WHERE first_sales_date >= '${s_day}'"],
                        "postSql": ["UPDATE dm_item_sales_date i, (
                          SELECT shop_code, item_code, min(sales_date) as first_sales_date from dm_salesdet where sales_date >= '${s_day}' group by shop_code, item_code
                          ) s SET i.first_sales_date = s.first_sales_date  WHERE i.shop_code = s.shop_code and i.item_code = s.item_code and i.first_sales_date is NULL"],
                        "session": ["set session sql_mode='ANSI'"],
                        "username": "rpdbuser",
                        "writeMode": "update"
                    }
                }
            }
        ],
        "setting": {
            "speed": {
                "channel": "10",
				"batchSize":2048
            }
        }
    }
}
