{
    "job": {
        "content": [
            {
                "reader": {
                    "name": "oraclereader", 
                    "parameter": {
                        "column": [], 
                        "connection": [
                            {
							    "querySql": ["select class_id as class_id,class_name as class_name,class_id as class_code from qpms.sy_dslr_v_item_class"],
                                "jdbcUrl": ["jdbc:oracle:thin:@//freebidb:1521/dslrqas2"], 
                            }
                        ], 
                        "password": "sanyun2019", 
                        "username": "sanyun"
                    }
                }, 
                 "writer": {
                    "name": "oraclewriter", 
                    "parameter": {
                        "column": [
						     "class_id",
							 "class_name",
							 "class_code"				
						], 
                        "connection": [
                            {
                                "jdbcUrl": "jdbc:oracle:thin:@//syreportdb:1521/reportdb", 
                                "table": ["SYADM.DATA_SY_V_ITEM_CLASS"]
                            }
                        ], 
                        "password": "syadm2021", 
                        "preSql": ["truncate table SYADM.DATA_SY_V_ITEM_CLASS"], 
						"postSql":["MERGE INTO SYADM.SY_V_ITEM_CLASS T1 
						            USING(SELECT class_id,class_name,class_code FROM SYADM.DATA_SY_V_ITEM_CLASS) T2
                                    ON(T1.class_id=T2.class_id)
                                    WHEN MATCHED THEN
                                    update set T1.class_name=T2.class_name,T1.class_code=T2.class_code
                                    WHEN NOT MATCHED THEN
                                    insert(class_id,class_name,class_code) VALUES(T2.class_id,T2.class_name,T2.class_code)"],
                        "username": "syadm"
                    }
                }
            }
        ], 
        "setting": {
            "speed": {
                "channel": "5"
            }
        }
    }

}

