{
    "job": {
        "content": [
            {
                "reader": {
                    "name": "oraclereader", 
                    "parameter": {
                        "column": [], 
                        "connection": [
                            {
							    "querySql": ["select inv_no as inv_no,stock_date as stock_date,shop_code as shop_code,item_id as item_id,NVL(color_id,'ZZZZ') as color_id,
                                              case when size_code is not null then NVL(size_id,CONCAT('尺码代码', size_code)) else NVL(size_id,'无') end as size_id,
                                              NVL(stock_qtys,0) as stock_qtys,NVL(stock_money,0) as stock_money
                                              from QPMS.SY_DSLR_V_SHOPSTOCK_ALL
                                              where stock_date>=TO_DATE('${s_day}', 'YYYY-MM-DD') and stock_date<TO_DATE('${e_day}', 'YYYY-MM-DD')"],
                                "jdbcUrl": ["jdbc:oracle:thin:@//freebidb:1521/dslrqas2"], 
                            }
                        ], 
                        "password": "sanyun2019", 
                        "username": "sanyun"
                    }
                }, 
                 "writer": {
                    "name": "oraclewriter", 
                    "parameter": {
                        "column": [
						     "inv_no",
							 "stock_date",
							 "shop_code",
							 "item_id",
							 "color_id",
							 "size_id",
							 "stock_qtys",
							 "stock_money"				
						], 
                        "connection": [
                            {
                                "jdbcUrl": "jdbc:oracle:thin:@//syreportdb:1521/reportdb", 
                                "table": ["SYADM.SY_V_SHOPSTOCK"]
                            }
                        ], 
                        "password": "syadm2021", 
                        "preSql": ["delete from SYADM.SY_V_SHOPSTOCK where stock_date>=TO_DATE('${s_day}', 'YYYY-MM-DD') and stock_date<TO_DATE('${e_day}', 'YYYY-MM-DD')"], 
                        "username": "syadm"
                    }
                }
            }
        ], 
        "setting": {
            "speed": {
                "channel": "5"
            }
        }
    }

}

