{
    "job": {
        "content": [
            {
                "reader": {
                    "name": "oraclereader", 
                    "parameter": {
                        "column": [], 
                        "connection": [
                            {
							    "querySql": ["select shop_code as shop_code,shop_name as shop_name,shop_code as ref_shopcode,
                                              nvl(open_date,to_date('1970-01-01','YYYY-MM-DD')) as open_date,nvl(close_date,to_date('1970-01-01','YYYY-MM-DD')) as close_date,
                                             shop_area as shop_area,tel_no as tel_no,addr as addr,contact as contact,shop_state as shop_state
                                             from QPMS.SY_DSLR_V_SHOP_ALL"],
                                "jdbcUrl": ["jdbc:oracle:thin:@//freebidb:1521/dslrqas2"], 
                            }
                        ], 
                        "password": "sanyun2019", 
                        "username": "sanyun"
                    }
                }, 
                 "writer": {
                    "name": "oraclewriter", 
                    "parameter": {
                        "column": [
						     "shop_code",
							 "shop_name",
							 "ref_shopcode",
							 "open_date",
							 "close_date",
							 "shop_area",
							 "tel_no",
							 "addr",
							 "contact",
							 "shop_state"	
						], 
                        "connection": [
                            {
                                "jdbcUrl": "jdbc:oracle:thin:@//syreportdb:1521/reportdb", 
                                "table": ["SYADM.DATA_SY_V_SHOP"]
                            }
                        ], 
                        "password": "syadm2021", 
                        "preSql": ["truncate table SYADM.DATA_SY_V_SHOP"], 
						"postSql":["MERGE INTO SYADM.SY_V_SHOP T1 
                                    USING(SELECT shop_code,shop_name,ref_shopcode,open_date,close_date,shop_area,tel_no,addr,contact,shop_state FROM SYADM.DATA_SY_V_SHOP) T2
                                    ON(T1.shop_code=T2.shop_code)
                                    WHEN MATCHED THEN
                                    update set T1.shop_name=T2.shop_name,T1.ref_shopcode=T2.ref_shopcode,T1.open_date=T2.open_date,T1.close_date=T2.close_date,T1.shop_area=T2.shop_area,T1.tel_no=T2.tel_no,
                                    T1.addr=T2.addr,T1.contact=T2.contact,T1.shop_state=T2.shop_state
                                    WHEN NOT MATCHED THEN
                                    insert(shop_code,shop_name,ref_shopcode,open_date,close_date,shop_area,tel_no,addr,contact,shop_state) 
                                    VALUES(T2.shop_code,T2.shop_name,T2.ref_shopcode,T2.open_date,T2.close_date,T2.shop_area,T2.tel_no,T2.addr,T2.contact,T2.shop_state)"],
                        "username": "syadm"
                    }
                }
            }
        ], 
        "setting": {
            "speed": {
                "channel": "5"
            }
        }
    }

}

