{
    "job": {
        "content": [
            {
                "reader": {
                    "name": "oraclereader", 
                    "parameter": {
                        "column": [], 
                        "connection": [
                            {
							    "querySql": ["SELECT x.product AS item_id,'http://shop08.szneiyi.com/wcsstore/Aurora/images/product/w176h234/' || t.thumbnail AS item_file
                                              from ecommerce.CATENTDESC t
                                              join ecommerce.xcatentry x
                                              on t.catentry_id = x.catentry_id
                                              where  t.thumbnail is not null"],
                                "jdbcUrl": ["jdbc:oracle:thin:@//b2bdb:1521/DSLRPRD2"], 
                            }
                        ], 
                        "password": "sanyun0419", 
                        "username": "sanyun"
                    }
                }, 
                 "writer": {
                    "name": "oraclewriter", 
                    "parameter": {
                        "column": [
						     "item_id",
							 "item_file"				
						], 
                        "connection": [
                            {
                                "jdbcUrl": "jdbc:oracle:thin:@//syreportdb:1521/reportdb", 
                                "table": ["SYADM.SY_V_ITEM_PIC"]
                            }
                        ], 
                        "password": "syadm2021", 
                        "preSql": ["truncate table SYADM.SY_V_ITEM_PIC"], 
						"postSql":["UPDATE (SELECT T1.ITEM_FILE T1_ITEM_FILE,T2.ITEM_FILE T2_ITEM_FILE FROM SY_V_ITEM T1,SY_V_ITEM_PIC T2
                                    WHERE T1.ITEM_ID = T2.ITEM_ID) T SET T1_ITEM_FILE = T2_ITEM_FILE"], 
                        "username": "syadm"
                    }
                }
            }
        ], 
        "setting": {
            "speed": {
                "channel": "5"
            }
        }
    }

}

