{
    "job": {
        "content": [
            {
                "reader": {
                    "name": "oraclereader", 
                    "parameter": {
                        "column": [], 
                        "connection": [
                            {
							    "querySql": ["select color_id as color_id,color_desc as color_desc from qpms.sy_dslr_v_color 
                                              where color_id is not null"],
                                "jdbcUrl": ["jdbc:oracle:thin:@//freebidb:1521/dslrqas2"], 
                            }
                        ], 
                        "password": "sanyun2019", 
                        "username": "sanyun"
                    }
                }, 
                 "writer": {
                    "name": "oraclewriter", 
                    "parameter": {
                        "column": [
						     "color_id",
							 "color_desc"						
						], 
                        "connection": [
                            {
                                "jdbcUrl": "jdbc:oracle:thin:@//syreportdb:1521/reportdb", 
                                "table": ["SYADM.SY_V_COLOR"]
                            }
                        ], 
                        "password": "syadm2021", 
                        "preSql": ["truncate table SYADM.SY_V_COLOR"], 
                        "username": "syadm"
                    }
                }
            }
        ], 
        "setting": {
            "speed": {
                "channel": "5"
            }
        }
    }

}

