{
    "job": {
        "content": [
            {
                "reader": {
                    "name": "oraclereader",
                    "parameter": {
                        "column": [],
                        "connection": [
                            {
							    "querySql": ["SELECT nvl(C_VIP.CARDNO,' ') as vip_no, nvl(C_VIP.VIPNAME,' ') as cust_name, rtrim(C_STORE.CODE) as shop_code, (case when C_VIP.SEX='M' then '1' when C_VIP.SEX='W' then '2' ELSE '3' end) as cust_sex, 0 as age, to_char(DECODE(LENGTH(to_char(C_VIP.BIRTHDAY)), 8, to_date(to_char(C_VIP.BIRTHDAY), 'yyyy-mm-dd'), sysdate), 'yyyy-mm-dd') as born_date, to_char(DECODE(LENGTH(to_char(C_VIP.OPENCARDDATE)), 8, to_date(to_char(OPENCARDDATE), 'yyyy-mm-dd hh24:mi:ss'), sysdate), 'yyyy-mm-dd hh24:mi:ss') as register_date, ' ' as vip_level, nvl(C_VIP.MOBIL,' ') as mobile, nvl(C_VIP.ADDRESS,' ') as address, (CASE WHEN LENGTH(HR_EMPLOYEE.NO)>0 THEN rtrim(C_STORE.CODE)||'-'||HR_EMPLOYEE.NO ELSE ' ' END) as staff_id, (case when C_VIP.ISACTIVE='Y' then '1' else '2' end) as vip_state, nvl(C_VIP.INTEGRAL, 0) as active_money, 0 as vip_points FROM C_VIP left join HR_EMPLOYEE on C_VIP.HR_EMPLOYEE_ID=HR_EMPLOYEE.ID left join C_STORE on C_VIP.C_STORE_ID=C_STORE.ID"],
                                "jdbcUrl": ["jdbc:oracle:thin:@//172.16.135.230/ORCL"],
                            }
                        ],
                        "password": "abc123",
                        "username": "bosnds3"
                    }
                },
                "writer": {
                    "name": "mysqlwriter",
                    "parameter": {
                        "column": ["vip_no","cust_name","shop_code","cust_sex","age","born_date","register_date","vip_level","mobile","address","staff_id","vip_state","active_money","vip_points"],
                        "connection": [
                            {
                                "jdbcUrl": "jdbc:mysql://localhost:3306/report_db?characterEncoding=UTF-8&useSSL=false&serverTimezone=Asia/Shanghai",
                                "table": ["sy_v_vip"]
                            }
                        ],
                        "password": "9cjEVa83g1",
                        "preSql": ["truncate sy_v_vip"],
                        "session": ["set session sql_mode='ANSI'"],
                        "username": "rpdbuser",
                        "writeMode": "insert"
                    }
                }
            }
        ],
        "setting": {
            "speed": {
                "channel": "10",
				"batchSize":2048
            }
        }
    }
}
