{
    "job": {
        "content": [
            {
                "reader": {
                    "name": "oraclereader",
                    "parameter": {
                        "column": [],
                        "connection": [
                            {
							    "querySql": ["SELECT rtrim(NAME) as item_id, b.ATTRIBCODE as brand_id, SERIALNO as item_key, decode(y.ATTRIBCODE,NULL, 0, lpad(y.ATTRIBCODE, 4 ,20)) as year_id, s.ATTRIBCODE as sea_id, s.ATTRIBNAME as sea_name, NVL(c.ATTRIBCODE, '9999') as ic_id, NVL(c.ATTRIBNAME, '未分类') as ic_name, NVL(ic.ATTRIBCODE, '9999') as class_id, NVL(ic.ATTRIBNAME, '未分类') as class_name, 'N' as is_acc, PRICELIST as sale_price, VALUE as item_desc, '' as sales_point, rtrim(NAME)||'.jpg' as item_file, '' as info_url, '0' as style_id FROM M_PRODUCT i LEFT JOIN M_DIM b ON b.id = i.M_DIM1_ID LEFT JOIN M_DIM y ON y.id = i.M_DIM2_ID LEFT JOIN M_DIM s ON s.id = i.M_DIM3_ID LEFT JOIN M_DIM c ON c.id = i.M_DIM5_ID LEFT JOIN M_DIM ic ON ic.id = i.M_DIM4_ID"],
                                "jdbcUrl": ["jdbc:oracle:thin:@//172.16.135.230/ORCL"],
                            }
                        ],
                        "password": "abc123",
                        "username": "bosnds3"
                    }
                },
                "writer": {
                    "name": "mysqlwriter",
                    "parameter": {
                        "column": ["item_id","brand_id","item_key","year_id","sea_id","sea_name","ic_id","ic_name","class_id","class_name","is_acc","sale_price","item_desc","sales_point","item_file","info_url","style_id"],
                        "connection": [
                            {
                                "jdbcUrl": "jdbc:mysql://localhost:3306/report_db?characterEncoding=UTF-8&useSSL=false&serverTimezone=Asia/Shanghai",
                                "table": ["sy_v_item"]
                            }
                        ],
                        "password": "9cjEVa83g1",
                        "preSql": ["truncate sy_v_item"],
						"postSql":["update sy_v_item a left join (select year_id, i.sea_id, s_mon, e_mon, concat(if(is_span_sea<0, year_id+is_span_sea, year_id), '-', LPAD(s_mon,2,'0'), '-01') as s, LAST_DAY(concat(if(is_span_sea>0, year_id+is_span_sea, year_id), '-', LPAD(e_mon,2,'0'), '-01')) as e from sy_v_item i left join sy_v_sea s on s.sea_id = i.sea_id where i.sea_id is not null and i.sea_id <> '' and year_id > 0 GROUP BY year_id, i.sea_id)b on a.sea_id = b.sea_id and a.year_id = b.year_id set s_date = s, e_date = e where a.year_id > 0 and a.sea_id is not null and a.sea_id <> ''",
              "update sy_v_item set s_date = concat(if(year_id=0, '2001', year_id), '-01-01'), e_date = concat(if(year_id=0, '2001', year_id), '-12-31') where s_date = '0000-00-00'",
                  "update sy_v_item set pub_date=UNIX_TIMESTAMP(s_date) where pub_date <= 0 and s_date <> '0000-00-00'",
						            "update sy_v_item a,sy_v_category b set a.is_add =2 where a.ic_id = b.ic_id and b.ic_prop >2",
									"update sy_v_item a,sy_v_category b set a.is_acc='Y' where a.ic_id = b.ic_id and b.ic_prop <>2"],
                        "session": ["set session sql_mode='ANSI'"],
                        "username": "rpdbuser",
                        "writeMode": "insert"
                    }
                }
            }
        ],
        "setting": {
            "speed": {
                "channel": "10"
            }
        }
    }
}
