{
    "job": {
        "content": [
            {
                "reader": {
                    "name": "oraclereader",
                    "parameter": {
                        "column": [],
                        "connection": [
                            {
							    "querySql": ["SELECT ATTRIBCODE AS class_id,ATTRIBNAME AS class_name,ATTRIBCODE AS class_code, 2 as class_prop, 1 as class_state FROM BOSNDS3.M_DIM
                 WHERE M_DIMDEF_ID =4"],
                              "jdbcUrl": ["jdbc:oracle:thin:@//172.16.135.230/ORCL"],
                            }
                        ],
                        "password": "abc123",
                        "username": "bosnds3"
                    }
                },
                "writer": {
                    "name": "mysqlwriter",
                    "parameter": {
                        "column": ["class_id","class_name","class_code","class_prop","class_state"],
                        "connection": [
                            {
                                "jdbcUrl": "jdbc:mysql://localhost:3306/report_db?characterEncoding=UTF-8&useSSL=false&serverTimezone=Asia/Shanghai",
                                "table": ["sy_v_item_class"]
                            }
                        ],
                        "password": "9cjEVa83g1",
                        "preSql": [],
                        "session": ["set session sql_mode='ANSI'"],
                        "username": "rpdbuser",
                        "writeMode": "update"
                    }
                }
            }
        ],
        "setting": {
            "speed": {
                "channel": "5"
            }
        }
    }
}
