{
    "job": {
        "content": [
            {
                "reader": {
                    "name": "oraclereader",
                    "parameter": {
                        "column": [],
                        "connection": [
                            {
							    "querySql": ["SELECT (C.CODE||'-'||H.NO) AS STAFF_ID, TRUNC(TO_NUMBER(TO_DATE(I.MONTHDATE,'YYYY-MM-DD') - TO_DATE('1970-01-01 8:0:0', 'YYYY-MM-DD HH24:MI:SS')) * 24 * 60 * 60) AS PLAN_DATE, (CASE H.HR_ROLE_ID WHEN 272 THEN I.SALESREPMARK  WHEN 273 THEN I.STOREMANAGER_MARK  WHEN 278 THEN I.ASS_STOREMANAGER_MARK  WHEN 287 THEN I.HIGH_SALESREPMARK ELSE 0 END) AS PLAN_AMT FROM HR_EMPLOYEE H, C_STORE C, C_SALESREPMARK S, C_SALESREPMARKITEM I WHERE S.C_STORE_ID = C.ID AND H.C_STORE_ID = C.ID AND H.ISSALER='Y' AND H.ISACTIVE='Y' AND H.NO IS NOT NULL AND I.C_SALESREPMARK_ID = S.ID AND TO_CHAR(TO_DATE(I.MONTHDATE,'yyyy-mm-dd'),'yyyy-mm-dd') >= '${s_day}' and TO_CHAR(TO_DATE(I.MONTHDATE,'yyyy-mm-dd'),'yyyy-mm-dd') < '${e_day}'"],
                                "jdbcUrl": ["jdbc:oracle:thin:@//172.16.135.230/ORCL"],
                            }
                        ],
                        "password": "abc123",
                        "username": "bosnds3"
                    }
                },
                "writer": {
                    "name": "mysqlwriter",
                    "parameter": {
                        "column": ["staff_id","plan_date","plan_amt"],
                        "connection": [
                            {
                                "jdbcUrl": "jdbc:mysql://localhost:3306/report_db?characterEncoding=UTF-8&useSSL=false&serverTimezone=Asia/Shanghai",
                                "table": ["sy_v_staffplani"]
                            }
                        ],
                        "password": "9cjEVa83g1",
                        "preSql": ["delete from sy_v_staffplani where plan_date>=UNIX_TIMESTAMP('${s_day}') and plan_date<UNIX_TIMESTAMP('${e_day}')"],
                        "session": ["set session sql_mode='ANSI'"],
                        "username": "rpdbuser",
                        "writeMode": "insert"
                    }
                }
            }
        ],
        "setting": {
            "speed": {
                "channel": "6"
            }
        }
    }
}
