{
    "job": {
        "content": [
            {
                "reader": {
                    "name": "oraclereader",
                    "parameter": {
                        "column": [],
                        "connection": [
                            {
							    "querySql": ["SELECT ATTRIBCODE AS ic_id,ATTRIBNAME AS ic_name,ATTRIBCODE AS ic_code FROM BOSNDS3.M_DIM
                 WHERE M_DIMDEF_ID =1861"],
                                "jdbcUrl": ["jdbc:oracle:thin:@//183.6.14.174:1574/ORCL"],
                            }
                        ],
                        "password": "sanyun123",
                        "username": "sanyun"
                    }
                },
                "writer": {
                    "name": "mysqlwriter",
                    "parameter": {
                        "column": ["class_id","class_name","class_code"],
                        "connection": [
                            {
                                "jdbcUrl": "jdbc:mysql://localhost:3306/report_db?characterEncoding=UTF-8&useSSL=false&serverTimezone=Asia/Shanghai",
                                "table": ["sy_v_item_class"]
                            }
                        ],
                        "password": "Rplrf,.9521v6",
                        "preSql": [],
                        "session": ["set session sql_mode='ANSI'"],
                        "username": "root",
                        "writeMode": "update"
                    }
                }
            }
        ],
        "setting": {
            "speed": {
                "channel": "5"
            }
        }
    }
}
