{
    "job": {
        "content": [
            {
                "reader": {
                    "name": "oraclereader",
                    "parameter": {
                        "column": [],
                        "connection": [
                            {
							    "querySql": ["select
                                h.no as staff_id,
                                h.name as staff_name,
                                h.HANDSET as staff_phone,
                                c.CODE as staff_shop_code,
                                c.name as staff_shop_name
                                from
                                BOSNDS3.HR_EMPLOYEE h,
                                BOSNDS3.c_store c
                                where
                                h.c_store_id=c.id
                                and h.C_STORE_ID IS NOT NULL
                                and h.ISSALER='Y'
                                and h.ISACTIVE='Y'
                                and h.no is not null
                                order by h.no"],
                                "jdbcUrl": ["jdbc:oracle:thin:@//183.6.14.174:1574/ORCL"],
                            }
                        ],
                        "password": "sanyun123",
                        "username": "sanyun"
                    }
                },
                "writer": {
                    "name": "mysqlwriter",
                    "parameter": {
                        "column": ["staff_id","staff_name","staff_phone","staff_shop_code","staff_shop_name"],
                        "connection": [
                            {
                                "jdbcUrl": "jdbc:mysql://localhost:3306/report_db?characterEncoding=UTF-8&useSSL=false&serverTimezone=Asia/Shanghai",
                                "table": ["sy_v_staff"]
                            }
                        ],
                        "password": "Rplrf,.9521v6",
                        "preSql": ["truncate sy_v_staff"],
                        "session": ["set session sql_mode='ANSI'"],
                        "username": "root",
                        "writeMode": "insert"
                    }
                }
            }
        ],
        "setting": {
            "speed": {
                "channel": "6"
            }
        }
    }
}
