{
    "job": {
        "content": [
            {
                "reader": {
                    "name": "oraclereader",
                    "parameter": {
                        "column": [],
                        "connection": [
                            {
							    "querySql": ["select
                              c.id as st_code,
                              c.name as st_name,
                              'ALL' as st_type_code,
                              '全部' as st_type_name,
                              c.id as st_order_seq,
                              '1' as st_state
                              from
                              BOSNDS3.C_STOREGRADE c
                              where
                              c.ad_client_id=37
                              and c.ad_org_id=27
                              and c.isactive='Y'"],
                                "jdbcUrl": ["jdbc:oracle:thin:@//183.6.14.174:1574/ORCL"],
                            }
                        ],
                        "password": "sanyun123",
                        "username": "sanyun"
                    }
                },
                "writer": {
                    "name": "mysqlwriter",
                    "parameter": {
                        "column": ["st_code","st_name","st_type_code","st_type_name","st_order_seq","st_state"],
                        "connection": [
                            {
                                "jdbcUrl": "jdbc:mysql://localhost:3306/report_db?characterEncoding=UTF-8&useSSL=false&serverTimezone=Asia/Shanghai",
                                "table": ["sy_v_shop_type"]
                            }
                        ],
                        "password": "Rplrf,.9521v6",
                        "preSql": ["truncate sy_v_shop_type"],
                        "session": ["set session sql_mode='ANSI'"],
                        "username": "root",
                        "writeMode": "insert"
                    }
                }
            }
        ],
        "setting": {
            "speed": {
                "channel": "6"
            }
        }
    }
}
