{
    "job": {
        "content": [
            {
                "reader": {
                    "name": "oraclereader",
                    "parameter": {
                        "column": [],
                        "connection": [
                            {
							    "querySql": ["select
                    a.DOCNO as inv_no,
                    TO_CHAR(TO_DATE(a.datein,'YYYY-MM-DD'), 'YYYY-MM-DD hh24:mi:ss') as stock_date,
                    trim(e.code) as shop_code,
                    d.name as item_id,
                    c.value1_code as color_id,
                		c.value2_code as size_id,
                		sum(b.qtyin) as stock_qtys,
                    sum(b.tot_amtin_list) as stock_money
                    from
                    BOSNDS3.m_transfer a
                    left join BOSNDS3.m_transferitem b on a.id = b.m_transfer_id
                    left join BOSNDS3.m_attributesetinstance c on c.id = b.m_attributesetinstance_id
                    left join BOSNDS3.m_product d on d.id = b.m_product_id
                    left join BOSNDS3.c_store e on a.c_dest_id = e.id
                    where a.status = 2 AND a.out_status = 2 AND a.in_status = 2 AND a.confirm_status = 2 AND a.isactive = 'Y'
                    and TO_CHAR(TO_DATE(a.datein,'YYYY-MM-DD'), 'YYYY-MM-DD')>='${s_day}' and TO_CHAR(TO_DATE(a.datein,'YYYY-MM-DD'), 'YYYY-MM-DD')<'${e_day}'
                    group by a.DOCNO, a.datein, e.code, d.name, c.value1_code, c.value2_code"],
                                "jdbcUrl": ["jdbc:oracle:thin:@//183.6.14.174:1574/ORCL"],
                            }
                        ],
                        "password": "sanyun123",
                        "username": "sanyun"
                    }
                },
                "writer": {
                    "name": "mysqlwriter",
                    "parameter": {
                        "column": ["inv_no","stock_date","shop_code","item_id","color_id","size_id","stock_qtys","stock_money"],
                        "connection": [
                            {
                                "jdbcUrl": "jdbc:mysql://localhost:3306/report_db?characterEncoding=UTF-8&useSSL=false&serverTimezone=Asia/Shanghai",
                                "table": ["sy_v_shopstock"]
                            }
                        ],
                        "password": "Rplrf,.9521v6",
                        "preSql": ["delete from sy_v_shopstock where stock_date>='${s_day}' and stock_date<'${e_day}'"],
                        "session": ["set session sql_mode='ANSI'"],
                        "username": "root",
                        "writeMode": "insert"
                    }
                }
            }
        ],
        "setting": {
            "speed": {
                "channel": "5"
            }
        }
    }
}
