{
    "job": {
        "content": [
            {
                "reader": {
                    "name": "oraclereader",
                    "parameter": {
                        "column": [],
                        "connection": [
                            {
							    "querySql": ["SELECT
	RTRIM(C_STORE.CODE) AS shop_code,
	C_STORE. NAME AS shop_name,
	( select ATTRIBCODE from BOSNDS3.M_DIM where M_DIMDEF_ID = 1 and id = C_STORE.M_DIM1_ID) AS branch_id,
	' ' AS ref_shopcode,
	to_char(DECODE(LENGTH(to_char(RP_STOREINFO.BILLDATE_FRIST)), 8, to_date(to_char(RP_STOREINFO.BILLDATE_FRIST), 'yyyy-mm-dd'), sysdate), 'yyyy-mm-dd') AS open_date,
  DECODE(C_STORE.PROPORTION, null, 0, C_STORE.PROPORTION) AS shop_area,
	C_STORE.PHONE AS tel_no,
	C_STORE.ADDRESS AS addr,
	C_STORE.CONTACTOR AS contact,
	' ' AS shop_level,
	DECODE(P_COUNT, null, 0, P_COUNT) AS stand_staffs,
	DECODE(P_COUNT, null, 0, P_COUNT) AS real_staff,
	(
		CASE
		WHEN C_STORE.ISACTIVE = 'Y' THEN
			'1'
		ELSE
			'0'
		END
	) AS shop_state
FROM
	BOSNDS3.C_STORE
LEFT JOIN BOSNDS3.RP_STOREINFO ON RP_STOREINFO.C_STORE_id = C_STORE. ID
LEFT JOIN(
	SELECT
		HR_EMPLOYEE.C_STORE_ID,
		COUNT(*) AS P_COUNT
	FROM
		BOSNDS3.HR_EMPLOYEE
	WHERE
		HR_EMPLOYEE.ISACTIVE = 'Y'
	AND HR_EMPLOYEE.ISSALER = 'Y'
	GROUP BY
		C_STORE_ID
) P ON P.C_STORE_ID = C_STORE.ID"],
                                "jdbcUrl": ["jdbc:oracle:thin:@//183.6.14.174:1574/ORCL"],
                            }
                        ],
                        "password": "sanyun123",
                        "username": "sanyun"
                    }
                },
                "writer": {
                    "name": "mysqlwriter",
                    "parameter": {
                        "column": ["shop_code","shop_name","branch_id","ref_shopcode","open_date","shop_area","tel_no","addr","contact","shop_level","stand_staffs","real_staff","shop_state"],
                        "connection": [
                            {
                                "jdbcUrl": "jdbc:mysql://localhost:3306/report_db?characterEncoding=UTF-8&useSSL=false&serverTimezone=Asia/Shanghai",
                                "table": ["sy_v_shop"]
                            }
                        ],
                        "password": "Rplrf,.9521v6",
                        "preSql": [""],
                        "session": ["set session sql_mode='ANSI'"],
                        "username": "root",
                        "writeMode": "update"
                    }
                }
            }
        ],
        "setting": {
            "speed": {
                "channel": "6"
            }
        }
    }
}
