{
    "job": {
        "content": [
            {
                "reader": {
                    "name": "oraclereader",
                    "parameter": {
                        "column": [],
                        "connection": [
                            {
							    "querySql": ["select VALUE as color_id, NAME as color_desc from BOSNDS3.M_COlOR"],
                                "jdbcUrl": ["jdbc:oracle:thin:@//183.6.14.174:1574/ORCL"],
                            }
                        ],
                        "password": "sanyun123",
                        "username": "sanyun"
                    }
                },
                "writer": {
                    "name": "mysqlwriter",
                    "parameter": {
                        "column": ["color_id","color_desc"],
                        "connection": [
                            {
                                "jdbcUrl": "jdbc:mysql://localhost:3306/report_db?characterEncoding=UTF-8&useSSL=false&serverTimezone=Asia/Shanghai",
                                "table": ["sy_v_color"]
                            }
                        ],
                        "password": "Rplrf,.9521v6",
                        "preSql": ["truncate sy_v_color"],
                        "session": ["set session sql_mode='ANSI'"],
                        "username": "root",
                        "writeMode": "insert"
                    }
                }
            }
        ],
        "setting": {
            "speed": {
                "channel": "1"
            }
        }
    }
}
