{
    "job": {
        "content": [
            {
                "reader": {
                    "name": "oraclereader",
                    "parameter": {
                        "column": [],
                        "connection": [
                            {
							    "querySql": ["SELECT ATTRIBCODE AS ic_id,ATTRIBNAME AS ic_name,ATTRIBCODE AS ic_code, SUBSTR(ATTRIBCODE, 1, 3) AS class_id,
                                (CASE SUBSTR(ATTRIBCODE, 1, 1) when 'C' then 3 when 'E' then 3 else 2 end) AS ic_prop FROM BOSNDS3.M_DIM
                                WHERE M_DIMDEF_ID =1870"],
                                "jdbcUrl": ["jdbc:oracle:thin:@//183.6.14.174:1574/ORCL"],
                            }
                        ],
                        "password": "sanyun123",
                        "username": "sanyun"
                    }
                },
                "writer": {
                    "name": "mysqlwriter",
                    "parameter": {
                        "column": ["ic_id","ic_name","ic_code","class_id", "ic_prop"],
                        "connection": [
                            {
                                "jdbcUrl": "jdbc:mysql://localhost:3306/report_db?characterEncoding=UTF-8&useSSL=false&serverTimezone=Asia/Shanghai",
                                "table": ["sy_v_category"]
                            }
                        ],
                        "password": "Rplrf,.9521v6",
                        "preSql": [],
                        "session": ["set session sql_mode='ANSI'"],
                        "username": "root",
                        "writeMode": "update"
                    }
                }
            }
        ],
        "setting": {
            "speed": {
                "channel": "5"
            }
        }
    }
}
