{
    "job": {
        "content": [
            {
                "reader": {
                    "name": "mysqlreader",
                    "parameter": {
                        "column": [],
                        "connection": [
                            {
              							    "querySql": ["SELECT shop_code, item_id, color_id, max(stock_date) as max_date FROM sy_v_shopstock WHERE stock_date>='${s_day}' and stock_date<'${e_day}' GROUP BY shop_code, item_id, color_id"],
                                "jdbcUrl": ["jdbc:mysql://localhost:3306/report_db?characterEncoding=UTF-8&useSSL=false&serverTimezone=Asia/Shanghai"],
                            }
                        ],
                        "password": "PL#837hnenhGueQj73j",
                        "username": "rpdbuser"
                    }
                },
                "writer": {
                    "name": "mysqlwriter",
                    "parameter": {
                        "column": ["shop_code","item_id","color_id","max_date"],
                        "connection": [
                            {
                                "jdbcUrl": "jdbc:mysql://localhost:3306/report_db?characterEncoding=UTF-8&useSSL=false&serverTimezone=Asia/Shanghai",
                                "table": ["sy_v_shopstock_md"]
                            }
                        ],
                        "password": "PL#837hnenhGueQj73j",
                        "preSql": ["delete from sy_v_shopstock_md where (max_date>='${s_day}' and max_date<'${e_day}') or max_date<date_format(date_add(now(), interval -1 year),'%Y-%m-%d')"],
                        "session": ["set session sql_mode='ANSI'"],
                        "username": "rpdbuser",
                        "writeMode": "update"
                    }
                }
            }
        ],
        "setting": {
            "speed": {
                "channel": "5"
            }
        }
    }
}
