{
    "job": {
        "content": [
            {
                "reader": {
                    "name": "mysqlreader",
                    "parameter": {
                        "column": [],
                        "connection": [
                            {
            							    "querySql": ["select
                                            ipos_dianyuan.dydm as staff_id,
                                            ipos_dianyuan.dymc as staff_name,
                                            '' as staff_phone,
                                            com_base_kehu.khdm as staff_shop_code,
                                            com_base_kehu.khmc as staff_shop_name
                                            from
                                            ipos_dianyuan,
                                            com_base_kehu
                                            where
                                            com_base_kehu.id = ipos_dianyuan.zd_id"],
                                "jdbcUrl": ["jdbc:mysql://rm-2zev2iue1b4m5nf09.mysql.rds.aliyuncs.com:3306/ipos?characterEncoding=UTF-8&useSSL=false&serverTimezone=Asia/Shanghai"],
                            }
                        ],
                        "password": "wacoal*sanyun666",
                        "username": "sanyun"
                    }
                },
                "writer": {
                    "name": "mysqlwriter",
                    "parameter": {
                        "column": ["staff_id","staff_name","staff_phone","staff_shop_code","staff_shop_name"],
                        "connection": [
                            {
                                "jdbcUrl": "jdbc:mysql://localhost:3306/report_db?characterEncoding=UTF-8&useSSL=false&serverTimezone=Asia/Shanghai",
                                "table": ["sy_v_staff"]
                            }
                        ],
                        "password": "PL#837hnenhGueQj73j",
                        "preSql": ["truncate sy_v_staff"],
                        "session": ["set session sql_mode='ANSI'"],
                        "username": "rpdbuser",
                        "writeMode": "insert"
                    }
                }
            }
        ],
        "setting": {
            "speed": {
                "channel": "6"
            }
        }
    }
}
