{
    "job": {
        "content": [
            {
                "reader": {
                    "name": "mysqlreader",
                    "parameter": {
                        "column": [],
                        "connection": [
                            {
							    "querySql": ["SELECT jjdm as sea_id, jjmc as sea_name, jjmc as sea_desc, (case jjdm
				                             when 'SS' then '02'
				                             when 'AW' then '08'
				                             else '02' end
			                                 ) as s_mon, (case jjdm
                                             when 'SS' then '07'
                                             when 'AW' then '01'
			                               	else '01' end
			                                  ) as e_mon, (case jjdm
			                                  when 'SS' then '0'
			                                  when 'AW' then '1'
			                                  else '1' end) as is_span_sea from com_base_jijie"],
                                "jdbcUrl": ["jdbc:mysql://rm-2zev2iue1b4m5nf09.mysql.rds.aliyuncs.com:3306/ipos?characterEncoding=UTF-8&useSSL=false&serverTimezone=Asia/Shanghai"],
                            }
                        ],
                        "password": "wacoal*sanyun666",
                        "username": "sanyun"
                    }
                },
                "writer": {
                    "name": "mysqlwriter",
                    "parameter": {
                        "column": ["sea_id","sea_name","sea_desc","s_mon","e_mon","is_span_sea"],
                        "connection": [
                            {
                                "jdbcUrl": "jdbc:mysql://localhost:3306/report_db?characterEncoding=UTF-8&useSSL=false&serverTimezone=Asia/Shanghai",
                                "table": ["sy_v_sea"]
                            }
                        ],
                        "password": "PL#837hnenhGueQj73j",
                        "preSql": [""],
                        "session": ["set session sql_mode='ANSI'"],
                        "username": "rpdbuser",
                        "writeMode": "update"
                    }
                }
            }
        ],
        "setting": {
            "speed": {
                "channel": "6"
            }
        }
    }
}
