{
    "job": {
        "content": [
            {
                "reader": {
                    "name": "mysqlreader",
                    "parameter": {
                        "column": [],
                        "connection": [
                            {
							                  "querySql": ["SELECT ggwz1 as size_group, ggdm as size_id, ggmc as size_desc, ggwz2 as size_order FROM com_base_guige2"],
                                "jdbcUrl": ["jdbc:mysql://192.168.3.11/ipos?characterEncoding=UTF-8&useSSL=false&serverTimezone=Asia/Shanghai"],
                            }
                        ],
                        "password": "Tomo4096",
                        "username": "philip"
                    }
                },
                "writer": {
                    "name": "mysqlwriter",
                    "parameter": {
                        "column": ["size_group","size_id","size_desc","size_order"],
                        "connection": [
                            {
                                "jdbcUrl": "jdbc:mysql://localhost:3306/report_db?characterEncoding=UTF-8&useSSL=false&serverTimezone=Asia/Shanghai",
                                "table": ["sy_v_size"]
                            }
                        ],
                        "password": "9cjEVa83",
                        "preSql": ["truncate sy_v_size"],
                        "session": ["set session sql_mode='ANSI'"],
                        "username": "rpdbuser",
                        "writeMode": "insert"
                    }
                }
            }
        ],
        "setting": {
            "speed": {
                "channel": "6"
            }
        }
    }
}
