{
    "job": {
        "content": [
            {
                "reader": {
                    "name": "mysqlreader",
                    "parameter": {
                        "column": [],
                        "connection": [
                            {
							                  "querySql": ["SELECT ipos_qtlsd.djbh as inv_no, ipos_qtlsd.zddm as shop_code, from_unixtime(ipos_qtlsd.yyrq, '%Y-%m-%d %H:%i:%s') as sale_date, IF(ipos_qtlsdmx.spdm is null, ' ', ipos_qtlsdmx.spdm) as item_id, IF(ipos_qtlsdmx.gg1dm is null, ' ', ipos_qtlsdmx.gg1dm) as color_id, IF(com_base_guige2.ggmc is null, ' ', com_base_guige2.ggmc) as size_id, sum(ipos_qtlsdmx.sl) as inv_qtys, sum(ipos_qtlsdmx.je) as inv_money, avg(ipos_qtlsdmx.ckj) as tag_price FROM ipos_qtlsdmx LEFT JOIN ipos_qtlsd ON ipos_qtlsd.id = ipos_qtlsdmx.pid LEFT JOIN com_base_guige2 ON com_base_guige2.ggdm = ipos_qtlsdmx.gg2dm WHERE ipos_qtlsd.gd=0 and ipos_qtlsd.zf=0 and ipos_qtlsdmx.spdm <>'' and ipos_qtlsd.djbh is not null and from_unixtime(ipos_qtlsd.yyrq, '%Y-%m-%d %H:%i:%s') >= '${s_day}' and from_unixtime(ipos_qtlsd.yyrq, '%Y-%m-%d %H:%i:%s') < '${e_day}' GROUP BY ipos_qtlsd.djbh, IF(ipos_qtlsdmx.spdm is null, ' ', ipos_qtlsdmx.spdm), IF(ipos_qtlsdmx.gg1dm is null, ' ', ipos_qtlsdmx.gg1dm), IF(com_base_guige2.ggmc is null, ' ', com_base_guige2.ggmc), ipos_qtlsdmx.ckj"],
                                "jdbcUrl": ["jdbc:mysql://192.168.3.11/ipos?characterEncoding=UTF-8&useSSL=false&serverTimezone=Asia/Shanghai"],
                            }
                        ],
                        "password": "Tomo4096",
                        "username": "philip"
                    }
                },
                "writer": {
                    "name": "mysqlwriter",
                    "parameter": {
                        "column": ["inv_no","shop_code", "sale_date","item_id","color_id","size_id","inv_qtys","inv_money","tag_price"],
                        "connection": [
                            {
                                "jdbcUrl": "jdbc:mysql://localhost:3306/report_db?characterEncoding=UTF-8&useSSL=false&serverTimezone=Asia/Shanghai",
                                "table": ["sales_detail"]
                            }
                        ],
                        "password": "9cjEVa83",
                        "preSql": ["delete from sales_detail where sale_date >='${s_day}' and sale_date<'${e_day}'"],
                        "session": ["set session sql_mode='ANSI'"],
                        "username": "rpdbuser",
                        "writeMode": "insert"
                    }
                }
            }
        ],
        "setting": {
            "speed": {
                "channel": "10"
            }
        }
    }
}
