{
    "job": {
        "content": [
            {
                "reader": {
                    "name": "mysqlreader",
                    "parameter": {
                        "column": [],
                        "connection": [
                            {
							                  "querySql": ["SELECT com_base_spgg1.spdm as item_id, com_base_spgg1.ggdm as color_id, case when com_base_shangpin.sx9dm ='000' then concat(com_base_spgg1.spdm, '.jpg') else concat(left(com_base_spgg1.spdm,length(com_base_spgg1.spdm)-1), '.jpg') end as item_picture FROM com_base_spgg1 LEFT JOIN com_base_shangpin ON com_base_shangpin.spdm = com_base_spgg1.spdm LEFT JOIN com_base_fjsx9 ON com_base_fjsx9.sxdm = com_base_shangpin.sx9dm"],
                                "jdbcUrl": ["jdbc:mysql://192.168.3.11/ipos?characterEncoding=UTF-8&useSSL=false&serverTimezone=Asia/Shanghai"],
                            }
                        ],
                        "password": "Tomo4096",
                        "username": "philip"
                    }
                },
                "writer": {
                    "name": "mysqlwriter",
                    "parameter": {
                        "column": ["item_id","color_id","item_picture"],
                        "connection": [
                            {
                                "jdbcUrl": "jdbc:mysql://localhost:3306/report_db?characterEncoding=UTF-8&useSSL=false&serverTimezone=Asia/Shanghai",
                                "table": ["sy_v_itemcolor"]
                            }
                        ],
                        "password": "9cjEVa83",
                        "preSql": ["truncate sy_v_itemcolor"],
                        "postSql": [""],
                        "username": "rpdbuser",
                        "writeMode": "insert"
                    }
                }
            }
        ],
        "setting": {
            "speed": {
                "channel": "6"
            }
        }
    }
}
