{
    "job": {
        "content": [
            {
                "reader": {
                    "name": "mysqlreader",
                    "parameter": {
                        "column": [],
                        "connection": [
                            {
							    "querySql": ["SELECT zddm as shop_code, UNIX_TIMESTAMP(CONCAT(nd, '-', LPAD(mn,2,'0'), '-', days)) as plani_date, amt as plan_amt from (
select pid, zd_id, '01' as days, je1 as amt from ipos_rizbdmx
union all select pid, zd_id, '02' as days, je2 as amt from ipos_rizbdmx
union all select pid, zd_id, '03' as days, je3 as amt from ipos_rizbdmx
union all select pid, zd_id, '04' as days, je4 as amt from ipos_rizbdmx
union all select pid, zd_id, '05' as days, je5 as amt from ipos_rizbdmx
union all select pid, zd_id, '06' as days, je6 as amt from ipos_rizbdmx
union all select pid, zd_id, '07' as days, je7 as amt from ipos_rizbdmx
union all select pid, zd_id, '08' as days, je8 as amt from ipos_rizbdmx
union all select pid, zd_id, '09' as days, je9 as amt from ipos_rizbdmx
union all select pid, zd_id, '10' as days, je10 as amt from ipos_rizbdmx
union all select pid, zd_id, '11' as days, je11 as amt from ipos_rizbdmx
union all select pid, zd_id, '12' as days, je12 as amt from ipos_rizbdmx
union all select pid, zd_id, '13' as days, je13 as amt from ipos_rizbdmx
union all select pid, zd_id, '14' as days, je14 as amt from ipos_rizbdmx
union all select pid, zd_id, '15' as days, je15 as amt from ipos_rizbdmx
union all select pid, zd_id, '16' as days, je16 as amt from ipos_rizbdmx
union all select pid, zd_id, '17' as days, je17 as amt from ipos_rizbdmx
union all select pid, zd_id, '18' as days, je18 as amt from ipos_rizbdmx
union all select pid, zd_id, '19' as days, je19 as amt from ipos_rizbdmx
union all select pid, zd_id, '20' as days, je20 as amt from ipos_rizbdmx
union all select pid, zd_id, '21' as days, je21 as amt from ipos_rizbdmx
union all select pid, zd_id, '22' as days, je22 as amt from ipos_rizbdmx
union all select pid, zd_id, '23' as days, je23 as amt from ipos_rizbdmx
union all select pid, zd_id, '24' as days, je24 as amt from ipos_rizbdmx
union all select pid, zd_id, '25' as days, je25 as amt from ipos_rizbdmx
union all select pid, zd_id, '26' as days, je26 as amt from ipos_rizbdmx
union all select pid, zd_id, '27' as days, je27 as amt from ipos_rizbdmx
union all select pid, zd_id, '28' as days, je28 as amt from ipos_rizbdmx
union all select pid, zd_id, '29' as days, je29 as amt from ipos_rizbdmx
union all select pid, zd_id, '30' as days, je30 as amt from ipos_rizbdmx
union all select pid, zd_id, '31' as days, je31 as amt from ipos_rizbdmx) mx LEFT JOIN ipos_zdjbb ON ipos_zdjbb.pid = mx.zd_id LEFT JOIN ipos_rizbd ON ipos_rizbd.id = mx.pid where UNIX_TIMESTAMP(CONCAT(nd, '-', LPAD(mn,2,'0'), '-', days)) <> 0 and CONCAT(nd, '-', LPAD(mn,2,'0'), '-', days) >= '${s_day}' and CONCAT(nd, '-', LPAD(mn,2,'0'), '-', days) < '${e_day}'"],
                                "jdbcUrl": ["jdbc:mysql://192.168.18.6/ipos?characterEncoding=UTF-8&useSSL=false&serverTimezone=Asia/Shanghai"],
                            }
                        ],
                        "password": "123456",
                        "username": "ipos"
                    }
                },
                "writer": {
                    "name": "mysqlwriter",
                    "parameter": {
                        "column": ["shop_code","plan_date","plan_amt"],
                        "connection": [
                            {
                                "jdbcUrl": "jdbc:mysql://localhost:3306/report_db?characterEncoding=UTF-8&useSSL=false&serverTimezone=Asia/Shanghai",
                                "table": ["sy_v_plani"]
                            }
                        ],
                        "password": "9cjEVa83",
                        "preSql": ["delete from sy_v_plani where plan_date >= UNIX_TIMESTAMP('${s_day}') and plan_date < UNIX_TIMESTAMP('${e_day}')"],
                        "session": ["set session sql_mode='ANSI'"],
                        "username": "rpdbuser",
                        "writeMode": "insert"
                    }
                }
            }
        ],
        "setting": {
            "speed": {
                "channel": "5"
            }
        }
    }
}
