{
    "job": {
        "content": [
            {
                "reader": {
                    "name": "mysqlreader",
                    "parameter": {
                        "column": [],
                        "connection": [
                            {
							    "querySql": ["SELECT com_base_tmdzb.sptm as bar_no, com_base_tmdzb.spdm as item_id, com_base_tmdzb.gg1dm as color_id, com_base_guige1.ggmc as color_name, com_base_guige2.ggmc as size_id FROM com_base_tmdzb LEFT JOIN com_base_guige1 ON com_base_guige1.id = com_base_tmdzb.gg1_id LEFT JOIN com_base_guige2 ON com_base_guige2.id = com_base_tmdzb.gg2_id GROUP BY com_base_tmdzb.sptm"],
                                "jdbcUrl": ["jdbc:mysql://192.168.18.6/ipos?characterEncoding=UTF-8&useSSL=false&serverTimezone=Asia/Shanghai"],

                            }
                        ],
                        "password": "123456",
                        "username": "ipos"
                    }
                },
                "writer": {
                    "name": "mysqlwriter",
                    "parameter": {
                        "column": ["bar_no","item_id","color_id","color_name","size_id"],
                        "connection": [
                            {
                                "jdbcUrl": "jdbc:mysql://localhost:3306/report_db?characterEncoding=UTF-8&useSSL=false&serverTimezone=Asia/Shanghai",
                                "table": ["sy_v_barcode"]
                            }
                        ],
                        "password": "9cjEVa83",
                        "preSql": ["truncate sy_v_barcode"],
                        "session": ["set session sql_mode='ANSI'"],
                        "username": "rpdbuser",
                        "writeMode": "insert"
                    }
                }
            }
        ],
        "setting": {
            "speed": {
                "channel": "6"
            }
        }
    }
}
