{
    "job": {
        "content": [
            {
                "reader": {
                    "name": "mysqlreader",
                    "parameter": {
                        "column": [],
                        "connection": [
                            {
							                  "querySql": ["SELECT sxdm as style_id, sxmc as style_name, sxdm as style_code, sxdm as style_order, 1 as style_state FROM com_base_fjsx11"],
                                "jdbcUrl": ["jdbc:mysql://192.168.18.6/ipos?characterEncoding=UTF-8&useSSL=false&serverTimezone=Asia/Shanghai"],
                            }
                        ],
                        "password": "123456",
                        "username": "ipos"
                    }
                },
                "writer": {
                    "name": "mysqlwriter",
                    "parameter": {
                        "column": ["style_id","style_name","style_code","style_order", "style_state"],
                        "connection": [
                            {
                                "jdbcUrl": "jdbc:mysql://localhost:3306/report_db?characterEncoding=UTF-8&useSSL=false&serverTimezone=Asia/Shanghai",
                                "table": ["sy_v_item_style"]
                            }
                        ],
                        "password": "9cjEVa83",
                        "preSql": [""],
						            "postSql":[""],
                        "session": ["set session sql_mode='ANSI'"],
                        "username": "rpdbuser",
                        "writeMode": "update"
                    }
                }
            }
        ],
        "setting": {
            "speed": {
                "channel": "10"
            }
        }
    }
}
