{
    "job": {
        "content": [
            {
                "reader": {
                    "name": "sqlserverreader",
                    "parameter": {
                        "column": [],
                        "connection": [
                            {
							    "querySql": ["SELECT Size_Class as size_group, Size as size_id, Size as size_desc, DisplayIndex as size_order FROM DictSize"],
                                "jdbcUrl": ["jdbc:sqlserver://sss.robertashop.top:11433;DatabaseName=Regent"],
                            }
                        ],
                        "password": "Sanyun*@666",
                        "username": "sanyun"
                    }
                },
                "writer": {
                    "name": "mysqlwriter",
                    "parameter": {
                        "column": ["size_group","size_id","size_desc","size_order"],
                        "connection": [
                            {
                                "jdbcUrl": "jdbc:mysql://localhost:3306/report_db?characterEncoding=UTF-8&useSSL=false&serverTimezone=Asia/Shanghai",
                                "table": ["sy_v_size"]
                            }
                        ],
                        "password": "9cjEVa83",
                        "preSql": ["truncate sy_v_size"],
                        "session": ["set session sql_mode='ANSI'"],
                        "username": "rpdbuser",
                        "writeMode": "insert"
                    }
                }
            }
        ],
        "setting": {
            "speed": {
                "channel": "6"
            }
        }
    }
}
