{
    "job": {
        "content": [
            {
                "reader": {
                    "name": "sqlserverreader",
                    "parameter": {
                        "column": [],
                        "connection": [
                            {
							    "querySql": ["SELECT Mathod as st_code, Mathod as st_name, 'ALL' as st_type_code, '全部' as st_type_name, 999 as st_order_seq, '1' as st_state FROM DictMathod"],
                                "jdbcUrl": ["jdbc:sqlserver://sss.robertashop.top:11433;DatabaseName=Regent"],
                            }
                        ],
                        "password": "Sanyun*@666",
                        "username": "sanyun"
                    }
                },
                "writer": {
                    "name": "mysqlwriter",
                    "parameter": {
                        "column": ["st_code","st_name","st_type_code","st_type_name","st_order_seq","st_state"],
                        "connection": [
                            {
                                "jdbcUrl": "jdbc:mysql://localhost:3306/report_db?characterEncoding=UTF-8&useSSL=false&serverTimezone=Asia/Shanghai",
                                "table": ["sy_v_shop_type"]
                            }
                        ],
                        "password": "9cjEVa83",
                        "preSql": ["truncate sy_v_shop_type"],
                        "session": ["set session sql_mode='ANSI'"],
                        "username": "rpdbuser",
                        "writeMode": "insert"
                    }
                }
            }
        ],
        "setting": {
            "speed": {
                "channel": "6"
            }
        }
    }
}
