{
    "job": {
        "content": [
            {
                "reader": {
                    "name": "sqlserverreader",
                    "parameter": {
                        "column": [],
                        "connection": [
                            {
							    "querySql": ["SELECT rtrim(VIP) as vip_no, isnull(Name,'') as cust_name, rtrim(Customer_ID) as shop_code, Case Sex When '女' Then '2' When '男' Then '1' ELSE '4' END  as cust_sex, '0' as age, convert(varchar(10), BirthDate, 120) as born_date, convert(varchar(10), input_date, 120) as register_date, '' as vip_level, isnull(MobileTel,'') as mobile, isnull(Address,'') as address, isnull(BusinessManID,'') as staff_id, 1 as vip_state, 0 as active_money FROM CustomerVIP WHERE Customer_ID <> ''"],
                                "jdbcUrl": ["jdbc:sqlserver://sss.robertashop.top:11433;DatabaseName=Regent"],
                            }
                        ],
                        "password": "Sanyun*@666",
                        "username": "sanyun"
                    }
                },
                "writer": {
                    "name": "mysqlwriter",
                    "parameter": {
                        "column": ["vip_no","cust_name","shop_code","cust_sex","age","born_date","register_date","vip_level","mobile","address","staff_id","vip_state","active_money"],
                        "connection": [
                            {
                                "jdbcUrl": "jdbc:mysql://localhost:3306/report_db?characterEncoding=UTF-8&useSSL=false&serverTimezone=Asia/Shanghai",
                                "table": ["sy_v_vip"]
                            }
                        ],
                        "password": "9cjEVa83",
                        "preSql": ["truncate sy_v_vip"],
                        "session": ["set session sql_mode='ANSI'"],
                        "username": "rpdbuser",
                        "writeMode": "insert"
                    }
                }
            }
        ],
        "setting": {
            "speed": {
                "channel": "10",
				"batchSize":2048
            }
        }
    }
}
