{
    "job": {
        "content": [
            {
                "reader": {
                    "name": "oraclereader",
                    "parameter": {
                        "column": [],
                        "connection": [
                            {
							    "querySql": ["SELECT PRODUCT.INTL_BC as bar_no, PROD_CLS.MODEL as item_id, COLOR.COLOR_CODE as color_id, COLOR.COLOR_NAME as color_name, SPEC.SPEC_NAME as size_id FROM CROSSLINK.PRODUCT LEFT JOIN CROSSLINK.PROD_CLS ON PRODUCT.PROD_CLS_ID=PROD_CLS.PROD_CLS_ID LEFT JOIN CROSSLINK.COLOR ON PRODUCT.COLOR_ID =COLOR.COLOR_ID LEFT JOIN CROSSLINK.SPEC ON PRODUCT.SPEC_ID=SPEC.SPEC_ID where PROD_CLS.MODEL is not null and COLOR.COLOR_NAME is not null and SPEC.SPEC_NAME is not null"],
                                "jdbcUrl": ["jdbc:oracle:thin:@//172.16.80.20:21521/stpos"],

                            }
                        ],
                        "password": "SYa123qwe##",
                        "username": "sy_fzpos"
                    }
                },
                "writer": {
                    "name": "mysqlwriter",
                    "parameter": {
                        "column": ["bar_no","item_id","color_id","color_name","size_id"],
                        "connection": [
                            {
                                "jdbcUrl": "jdbc:mysql://localhost:3306/report_db?characterEncoding=UTF-8&useSSL=false&serverTimezone=Asia/Shanghai",
                                "table": ["sy_v_barcode"]
                            }
                        ],
                        "password": "PL#531yqdnhGue2kj",
                        "preSql": ["truncate sy_v_barcode"],
                        "session": ["set session sql_mode='ANSI'"],
                        "username": "rpdbuser",
                        "writeMode": "insert"
                    }
                }
            }
        ],
        "setting": {
            "speed": {
                "channel": "6"
            }
        }
    }
}
