{
    "job": {
        "content": [
            {
                "reader": {
                    "name": "oraclereader",
                    "parameter": {
                        "column": [],
                        "connection": [
                            {
							    "querySql": ["SELECT COLOR_CODE as color_id, COLOR_NAME as color_desc FROM CROSSLINK.COLOR"],
                                "jdbcUrl": ["jdbc:oracle:thin:@//172.16.80.20:21521/stpos"],
                            }
                        ],
                        "password": "SYa123qwe##",
                        "username": "sy_fzpos"
                    }
                },
                "writer": {
                    "name": "mysqlwriter",
                    "parameter": {
                        "column": ["color_id","color_desc"],
                        "connection": [
                            {
                                "jdbcUrl": "jdbc:mysql://localhost:3306/report_db?characterEncoding=UTF-8&useSSL=false&serverTimezone=Asia/Shanghai",
                                "table": ["sy_v_color"]
                            }
                        ],
                        "password": "PL#531yqdnhGue2kj",
                        "preSql": ["truncate sy_v_color"],
                        "session": ["set session sql_mode='ANSI'"],
                        "username": "rpdbuser",
                        "writeMode": "insert"
                    }
                }
            }
        ],
        "setting": {
            "speed": {
                "channel": "1"
            }
        }
    }
}
