{
    "job": {
        "content": [
            {
                "reader": {
                    "name": "oraclereader",
                    "parameter": {
                        "column": [],
                        "connection": [
                            {
							    "querySql": ["SELECT rtrim(PROD_CLS_CODE) as item_id, SPEC_GRP_ID as size_group FROM CROSSLINK.PROD_CLS where SPEC_GRP_ID is not null and LENGTH(SPEC_GRP_ID) > 0"],
                                "jdbcUrl": ["jdbc:oracle:thin:@//172.16.80.20:21521/stpos"],
                            }
                        ],
                        "password": "SYa123qwe##",
                        "username": "sy_fzpos"
                    }
                },
                "writer": {
                    "name": "mysqlwriter",
                    "parameter": {
                        "column": ["item_id","size_group"],
                        "connection": [
                            {
                                "jdbcUrl": "jdbc:mysql://localhost:3306/report_db?characterEncoding=UTF-8&useSSL=false&serverTimezone=Asia/Shanghai",
                                "table": ["sy_v_itemsize"]
                            }
                        ],
                        "password": "PL#531yqdnhGue2kj",
                        "preSql": ["truncate sy_v_itemsize"],
                        "session": ["set session sql_mode='ANSI'"],
                        "username": "rpdbuser",
                        "writeMode": "insert"
                    }
                }
            }
        ],
        "setting": {
            "speed": {
                "channel": "6"
            }
        }
    }
}
