{
    "job": {
        "content": [
            {
                "reader": {
                    "name": "oraclereader",
                    "parameter": {
                        "column": [],
                        "connection": [
                            {
							    "querySql": ["SELECT SYS_UNIT.UNIT_CODE || '-' || INV.RLB_NUM AS inv_no, RTRIM(SYS_UNIT.UNIT_CODE) AS shop_code, TO_CHAR( INV.FSCL_DATE, 'yyyy-mm-dd hh24:mi:ss') AS sale_date,( CASE WHEN LENGTH(INV.CUST_ID) > 0 THEN 1 ELSE 0 END) AS vip_state, SYS_PRSNL.PRSNL_CODE AS staff_id, vip.PRSNL_CODE AS vip_no, 0 AS inv_money, 0 AS inv_qtys, 0 AS tag_money
FROM (
SELECT RLB.SHOP_ID, RLB.RLB_NUM, RLB.DOC_DATE, RLB.FSCL_DATE, '否' IS_REV,
RLB.ORG_RLB_NUM, RLB.SL_RLB_NUM,
RLB.BK_RLB_NUM,
RLB.CUST_ID,
( CASE WHEN RLB.RLB_KIND = 'B' AND RLB.BK_RLB_NUM IS NULL THEN '预订' WHEN RLB.RLB_KIND = 'B' AND RLB.BK_RLB_NUM IS NOT NULL THEN '退订' WHEN RLB.RLB_KIND = 'S' AND RLB.BK_RLB_NUM IS NULL AND RLB.SL_RLB_NUM IS NULL AND RLB.ORG_RLB_NUM IS NULL THEN '正常销售' WHEN RLB.RLB_KIND = 'S' AND RLB.BK_RLB_NUM IS NOT NULL AND RLB.SL_RLB_NUM IS NULL AND RLB.ORG_RLB_NUM IS NULL THEN '提货' WHEN RLB.RLB_KIND = 'S' AND RLB.BK_RLB_NUM IS NOT NULL AND RLB.SL_RLB_NUM IS NOT NULL AND RLB.ORG_RLB_NUM IS NULL THEN '提货退货' WHEN RLB.RLB_KIND = 'S' AND RLB.BK_RLB_NUM IS NULL AND RLB.SL_RLB_NUM IS NOT NULL AND RLB.ORG_RLB_NUM IS NULL THEN '销售退货' END) RLB_KIND
FROM CROSSLINK.RLB
WHERE RLB.REVERSED='F' AND RLB.IS_REV = 'F' AND RLB.EFFECTIVE = 'T'
AND TO_CHAR( RLB.FSCL_DATE, 'yyyy-mm-dd hh24:mi:ss') >= '${s_day}' AND TO_CHAR( RLB.FSCL_DATE, 'yyyy-mm-dd hh24:mi:ss') < '${e_day}'
) INV
LEFT JOIN CROSSLINK.SYS_UNIT ON INV.SHOP_ID = SYS_UNIT.UNIT_ID LEFT JOIN CROSSLINK.SYS_PRSNL vip ON vip.PRSNL_ID = INV.CUST_ID LEFT JOIN( SELECT RLB_DTL.SHOP_ID, RLB_DTL.RLB_NUM, MAX(RLB_DTL.SELLER_ID) AS SELLER_ID FROM CROSSLINK.RLB_DTL GROUP BY RLB_DTL.SHOP_ID, RLB_DTL.RLB_NUM) D ON D.SHOP_ID = INV.SHOP_ID AND D .RLB_NUM = INV.RLB_NUM LEFT JOIN CROSSLINK.SYS_PRSNL ON D.SELLER_ID = SYS_PRSNL.PRSNL_ID WHERE RLB_KIND <> '提货'"],
                                "jdbcUrl": ["jdbc:oracle:thin:@//172.16.80.20:21521/stpos"],
                            }
                        ],
                        "password": "SYa123qwe##",
                        "username": "sy_fzpos"
                    }
                },
                "writer": {
                    "name": "mysqlwriter",
                    "parameter": {
                        "column": ["inv_no","shop_code","sale_date","vip_state","staff_id","vip_no","inv_money","inv_qtys","tag_money"],
                        "connection": [
                            {
                                "jdbcUrl": "jdbc:mysql://localhost:3306/report_db?characterEncoding=UTF-8&useSSL=false&serverTimezone=Asia/Shanghai",
                                "table": ["sales_info"]
                            }
                        ],
                        "password": "PL#531yqdnhGue2kj",
                        "preSql": ["delete from sales_info where sale_date>='${s_day}' and sale_date<'${e_day}'"],
                        "postSql": ["UPDATE sales_info a, (SELECT b.inv_no ,sum(b.inv_qtys) AS inv_qtys, sum(b.inv_money) AS inv_money, sum(b.rec_money) AS rec_money, sum(b.arr_money) AS arr_money, sum(b.inv_qtys*b.tag_price) AS tag_money FROM sales_info a,sales_detail b WHERE a.inv_no=b.inv_no AND a.sale_date >='${s_day}' AND a.sale_date<'${e_day}' GROUP BY b.inv_no) b SET a.inv_qtys=b.inv_qtys,a.tag_money=b.tag_money,a.inv_money=b.inv_money WHERE a.inv_no=b.inv_no"],
                        "session": ["set session sql_mode='ANSI'"],
                        "username": "rpdbuser",
                        "writeMode": "insert"
                    }
                }
            }
        ],
        "setting": {
            "speed": {
                "channel": "5"
            }
        }
    }
}
