{
    "job": {
        "content": [
            {
                "reader": {
                    "name": "sqlserverreader",
                    "parameter": {
                        "column": [],
                        "connection": [
                            {
							    "querySql": ["SELECT case when left(brand,1) ='k' then code+'_'+left(brand,1)  else code+'_'+brand end as color_code, name as color_desc FROM g_level2"],
                                "jdbcUrl": ["jdbc:sqlserver://10.10.0.174:86;DatabaseName=DILI"],
                            }
                        ],
                        "password": "sanyun13710319680",
                        "username": "sanyun"
                    }
                },
                "writer": {
                    "name": "mysqlwriter",
                    "parameter": {
                        "column": ["color_code","color_desc"],
                        "connection": [
                            {
                                "jdbcUrl": "jdbc:mysql://localhost:3306/sydht_dev_dili?characterEncoding=UTF-8&useSSL=false&serverTimezone=Asia/Shanghai",
                                "table": ["dm_color"]
                            }
                        ],
                        "password": "9cjEVa83",
                        "preSql": ["truncate dm_color"],
                        "session": ["set session sql_mode='ANSI'"],
                        "username": "rpdbuser",
                        "writeMode": "insert"
                    }
                }
            }
        ],
        "setting": {
            "speed": {
                "channel": "1"
            }
        }
    }
}
