{
    "job": {
        "content": [
            {
                "reader": {
                    "name": "sqlserverreader",
                    "parameter": {
                        "column": [],
                        "connection": [
                            {
							    "querySql": ["SELECT pos_sale.code as inv_no, pos_sale.dhcodefrm as shop_code, convert(char(19),pos_sale.gsdate,120) as sales_date, case len(pos_sale.dhcodeto) when 0 then 0 else 1 end as vip_sales, upper(pos_sale.empcodegs) as staff_code, pos_sale.dhcodeto as vip_no, pos_sale.totqty as sales_qty, pos_sale.totamount-isnull(pos_paydtl.amount,0) as sales_amt, pos_sale.totstdamt as tag_amt, 1 as inv_type, 1 as pay_type FROM pos_sale LEFT JOIN (select code,sum(amount) as amount from pos_paydtl where sku in ('ZSM','YHQ') group by code) as pos_paydtl ON pos_sale.code=pos_paydtl.code WHERE LOWER(pos_sale.dhcodefrm) not like '%a' and pos_sale.gsdate >= '${s_day}' and pos_sale.gsdate < '${e_day}'"],
                                "jdbcUrl": ["jdbc:sqlserver://10.10.0.174:86;DatabaseName=DILI"],
                            }
                        ],
                        "password": "sanyun13710319680",
                        "username": "sanyun"
                    }
                },
                "writer": {
                    "name": "mysqlwriter",
                    "parameter": {
                        "column": ["inv_no","shop_code","sales_date","vip_sales","staff_code","vip_no","sales_qty","sales_amt","tag_amt", "inv_type", "pay_type"],
                        "connection": [
                            {
                                "jdbcUrl": "jdbc:mysql://localhost:3306/sydht_dev_dili?characterEncoding=UTF-8&useSSL=false&serverTimezone=Asia/Shanghai",
                                "table": ["dm_sales"]
                            }
                        ],
                        "password": "9cjEVa83",
                        "preSql": ["delete from dm_sales where sales_date>='${s_day}' and sales_date<'${e_day}'"],
                        "session": ["set session sql_mode='ANSI'"],
                        "username": "rpdbuser",
                        "writeMode": "insert"
                    }
                }
            }
        ],
        "setting": {
            "speed": {
                "channel": "5"
            }
        }
    }
}
