{
    "job": {
        "content": [
            {
                "reader": {
                    "name": "sqlserverreader",
                    "parameter": {
                        "column": [],
                        "connection": [
                            {
							    "querySql": ["SELECT vip.code as vip_no, vip.name as cust_name, case  when vipdengji is null or vipdengji='' then '' else vipdengji end as vl_code, vip.shop as register_shop, vip.shop as belong_shop, vip.openemp as register_staff, vip.openemp as belong_staff, convert(char(10),begdate,120) as register_date, case vip.emp when '0' then '1' else '2' end as cust_sex, convert(char(10),vip.birth,120) as birthday, vip.mobile as mobile, vip.addr as address, case vip.status when '0' then '1' else '2' end as vip_status, isnull(vip.openamt,0) as active_amt, isnull(vip.point,0) as vip_integrate FROM vip where LOWER(vip.shop) not like '%a'"],
                                "jdbcUrl": ["jdbc:sqlserver://10.10.0.174:86;DatabaseName=DILI"],
                            }
                        ],
                        "password": "sanyun13710319680",
                        "username": "sanyun"
                    }
                },
                "writer": {
                    "name": "mysqlwriter",
                    "parameter": {
                        "column": ["vip_no","cust_name","vl_code","register_shop","belong_shop","register_staff","belong_staff","register_date","cust_sex","birthday","mobile","address","vip_status","active_amt","vip_integrate"],
                        "connection": [
                            {
                                "jdbcUrl": "jdbc:mysql://localhost:3306/sydht_dev_dili?characterEncoding=UTF-8&useSSL=false&serverTimezone=Asia/Shanghai",
                                "table": ["dm_vip"]
                            }
                        ],
                        "password": "9cjEVa83",
                        "preSql": ["truncate dm_vip"],
                        "session": ["set session sql_mode='ANSI'"],
                        "username": "rpdbuser",
                        "writeMode": "insert"
                    }
                }
            }
        ],
        "setting": {
            "speed": {
                "channel": "10",
				"batchSize":2048
            }
        }
    }
}
