{
    "job": {
        "content": [
            {
                "reader": {
                    "name": "mysqlreader",
                    "parameter": {
                        "column": [],
                        "connection": [
                            {
                                "//":"本表记录会员在所属店的最早最完晚消费记录的时间跟服务导购，其中导购允许为空。应注意，以下脚本仅适应客户销售单据中时间包含时分秒的情况，若客户销售单据中时间不包含时分秒，需要找出当天最后单据再找导购，同理取得最早服务导购。",
							                  "querySql": ["select ds.vip_no as vip_no, a.last_sales_date as last_sales_date, ds.staff_code as last_staff_code from dm_sales ds, (
                                                select s.vip_no, max(sales_date) as last_sales_date from dm_sales s, dm_vip v where s.vip_no = v.vip_no and s.shop_code = v.belong_shop and s.vip_sales = 1 and sales_date >= '${s_day}' and sales_date < '${e_day}' group by s.vip_no
                                              ) a where ds.vip_no = a.vip_no and ds.sales_date = a.last_sales_date"],
                                "jdbcUrl": ["jdbc:mysql://localhost:3306/sydht_dev_dili?characterEncoding=UTF-8&useSSL=false&serverTimezone=Asia/Shanghai"]
                            }
                        ],
                        "password": "9cjEVa83",
                        "username": "rpdbuser"
                    }
                },
                "writer": {
                    "name": "mysqlwriter",
                    "parameter": {
                        "column": ["vip_no","last_sales_date","last_staff_code"],
                        "connection": [
                            {
                                "jdbcUrl": "jdbc:mysql://localhost:3306/sydht_dev_dili?characterEncoding=UTF-8&useSSL=false&serverTimezone=Asia/Shanghai",
                                "table": ["dm_vip_sales_date"]
                            }
                        ],
                        "password": "9cjEVa83",
                        "preSql": ["DELETE FROM dm_vip_sales_date WHERE first_sales_date >= '${s_day}' and first_sales_date < '${e_day}'"],
                        "postSql": ["UPDATE dm_vip_sales_date vd, (
                                    select ds.vip_no as vip_no, a.first_sales_date as first_sales_date, ds.staff_code as serve_staff from dm_sales ds, (
                                        SELECT s.vip_no, min(sales_date) as first_sales_date from dm_sales s, dm_vip v where s.vip_no = v.vip_no and s.shop_code = v.belong_shop and s.vip_sales = 1 and sales_date >= '${s_day}' and sales_date < '${e_day}' group by s.vip_no
                                        ) a where ds.vip_no = a.vip_no and ds.sales_date = a.first_sales_date
                                    ) b SET vd.first_sales_date = b.first_sales_date, vd.first_staff_code = b.serve_staff WHERE vd.vip_no = b.vip_no"],
                        "session": ["set session sql_mode='ANSI'"],
                        "username": "rpdbuser",
                        "writeMode": "update"
                    }
                }
            }
        ],
        "setting": {
            "speed": {
                "channel": "6"
            }
        }
    }
}
