{
    "job": {
        "content": [
            {
                "reader": {
                    "name": "sqlserverreader",
                    "parameter": {
                        "column": [],
                        "connection": [
                            {
							    "querySql": ["SELECT name as ic_name, code as ic_code, left(code,1) as class_code FROM g_othertype11"],
                                "jdbcUrl": ["jdbc:sqlserver://10.10.0.174:86;DatabaseName=DILI"],
                            }
                        ],
                        "password": "sanyun13710319680",
                        "username": "sanyun"
                    }
                },
                "writer": {
                    "name": "mysqlwriter",
                    "parameter": {
                        "column": ["ic_name","ic_code","class_code"],
                        "connection": [
                            {
                                "jdbcUrl": "jdbc:mysql://localhost:3306/sydht_dev_dili?characterEncoding=UTF-8&useSSL=false&serverTimezone=Asia/Shanghai",
                                "table": ["dm_category"]
                            }
                        ],
                        "password": "9cjEVa83",
                        "preSql": [""],
                        "postSql":["insert IGNORE into `dm_category` ( `ic_name`, `ic_code`, `class_code`, `ic_prop`, `ic_order_seq`, `ic_status`) values ('未分类', '9999', '9999', '1', '9999', '1')"],
                        "session": ["set session sql_mode='ANSI'"],
                        "username": "rpdbuser",
                        "writeMode": "update"
                    }
                }
            }
        ],
        "setting": {
            "speed": {
                "channel": "5"
            }
        }
    }
}
