{
    "job": {
        "content": [
            {
                "reader": {
                    "name": "sqlserverreader",
                    "parameter": {
                        "column": [],
                        "connection": [
                            {
							    "querySql": ["SELECT employee.code as staff_code, employee.name as staff_name, employee.mobile as staff_mobile, employee.shop as shop_code FROM employee LEFT JOIN shop ON employee.shop=shop.code WHERE LOWER(employee.shop) not like '%a'"],
                                "jdbcUrl": ["jdbc:sqlserver://10.10.0.174:86;DatabaseName=DILI"],
                            }
                        ],
                        "password": "sanyun13710319680",
                        "username": "sanyun"
                    }
                },
                "writer": {
                    "name": "mysqlwriter",
                    "parameter": {
                        "column": ["staff_code","staff_name","staff_mobile","shop_code"],
                        "connection": [
                            {
                                "jdbcUrl": "jdbc:mysql://localhost:3306/sydht_dev_dili?characterEncoding=UTF-8&useSSL=false&serverTimezone=Asia/Shanghai",
                                "table": ["dm_staff"]
                            }
                        ],
                        "password": "9cjEVa83",
                        "preSql": ["truncate dm_staff"],
                        "session": ["set session sql_mode='ANSI'"],
                        "username": "rpdbuser",
                        "writeMode": "insert"
                    }
                }
            }
        ],
        "setting": {
            "speed": {
                "channel": "6"
            }
        }
    }
}
