{
    "job": {
        "content": [
            {
                "reader": {
                    "name": "mysqlreader",
                    "parameter": {
                        "column": [],
                        "connection": [
                            {
							    "querySql": ["select shop_code as shop_code,sales_date as sales_date,sum(sales_qty) as sales_qty,sum(sales_amt) as sales_amt,sum(tag_amt) as tag_amt,sum(new_amt) as new_amt,sum(new_tag_amt) as new_tag_amt,sum(add_qty) as add_qty, sum(one_sheets) as one_sheets,sum(sales_sheets) as sales_sheets,sum(new_vips) as new_vips,sum(vip_sheets) as vip_sheets,sum(vip_amt) as vip_amt,sum(new_vip_amt) as new_vip_amt,sum(old_vip_amt),sum(vip_tag_amt) as vip_tag_amt,rec_amt as rec_amt,arr_amt as arr_amt
                  from(
                        select b.shop_code as shop_code,date_format(b.sales_date,'%Y-%m-%d') as sales_date,sum(a.sales_qty) as sales_qty,sum(a.sales_amt) as sales_amt,sum(a.sales_qty*a.tag_price) as tag_amt,sum(case when b.sales_date >=c.s_date and b.sales_date <= c.e_date then a.sales_amt else 0 end) as new_amt,sum(case when b.sales_date >=c.s_date and b.sales_date <=c.e_date then a.sales_qty*a.tag_price else 0 end) as new_tag_amt,sum(case c.is_add when 1 then a.sales_qty else 0 end) as add_qty,0 as one_sheets,0 as sales_sheets,0 as new_vips, 0 as vip_sheets,sum(case b.vip_sales when '1' then a.sales_amt else 0 end) as vip_amt,0 as new_vip_amt, 0 as old_vip_amt,sum(case b.vip_sales when '1' then a.sales_qty*a.tag_price else 0 end) as vip_tag_amt,sum(a.rec_amt) as rec_amt,sum(a.arr_amt) as arr_amt
                        from dm_salesdet a, dm_sales b,dm_item c,dm_category d
                        where a.inv_no= b.inv_no and a.item_code = c.item_code and c.ic_code = d.ic_code and d.ic_prop<>4
                        and b.sales_date>='${s_day}' and b.sales_date<'${e_day}'
                         group by b.shop_code,date_format(b.sales_date,'%Y-%m-%d')
                         union all
                         select b.shop_code as shop_code,date_format(b.sales_date,'%Y-%m-%d') as sales_date,sum(a.sales_qty) as sales_qty,sum(a.sales_amt) as sales_amt,sum(a.sales_qty*a.tag_price) as tag_amt,0 as new_amt,0 as new_tag_amt,sum(a.sales_qty) as add_qty,0 as one_sheets,0 as sales_sheets,0 as new_vips, 0 as vip_sheets,sum(case b.vip_sales when 1 then a.sales_amt else 0 end) as vip_amt,0 as new_vip_amt, 0 as old_vip_amt,0 as vip_tag_amt,sum(a.rec_amt) as rec_amt,sum(a.arr_amt) as arr_amt
                         from dm_salesdet a,dm_sales b
                         where a.inv_no= b.inv_no and NOT EXISTS (SELECT item_code FROM dm_item c WHERE a.item_code = c.item_code) and b.sales_date>=date_format('${s_day}','%Y-%m-%d') and b.sales_date<date_format('${e_day}','%Y-%m-%d')
                         group by shop_code,date_format(sales_date,'%Y-%m-%d')
                         union all
                        select shop_code as shop_code,date_format(sales_date,'%Y-%m-%d') as sales_date,0 as sales_qty,0 as sales_amt,0 as tag_amt,0 as new_amt,0 as new_tag_amt,0 as add_qty,sum(case sales_qty when 1 then 1 else 0 end) as one_sheets,sum(case when inv_type=1 then 1 when inv_type=2 then -1 else 0 end) as sales_sheets,0 as new_vips,sum(case when vip_sales='1' and inv_type=1 then 1 when vip_sales='1' and inv_type=2 then -1 else 0 end) as vip_sheets,0 as vip_amt,0 as new_vip_amt, 0 as old_vip_amt,0 as vip_tag_amt,0 as rec_amt,0 as arr_amt
                        from dm_sales
                        where sales_date>='${s_day}' and sales_date<'${e_day}'
                        group by shop_code,date_format(sales_date,'%Y-%m-%d')
                         union all
                        select register_shop as shop_code,date_format(register_date,'%Y-%m-%d') as sales_date,0 as sales_qty,0 as sales_amt,0 as tag_amt,0 as new_amt,0 as new_tag_amt,0 as add_qty,0 as one_sheets,0 as sales_sheets,count(*) as new_vips,0 as vip_sheets,0 as vip_amt,0 as new_vip_amt, 0 as old_vip_amt,0 as vip_tag_amt,0 as rec_amt,0 as arr_amt
                        from dm_vip
                        where register_date>='${s_day}' and register_date<'${e_day}'
                        group by register_shop,date_format(register_date,'%Y-%m-%d')
                        UNION ALL
                        select s.shop_code, date_format(sales_date,'%Y-%m-%d') as sales_date, 0 as sales_qty,0 as sales_amt,0 as tag_amt,0 as new_amt,0 as new_tag_amt,0 as add_qty, 0 as one_sheets,0 as sales_sheets, 0 as new_vips,0 as vip_sheets,0 as vip_amt, sum(s.sales_amt) as new_vip_amt, 0 as old_vip_amt,0 as vip_tag_amt,0 as rec_amt,0 as arr_amt
                        FROM dm_sales s, (select s.vip_no, min(s.inv_no) as inv_no
                          from dm_sales s, dm_vip_sales_date vs
                          where s.vip_no = vs.vip_no and s.sales_date = vs.first_sales_date and s.sales_date >= '${s_day}' and s.sales_date < '${e_day}'
                          group by s.vip_no
                        ) a
                        WHERE s.vip_no = a.vip_no and s.inv_no = a.inv_no GROUP BY s.shop_code, UNIX_TIMESTAMP(date_format(sales_date,'%Y-%m-%d'))
                        ) as xxx
											  group by shop_code,sales_date"],
                                "jdbcUrl": ["jdbc:mysql://localhost:3306/sydht_dev_dili?characterEncoding=UTF-8&useSSL=false&serverTimezone=Asia/Shanghai"],

                            }
                        ],
                        "password": "9cjEVa83",
                        "username": "rpdbuser",
                        "where": ""
                    }
                },

                "writer": {
                    "name": "mysqlwriter",
                    "parameter": {
                        "column": ["shop_code","sales_date","sales_qty","sales_amt","tag_amt","new_amt","new_tag_amt","add_qty","one_sheets","sales_sheets","new_vips","vip_sheets","vip_amt","new_vip_amt","old_vip_amt","vip_tag_amt","rec_amt","arr_amt"],
                        "connection": [
                            {
                                "jdbcUrl": "jdbc:mysql://localhost:3306/sydht_dev_dili?characterEncoding=UTF-8&useSSL=false&serverTimezone=Asia/Shanghai",
                                "table": ["dm_sales_calc"]
                            }
                        ],
                        "password": "9cjEVa83",
                        "preSql": ["delete from dm_sales_calc where sales_date >='${s_day}' and sales_date<'${e_day}'"],
                        "postSql":["UPDATE dm_sales_calc set old_vip_amt = vip_amt - new_vip_amt where sales_date >='${s_day}' and sales_date<'${e_day}'"],
                        "session": ["set session sql_mode='ANSI'"],
                        "username": "rpdbuser",
                        "writeMode": "insert"
                    }
                }
            }
        ],
        "setting": {
            "speed": {
                "channel": "10",
				"batchSize":2048
            }
        }
    }
}
