{
    "job": {
        "content": [
            {
                "reader": {
                    "name": "sqlserverreader",
                    "parameter": {
                        "column": [],
                        "connection": [
                            {
							    "querySql": ["SELECT inv_no as inv_no, shop_code as shop_code, convert(varchar(19), sale_date, 120) as sale_date, case isnull(vip_state,0) when 0 then 0 else 1 end as vip_state, isnull(staff_id,0) as staff_id, isnull(vip_no,0) as vip_no, inv_type as inv_type, pay_type as pay_type, inv_source as inv_source, inv_qtys as inv_qtys, inv_money as inv_money, rec_money as rec_money, arr_money as arr_money, tag_money as tag_money FROM sales_info WHERE sale_date >= '${s_day}' and sale_date < '${e_day}'"],
                                "jdbcUrl": ["jdbc:sqlserver://192.168.2.9:1433;DatabaseName=ONLINE_DW"],
                            }
                        ],
                        "password": "345ert^^",
                        "username": "songxl"
                    }
                },
                "writer": {
                    "name": "mysqlwriter",
                    "parameter": {
                        "column": ["inv_no","shop_code","sale_date","vip_state","staff_id","vip_no","inv_type","pay_type","inv_source","inv_qtys","inv_money","rec_money","arr_money","tag_money"],
                        "connection": [
                            {
                                "jdbcUrl": "jdbc:mysql://localhost:3306/report_db_test?characterEncoding=UTF-8&useSSL=false&serverTimezone=Asia/Shanghai",
                                "table": ["sales_info"]
                            }
                        ],
                        "password": "9cjEVa83",
                        "preSql": ["delete from sales_info where sale_date>='${s_day}' and sale_date<'${e_day}'"],
                        "postSql": [""],
                        "session": ["set session sql_mode='ANSI'"],
                        "username": "rpdbuser",
                        "writeMode": "insert"
                    }
                }
            }
        ],
        "setting": {
            "speed": {
                "channel": "5"
            }
        }
    }
}
