[2021-05-28 17:04:58]:缓存清除成功，共删除0个缓存文件。,POST /v1/receive/delete_cache
[2021-05-28 17:14:32]:表[sy_v_category]共1批次数据,正在处理第1批次数据,品类资料表[lsla_category]资料更新成功!共新增0行,更新34行。POST /v1/receive/category.表[sy_v_category]合共传输34行数据。
[2021-05-28 17:14:32]:表[sy_v_sea]共1批次数据,正在处理第1批次数据,季度资料表[lsla_sea]资料更新成功!共新增0行,更新5行。POST /v1/receive/sea.表[sy_v_sea]合共传输5行数据。
