[2021-03-23 17:40:56]:表[sy_v_category]共1批次数据,正在处理第1批次数据,品类资料表[lsla_category]资料更新成功!共新增0行,更新39行。POST /v1/receive/category.表[sy_v_category]合共传输39行数据。
[2021-03-23 17:40:56]:表[sy_v_sea]共1批次数据,正在处理第1批次数据,季度资料表[lsla_sea]资料更新成功!共新增0行,更新7行。POST /v1/receive/sea.表[sy_v_category]合共传输7行数据。
[2021-03-23 17:40:59]:表[sy_v_item]共28批次数据,正在处理第1批次数据,商品资料[lsla_item]资料更新成功!共新增0行,更新3000行。POST /v1/receive/item.表[sy_v_category]合共传输3000行数据。
[2021-03-23 17:41:01]:表[sy_v_item]共28批次数据,正在处理第2批次数据,商品资料[lsla_item]资料更新成功!共新增0行,更新3000行。POST /v1/receive/item.表[sy_v_category]合共传输6000行数据。
[2021-03-23 17:41:04]:表[sy_v_item]共28批次数据,正在处理第3批次数据,商品资料[lsla_item]资料更新成功!共新增0行,更新3000行。POST /v1/receive/item.表[sy_v_category]合共传输9000行数据。
[2021-03-23 17:41:06]:表[sy_v_item]共28批次数据,正在处理第4批次数据,商品资料[lsla_item]资料更新成功!共新增0行,更新3000行。POST /v1/receive/item.表[sy_v_category]合共传输12000行数据。
[2021-03-23 17:41:09]:表[sy_v_item]共28批次数据,正在处理第5批次数据,商品资料[lsla_item]资料更新成功!共新增0行,更新3000行。POST /v1/receive/item.表[sy_v_category]合共传输15000行数据。
[2021-03-23 17:41:11]:表[sy_v_item]共28批次数据,正在处理第6批次数据,商品资料[lsla_item]资料更新成功!共新增0行,更新3000行。POST /v1/receive/item.表[sy_v_category]合共传输18000行数据。
[2021-03-23 17:41:14]:表[sy_v_item]共28批次数据,正在处理第7批次数据,商品资料[lsla_item]资料更新成功!共新增0行,更新3000行。POST /v1/receive/item.表[sy_v_category]合共传输21000行数据。
[2021-03-23 17:41:16]:表[sy_v_item]共28批次数据,正在处理第8批次数据,商品资料[lsla_item]资料更新成功!共新增0行,更新3000行。POST /v1/receive/item.表[sy_v_category]合共传输24000行数据。
[2021-03-23 17:41:19]:表[sy_v_item]共28批次数据,正在处理第9批次数据,商品资料[lsla_item]资料更新成功!共新增0行,更新3000行。POST /v1/receive/item.表[sy_v_category]合共传输27000行数据。
[2021-03-23 17:41:22]:表[sy_v_item]共28批次数据,正在处理第10批次数据,商品资料[lsla_item]资料更新成功!共新增0行,更新3000行。POST /v1/receive/item.表[sy_v_category]合共传输30000行数据。
[2021-03-23 17:41:25]:表[sy_v_item]共28批次数据,正在处理第11批次数据,商品资料[lsla_item]资料更新成功!共新增0行,更新3000行。POST /v1/receive/item.表[sy_v_category]合共传输33000行数据。
[2021-03-23 17:41:27]:表[sy_v_item]共28批次数据,正在处理第12批次数据,商品资料[lsla_item]资料更新成功!共新增0行,更新3000行。POST /v1/receive/item.表[sy_v_category]合共传输36000行数据。
[2021-03-23 17:41:30]:表[sy_v_item]共28批次数据,正在处理第13批次数据,商品资料[lsla_item]资料更新成功!共新增0行,更新3000行。POST /v1/receive/item.表[sy_v_category]合共传输39000行数据。
[2021-03-23 17:41:33]:表[sy_v_item]共28批次数据,正在处理第14批次数据,商品资料[lsla_item]资料更新成功!共新增0行,更新3000行。POST /v1/receive/item.表[sy_v_category]合共传输42000行数据。
[2021-03-23 17:41:35]:表[sy_v_item]共28批次数据,正在处理第15批次数据,商品资料[lsla_item]资料更新成功!共新增0行,更新3000行。POST /v1/receive/item.表[sy_v_category]合共传输45000行数据。
[2021-03-23 17:41:38]:表[sy_v_item]共28批次数据,正在处理第16批次数据,商品资料[lsla_item]资料更新成功!共新增0行,更新3000行。POST /v1/receive/item.表[sy_v_category]合共传输48000行数据。
[2021-03-23 17:41:41]:表[sy_v_item]共28批次数据,正在处理第17批次数据,商品资料[lsla_item]资料更新成功!共新增0行,更新3000行。POST /v1/receive/item.表[sy_v_category]合共传输51000行数据。
[2021-03-23 17:41:43]:表[sy_v_item]共28批次数据,正在处理第18批次数据,商品资料[lsla_item]资料更新成功!共新增0行,更新3000行。POST /v1/receive/item.表[sy_v_category]合共传输54000行数据。
[2021-03-23 17:41:46]:表[sy_v_item]共28批次数据,正在处理第19批次数据,商品资料[lsla_item]资料更新成功!共新增0行,更新3000行。POST /v1/receive/item.表[sy_v_category]合共传输57000行数据。
[2021-03-23 17:41:48]:表[sy_v_item]共28批次数据,正在处理第20批次数据,商品资料[lsla_item]资料更新成功!共新增0行,更新3000行。POST /v1/receive/item.表[sy_v_category]合共传输60000行数据。
[2021-03-23 17:41:51]:表[sy_v_item]共28批次数据,正在处理第21批次数据,商品资料[lsla_item]资料更新成功!共新增0行,更新3000行。POST /v1/receive/item.表[sy_v_category]合共传输63000行数据。
[2021-03-23 17:41:54]:表[sy_v_item]共28批次数据,正在处理第22批次数据,商品资料[lsla_item]资料更新成功!共新增0行,更新3000行。POST /v1/receive/item.表[sy_v_category]合共传输66000行数据。
[2021-03-23 17:41:56]:表[sy_v_item]共28批次数据,正在处理第23批次数据,商品资料[lsla_item]资料更新成功!共新增0行,更新3000行。POST /v1/receive/item.表[sy_v_category]合共传输69000行数据。
[2021-03-23 17:41:59]:表[sy_v_item]共28批次数据,正在处理第24批次数据,商品资料[lsla_item]资料更新成功!共新增0行,更新3000行。POST /v1/receive/item.表[sy_v_category]合共传输72000行数据。
[2021-03-23 17:42:02]:表[sy_v_item]共28批次数据,正在处理第25批次数据,商品资料[lsla_item]资料更新成功!共新增0行,更新3000行。POST /v1/receive/item.表[sy_v_category]合共传输75000行数据。
[2021-03-23 17:42:04]:表[sy_v_item]共28批次数据,正在处理第26批次数据,商品资料[lsla_item]资料更新成功!共新增0行,更新3000行。POST /v1/receive/item.表[sy_v_category]合共传输78000行数据。
[2021-03-23 17:42:07]:表[sy_v_item]共28批次数据,正在处理第27批次数据,商品资料[lsla_item]资料更新成功!共新增0行,更新3000行。POST /v1/receive/item.表[sy_v_category]合共传输81000行数据。
[2021-03-23 17:42:09]:表[sy_v_item]共28批次数据,正在处理第28批次数据,商品资料[lsla_item]资料更新成功!共新增0行,更新2769行。POST /v1/receive/item.表[sy_v_category]合共传输83769行数据。
[2021-03-23 17:48:50]:表[sy_v_category]共1批次数据,正在处理第1批次数据,品类资料表[lsla_category]资料更新成功!共新增0行,更新39行。POST /v1/receive/category.表[sy_v_category]合共传输39行数据。
[2021-03-23 17:48:51]:表[sy_v_sea]共1批次数据,正在处理第1批次数据,季度资料表[lsla_sea]资料更新成功!共新增0行,更新7行。POST /v1/receive/sea.表[sy_v_category]合共传输7行数据。
[2021-03-23 17:48:53]:表[sy_v_item]共28批次数据,正在处理第1批次数据,商品资料[lsla_item]资料更新成功!共新增0行,更新3000行。POST /v1/receive/item.表[sy_v_category]合共传输3000行数据。
[2021-03-23 17:48:56]:表[sy_v_item]共28批次数据,正在处理第2批次数据,商品资料[lsla_item]资料更新成功!共新增0行,更新3000行。POST /v1/receive/item.表[sy_v_category]合共传输6000行数据。
[2021-03-23 17:48:58]:表[sy_v_item]共28批次数据,正在处理第3批次数据,商品资料[lsla_item]资料更新成功!共新增0行,更新3000行。POST /v1/receive/item.表[sy_v_category]合共传输9000行数据。
[2021-03-23 17:49:01]:表[sy_v_item]共28批次数据,正在处理第4批次数据,商品资料[lsla_item]资料更新成功!共新增0行,更新3000行。POST /v1/receive/item.表[sy_v_category]合共传输12000行数据。
[2021-03-23 17:49:03]:表[sy_v_item]共28批次数据,正在处理第5批次数据,商品资料[lsla_item]资料更新成功!共新增0行,更新3000行。POST /v1/receive/item.表[sy_v_category]合共传输15000行数据。
[2021-03-23 17:49:06]:表[sy_v_item]共28批次数据,正在处理第6批次数据,商品资料[lsla_item]资料更新成功!共新增0行,更新3000行。POST /v1/receive/item.表[sy_v_category]合共传输18000行数据。
[2021-03-23 17:49:09]:表[sy_v_item]共28批次数据,正在处理第7批次数据,商品资料[lsla_item]资料更新成功!共新增0行,更新3000行。POST /v1/receive/item.表[sy_v_category]合共传输21000行数据。
[2021-03-23 17:49:11]:表[sy_v_item]共28批次数据,正在处理第8批次数据,商品资料[lsla_item]资料更新成功!共新增0行,更新3000行。POST /v1/receive/item.表[sy_v_category]合共传输24000行数据。
[2021-03-23 17:49:14]:表[sy_v_item]共28批次数据,正在处理第9批次数据,商品资料[lsla_item]资料更新成功!共新增0行,更新3000行。POST /v1/receive/item.表[sy_v_category]合共传输27000行数据。
[2021-03-23 17:49:16]:表[sy_v_item]共28批次数据,正在处理第10批次数据,商品资料[lsla_item]资料更新成功!共新增0行,更新3000行。POST /v1/receive/item.表[sy_v_category]合共传输30000行数据。
[2021-03-23 17:49:19]:表[sy_v_item]共28批次数据,正在处理第11批次数据,商品资料[lsla_item]资料更新成功!共新增0行,更新3000行。POST /v1/receive/item.表[sy_v_category]合共传输33000行数据。
[2021-03-23 17:49:22]:表[sy_v_item]共28批次数据,正在处理第12批次数据,商品资料[lsla_item]资料更新成功!共新增0行,更新3000行。POST /v1/receive/item.表[sy_v_category]合共传输36000行数据。
[2021-03-23 17:49:24]:表[sy_v_item]共28批次数据,正在处理第13批次数据,商品资料[lsla_item]资料更新成功!共新增0行,更新3000行。POST /v1/receive/item.表[sy_v_category]合共传输39000行数据。
[2021-03-23 17:49:27]:表[sy_v_item]共28批次数据,正在处理第14批次数据,商品资料[lsla_item]资料更新成功!共新增0行,更新3000行。POST /v1/receive/item.表[sy_v_category]合共传输42000行数据。
[2021-03-23 17:49:29]:表[sy_v_item]共28批次数据,正在处理第15批次数据,商品资料[lsla_item]资料更新成功!共新增0行,更新3000行。POST /v1/receive/item.表[sy_v_category]合共传输45000行数据。
[2021-03-23 17:49:32]:表[sy_v_item]共28批次数据,正在处理第16批次数据,商品资料[lsla_item]资料更新成功!共新增0行,更新3000行。POST /v1/receive/item.表[sy_v_category]合共传输48000行数据。
[2021-03-23 17:49:35]:表[sy_v_item]共28批次数据,正在处理第17批次数据,商品资料[lsla_item]资料更新成功!共新增0行,更新3000行。POST /v1/receive/item.表[sy_v_category]合共传输51000行数据。
[2021-03-23 17:49:37]:表[sy_v_item]共28批次数据,正在处理第18批次数据,商品资料[lsla_item]资料更新成功!共新增0行,更新3000行。POST /v1/receive/item.表[sy_v_category]合共传输54000行数据。
[2021-03-23 17:49:40]:表[sy_v_item]共28批次数据,正在处理第19批次数据,商品资料[lsla_item]资料更新成功!共新增0行,更新3000行。POST /v1/receive/item.表[sy_v_category]合共传输57000行数据。
[2021-03-23 17:49:43]:表[sy_v_item]共28批次数据,正在处理第20批次数据,商品资料[lsla_item]资料更新成功!共新增0行,更新3000行。POST /v1/receive/item.表[sy_v_category]合共传输60000行数据。
[2021-03-23 17:49:45]:表[sy_v_item]共28批次数据,正在处理第21批次数据,商品资料[lsla_item]资料更新成功!共新增0行,更新3000行。POST /v1/receive/item.表[sy_v_category]合共传输63000行数据。
[2021-03-23 17:49:47]:表[sy_v_item]共28批次数据,正在处理第22批次数据,商品资料[lsla_item]资料更新成功!共新增0行,更新3000行。POST /v1/receive/item.表[sy_v_category]合共传输66000行数据。
[2021-03-23 17:49:50]:表[sy_v_item]共28批次数据,正在处理第23批次数据,商品资料[lsla_item]资料更新成功!共新增0行,更新3000行。POST /v1/receive/item.表[sy_v_category]合共传输69000行数据。
[2021-03-23 17:49:52]:表[sy_v_item]共28批次数据,正在处理第24批次数据,商品资料[lsla_item]资料更新成功!共新增0行,更新3000行。POST /v1/receive/item.表[sy_v_category]合共传输72000行数据。
[2021-03-23 17:49:55]:表[sy_v_item]共28批次数据,正在处理第25批次数据,商品资料[lsla_item]资料更新成功!共新增0行,更新3000行。POST /v1/receive/item.表[sy_v_category]合共传输75000行数据。
[2021-03-23 17:49:57]:表[sy_v_item]共28批次数据,正在处理第26批次数据,商品资料[lsla_item]资料更新成功!共新增0行,更新3000行。POST /v1/receive/item.表[sy_v_category]合共传输78000行数据。
[2021-03-23 17:50:00]:表[sy_v_item]共28批次数据,正在处理第27批次数据,商品资料[lsla_item]资料更新成功!共新增0行,更新3000行。POST /v1/receive/item.表[sy_v_category]合共传输81000行数据。
[2021-03-23 17:50:02]:表[sy_v_item]共28批次数据,正在处理第28批次数据,商品资料[lsla_item]资料更新成功!共新增0行,更新2769行。POST /v1/receive/item.表[sy_v_category]合共传输83769行数据。
[2021-03-23 17:51:29]:表[sy_v_category]共1批次数据,正在处理第1批次数据,品类资料表[lsla_category]资料更新成功!共新增0行,更新39行。POST /v1/receive/category.表[sy_v_category]合共传输39行数据。
[2021-03-23 17:51:29]:表[sy_v_sea]共1批次数据,正在处理第1批次数据,季度资料表[lsla_sea]资料更新成功!共新增0行,更新7行。POST /v1/receive/sea.表[sy_v_category]合共传输7行数据。
[2021-03-23 17:51:31]:表[sy_v_item]共28批次数据,正在处理第1批次数据,商品资料[lsla_item]资料更新成功!共新增0行,更新3000行。POST /v1/receive/item.表[sy_v_category]合共传输3000行数据。
[2021-03-23 17:51:35]:表[sy_v_item]共28批次数据,正在处理第2批次数据,商品资料[lsla_item]资料更新成功!共新增0行,更新3000行。POST /v1/receive/item.表[sy_v_category]合共传输6000行数据。
[2021-03-23 17:51:38]:表[sy_v_item]共28批次数据,正在处理第3批次数据,商品资料[lsla_item]资料更新成功!共新增0行,更新3000行。POST /v1/receive/item.表[sy_v_category]合共传输9000行数据。
[2021-03-23 17:51:40]:表[sy_v_item]共28批次数据,正在处理第4批次数据,商品资料[lsla_item]资料更新成功!共新增0行,更新3000行。POST /v1/receive/item.表[sy_v_category]合共传输12000行数据。
[2021-03-23 17:51:43]:表[sy_v_item]共28批次数据,正在处理第5批次数据,商品资料[lsla_item]资料更新成功!共新增0行,更新3000行。POST /v1/receive/item.表[sy_v_category]合共传输15000行数据。
[2021-03-23 17:51:45]:表[sy_v_item]共28批次数据,正在处理第6批次数据,商品资料[lsla_item]资料更新成功!共新增0行,更新3000行。POST /v1/receive/item.表[sy_v_category]合共传输18000行数据。
[2021-03-23 17:51:48]:表[sy_v_item]共28批次数据,正在处理第7批次数据,商品资料[lsla_item]资料更新成功!共新增0行,更新3000行。POST /v1/receive/item.表[sy_v_category]合共传输21000行数据。
[2021-03-23 17:51:50]:表[sy_v_item]共28批次数据,正在处理第8批次数据,商品资料[lsla_item]资料更新成功!共新增0行,更新3000行。POST /v1/receive/item.表[sy_v_category]合共传输24000行数据。
[2021-03-23 17:51:53]:表[sy_v_item]共28批次数据,正在处理第9批次数据,商品资料[lsla_item]资料更新成功!共新增0行,更新3000行。POST /v1/receive/item.表[sy_v_category]合共传输27000行数据。
[2021-03-23 17:51:56]:表[sy_v_item]共28批次数据,正在处理第10批次数据,商品资料[lsla_item]资料更新成功!共新增0行,更新3000行。POST /v1/receive/item.表[sy_v_category]合共传输30000行数据。
[2021-03-23 17:51:58]:表[sy_v_item]共28批次数据,正在处理第11批次数据,商品资料[lsla_item]资料更新成功!共新增0行,更新3000行。POST /v1/receive/item.表[sy_v_category]合共传输33000行数据。
[2021-03-23 17:52:00]:表[sy_v_item]共28批次数据,正在处理第12批次数据,商品资料[lsla_item]资料更新成功!共新增0行,更新3000行。POST /v1/receive/item.表[sy_v_category]合共传输36000行数据。
[2021-03-23 17:52:03]:表[sy_v_item]共28批次数据,正在处理第13批次数据,商品资料[lsla_item]资料更新成功!共新增0行,更新3000行。POST /v1/receive/item.表[sy_v_category]合共传输39000行数据。
[2021-03-23 17:52:05]:表[sy_v_item]共28批次数据,正在处理第14批次数据,商品资料[lsla_item]资料更新成功!共新增0行,更新3000行。POST /v1/receive/item.表[sy_v_category]合共传输42000行数据。
[2021-03-23 17:52:08]:表[sy_v_item]共28批次数据,正在处理第15批次数据,商品资料[lsla_item]资料更新成功!共新增0行,更新3000行。POST /v1/receive/item.表[sy_v_category]合共传输45000行数据。
[2021-03-23 17:52:11]:表[sy_v_item]共28批次数据,正在处理第16批次数据,商品资料[lsla_item]资料更新成功!共新增0行,更新3000行。POST /v1/receive/item.表[sy_v_category]合共传输48000行数据。
[2021-03-23 17:52:13]:表[sy_v_item]共28批次数据,正在处理第17批次数据,商品资料[lsla_item]资料更新成功!共新增0行,更新3000行。POST /v1/receive/item.表[sy_v_category]合共传输51000行数据。
[2021-03-23 17:52:16]:表[sy_v_item]共28批次数据,正在处理第18批次数据,商品资料[lsla_item]资料更新成功!共新增0行,更新3000行。POST /v1/receive/item.表[sy_v_category]合共传输54000行数据。
[2021-03-23 17:52:18]:表[sy_v_item]共28批次数据,正在处理第19批次数据,商品资料[lsla_item]资料更新成功!共新增0行,更新3000行。POST /v1/receive/item.表[sy_v_category]合共传输57000行数据。
[2021-03-23 17:52:21]:表[sy_v_item]共28批次数据,正在处理第20批次数据,商品资料[lsla_item]资料更新成功!共新增0行,更新3000行。POST /v1/receive/item.表[sy_v_category]合共传输60000行数据。
[2021-03-23 17:52:23]:表[sy_v_item]共28批次数据,正在处理第21批次数据,商品资料[lsla_item]资料更新成功!共新增0行,更新3000行。POST /v1/receive/item.表[sy_v_category]合共传输63000行数据。
[2021-03-23 17:52:26]:表[sy_v_item]共28批次数据,正在处理第22批次数据,商品资料[lsla_item]资料更新成功!共新增0行,更新3000行。POST /v1/receive/item.表[sy_v_category]合共传输66000行数据。
[2021-03-23 17:52:28]:表[sy_v_item]共28批次数据,正在处理第23批次数据,商品资料[lsla_item]资料更新成功!共新增0行,更新3000行。POST /v1/receive/item.表[sy_v_category]合共传输69000行数据。
[2021-03-23 17:52:31]:表[sy_v_item]共28批次数据,正在处理第24批次数据,商品资料[lsla_item]资料更新成功!共新增0行,更新3000行。POST /v1/receive/item.表[sy_v_category]合共传输72000行数据。
[2021-03-23 17:52:34]:表[sy_v_item]共28批次数据,正在处理第25批次数据,商品资料[lsla_item]资料更新成功!共新增0行,更新3000行。POST /v1/receive/item.表[sy_v_category]合共传输75000行数据。
[2021-03-23 17:52:37]:表[sy_v_item]共28批次数据,正在处理第26批次数据,商品资料[lsla_item]资料更新成功!共新增0行,更新3000行。POST /v1/receive/item.表[sy_v_category]合共传输78000行数据。
[2021-03-23 17:52:40]:表[sy_v_item]共28批次数据,正在处理第27批次数据,商品资料[lsla_item]资料更新成功!共新增0行,更新3000行。POST /v1/receive/item.表[sy_v_category]合共传输81000行数据。
[2021-03-23 17:52:42]:表[sy_v_item]共28批次数据,正在处理第28批次数据,商品资料[lsla_item]资料更新成功!共新增0行,更新2769行。POST /v1/receive/item.表[sy_v_category]合共传输83769行数据。
[2021-03-23 17:56:10]:表[sy_v_category]共1批次数据,正在处理第1批次数据,品类资料表[lsla_category]资料更新成功!共新增0行,更新39行。POST /v1/receive/category.表[sy_v_category]合共传输39行数据。
[2021-03-23 17:56:10]:表[sy_v_sea]共1批次数据,正在处理第1批次数据,季度资料表[lsla_sea]资料更新成功!共新增0行,更新7行。POST /v1/receive/sea.表[sy_v_category]合共传输7行数据。
[2021-03-23 17:56:13]:表[sy_v_item]共28批次数据,正在处理第1批次数据,商品资料[lsla_item]资料更新成功!共新增0行,更新3000行。POST /v1/receive/item.表[sy_v_category]合共传输3000行数据。
[2021-03-23 17:56:16]:表[sy_v_item]共28批次数据,正在处理第2批次数据,商品资料[lsla_item]资料更新成功!共新增0行,更新3000行。POST /v1/receive/item.表[sy_v_category]合共传输6000行数据。
[2021-03-23 17:56:19]:表[sy_v_item]共28批次数据,正在处理第3批次数据,商品资料[lsla_item]资料更新成功!共新增0行,更新3000行。POST /v1/receive/item.表[sy_v_category]合共传输9000行数据。
[2021-03-23 17:56:21]:表[sy_v_item]共28批次数据,正在处理第4批次数据,商品资料[lsla_item]资料更新成功!共新增0行,更新3000行。POST /v1/receive/item.表[sy_v_category]合共传输12000行数据。
[2021-03-23 17:56:24]:表[sy_v_item]共28批次数据,正在处理第5批次数据,商品资料[lsla_item]资料更新成功!共新增0行,更新3000行。POST /v1/receive/item.表[sy_v_category]合共传输15000行数据。
[2021-03-23 17:56:26]:表[sy_v_item]共28批次数据,正在处理第6批次数据,商品资料[lsla_item]资料更新成功!共新增0行,更新3000行。POST /v1/receive/item.表[sy_v_category]合共传输18000行数据。
[2021-03-23 17:56:29]:表[sy_v_item]共28批次数据,正在处理第7批次数据,商品资料[lsla_item]资料更新成功!共新增0行,更新3000行。POST /v1/receive/item.表[sy_v_category]合共传输21000行数据。
[2021-03-23 17:56:31]:表[sy_v_item]共28批次数据,正在处理第8批次数据,商品资料[lsla_item]资料更新成功!共新增0行,更新3000行。POST /v1/receive/item.表[sy_v_category]合共传输24000行数据。
[2021-03-23 17:56:34]:表[sy_v_item]共28批次数据,正在处理第9批次数据,商品资料[lsla_item]资料更新成功!共新增0行,更新3000行。POST /v1/receive/item.表[sy_v_category]合共传输27000行数据。
[2021-03-23 17:56:36]:表[sy_v_item]共28批次数据,正在处理第10批次数据,商品资料[lsla_item]资料更新成功!共新增0行,更新3000行。POST /v1/receive/item.表[sy_v_category]合共传输30000行数据。
[2021-03-23 17:56:39]:表[sy_v_item]共28批次数据,正在处理第11批次数据,商品资料[lsla_item]资料更新成功!共新增0行,更新3000行。POST /v1/receive/item.表[sy_v_category]合共传输33000行数据。
[2021-03-23 17:56:41]:表[sy_v_item]共28批次数据,正在处理第12批次数据,商品资料[lsla_item]资料更新成功!共新增0行,更新3000行。POST /v1/receive/item.表[sy_v_category]合共传输36000行数据。
[2021-03-23 17:56:44]:表[sy_v_item]共28批次数据,正在处理第13批次数据,商品资料[lsla_item]资料更新成功!共新增0行,更新3000行。POST /v1/receive/item.表[sy_v_category]合共传输39000行数据。
[2021-03-23 17:56:46]:表[sy_v_item]共28批次数据,正在处理第14批次数据,商品资料[lsla_item]资料更新成功!共新增0行,更新3000行。POST /v1/receive/item.表[sy_v_category]合共传输42000行数据。
[2021-03-23 17:56:49]:表[sy_v_item]共28批次数据,正在处理第15批次数据,商品资料[lsla_item]资料更新成功!共新增0行,更新3000行。POST /v1/receive/item.表[sy_v_category]合共传输45000行数据。
[2021-03-23 17:56:52]:表[sy_v_item]共28批次数据,正在处理第16批次数据,商品资料[lsla_item]资料更新成功!共新增0行,更新3000行。POST /v1/receive/item.表[sy_v_category]合共传输48000行数据。
[2021-03-23 17:56:54]:表[sy_v_item]共28批次数据,正在处理第17批次数据,商品资料[lsla_item]资料更新成功!共新增0行,更新3000行。POST /v1/receive/item.表[sy_v_category]合共传输51000行数据。
[2021-03-23 17:56:57]:表[sy_v_item]共28批次数据,正在处理第18批次数据,商品资料[lsla_item]资料更新成功!共新增0行,更新3000行。POST /v1/receive/item.表[sy_v_category]合共传输54000行数据。
[2021-03-23 17:56:59]:表[sy_v_item]共28批次数据,正在处理第19批次数据,商品资料[lsla_item]资料更新成功!共新增0行,更新3000行。POST /v1/receive/item.表[sy_v_category]合共传输57000行数据。
[2021-03-23 17:57:02]:表[sy_v_item]共28批次数据,正在处理第20批次数据,商品资料[lsla_item]资料更新成功!共新增0行,更新3000行。POST /v1/receive/item.表[sy_v_category]合共传输60000行数据。
[2021-03-23 17:57:05]:表[sy_v_item]共28批次数据,正在处理第21批次数据,商品资料[lsla_item]资料更新成功!共新增0行,更新3000行。POST /v1/receive/item.表[sy_v_category]合共传输63000行数据。
[2021-03-23 17:57:07]:表[sy_v_item]共28批次数据,正在处理第22批次数据,商品资料[lsla_item]资料更新成功!共新增0行,更新3000行。POST /v1/receive/item.表[sy_v_category]合共传输66000行数据。
[2021-03-23 17:57:10]:表[sy_v_item]共28批次数据,正在处理第23批次数据,商品资料[lsla_item]资料更新成功!共新增0行,更新3000行。POST /v1/receive/item.表[sy_v_category]合共传输69000行数据。
[2021-03-23 17:57:12]:表[sy_v_item]共28批次数据,正在处理第24批次数据,商品资料[lsla_item]资料更新成功!共新增0行,更新3000行。POST /v1/receive/item.表[sy_v_category]合共传输72000行数据。
[2021-03-23 17:57:15]:表[sy_v_item]共28批次数据,正在处理第25批次数据,商品资料[lsla_item]资料更新成功!共新增0行,更新3000行。POST /v1/receive/item.表[sy_v_category]合共传输75000行数据。
[2021-03-23 17:57:17]:表[sy_v_item]共28批次数据,正在处理第26批次数据,商品资料[lsla_item]资料更新成功!共新增0行,更新3000行。POST /v1/receive/item.表[sy_v_category]合共传输78000行数据。
[2021-03-23 17:57:20]:表[sy_v_item]共28批次数据,正在处理第27批次数据,商品资料[lsla_item]资料更新成功!共新增0行,更新3000行。POST /v1/receive/item.表[sy_v_category]合共传输81000行数据。
[2021-03-23 17:57:22]:表[sy_v_item]共28批次数据,正在处理第28批次数据,商品资料[lsla_item]资料更新成功!共新增0行,更新2769行。POST /v1/receive/item.表[sy_v_category]合共传输83769行数据。
