{
    "job": {
        "content": [
            {
                "reader": {
                    "name": "mysqlreader",
                    "parameter": {
                        "column": [],
                        "connection": [
                            {
							                  "querySql": ["SELECT lbdm as vl_code, lbmc as vl_name, 1 as vl_state FROM ipos_viplb"],
                                "jdbcUrl": ["jdbc:mysql://172.20.18.106/bsiposmgn?characterEncoding=UTF-8&useSSL=false&serverTimezone=Asia/Shanghai"],
                            }
                        ],
                        "password": "3y123456",
                        "username": "3y"
                    }
                },
                "writer": {
                    "name": "mysqlwriter",
                    "parameter": {
                        "column": ["vl_code","vl_name","vl_state"],
                        "connection": [
                            {
                                "jdbcUrl": "jdbc:mysql://localhost:3306/report_db_mgn?characterEncoding=UTF-8&useSSL=false&serverTimezone=Asia/Shanghai",
                                "table": ["sy_v_vip_level"]
                            }
                        ],
                        "password": "9cjEVa83",
                        "preSql": ["truncate sy_v_vip_level"],
                        "session": ["set session sql_mode='ANSI'"],
                        "username": "rpdbuser",
                        "writeMode": "insert"
                    }
                }
            }
        ],
        "setting": {
            "speed": {
                "channel": "10",
				"batchSize":2048
            }
        }
    }
}
