{
    "job": {
        "content": [
            {
                "reader": {
                    "name": "mysqlreader",
                    "parameter": {
                        "column": [],
                        "connection": [
                            {
							    "querySql": ["select shop_code as shop_code,UNIX_TIMESTAMP(date_format(sale_date,'%Y-%m-%d')) as sale_date,item_id as item_id,color_id as color_id,
								              size_id as size_id,sum(inv_qtys) as sale_qtys,sum(inv_money) as sale_amt,sum(inv_qtys*tag_price) as tag_amt,sum(rec_money) as rec_amt,sum(arr_money) as arr_amt
                                              from sales_detail
                                              where sale_date>='${s_day}' and sale_date<'${e_day}'
                                              group by shop_code,date_format(sale_date,'%Y-%m-%d'),item_id,color_id,size_id"],
                                "jdbcUrl": ["jdbc:mysql://localhost:3306/report_db_mgn?characterEncoding=UTF-8&useSSL=false&serverTimezone=Asia/Shanghai"],

                            }
                        ],
                        "password": "9cjEVa83",
                        "username": "rpdbuser",
                        "where": ""
                    }
                },

                "writer": {
                    "name": "mysqlwriter",
                    "parameter": {
                        "column": ["shop_code","sale_date","item_id","color_id","size_id","sale_qtys","sale_amt","tag_amt","rec_amt","arr_amt"],
                        "connection": [
                            {
                                "jdbcUrl": "jdbc:mysql://localhost:3306/report_db_mgn?characterEncoding=UTF-8&useSSL=false&serverTimezone=Asia/Shanghai",
                                "table": ["sy_v_salesdet"]
                            }
                        ],
                        "password": "9cjEVa83",
                        "preSql": ["delete from sy_v_salesdet where sale_date >=UNIX_TIMESTAMP('${s_day}') and sale_date<UNIX_TIMESTAMP('${e_day}')"],
                        "session": ["set session sql_mode='ANSI'"],
                        "username": "rpdbuser",
                        "writeMode": "insert"
                    }
                }
            }
        ],
        "setting": {
            "speed": {
                "channel": "10",
				"batchSize":2048
            }
        }
    }
}
