{
    "job": {
        "content": [
            {
                "reader": {
                    "name": "mysqlreader",
                    "parameter": {
                        "column": [],
                        "connection": [
                            {
							    "querySql":  ["SELECT shop_code, item_id, color_id, max(sale_date) as max_date FROM sy_v_salesdet where sale_date >=UNIX_TIMESTAMP('${s_day}') and sale_date<UNIX_TIMESTAMP('${e_day}') GROUP BY shop_code, item_id, color_id"],
                                "jdbcUrl": ["jdbc:mysql://localhost:3306/report_db_mgn?characterEncoding=UTF-8&useSSL=false&serverTimezone=Asia/Shanghai"],

                            }
                        ],
                        "password": "9cjEVa83",
                        "username": "rpdbuser",
                        "where": ""
                    }
                },

                "writer": {
                    "name": "mysqlwriter",
                    "parameter": {
                        "column": ["shop_code","item_id","color_id","max_date"],
                        "connection": [
                            {
                                "jdbcUrl": "jdbc:mysql://localhost:3306/report_db_mgn?characterEncoding=UTF-8&useSSL=false&serverTimezone=Asia/Shanghai",
                                "table": ["sy_v_salesdet_md"]
                            }
                        ],
                        "password": "9cjEVa83",
                        "preSql": ["delete from sy_v_salesdet_md where (max_date >=UNIX_TIMESTAMP('${s_day}') and max_date<UNIX_TIMESTAMP('${e_day}')) or max_date<UNIX_TIMESTAMP(date_format(date_add(now(), interval -1 year),'%Y-%m-%d'))"],
                        "session": ["set session sql_mode='ANSI'"],
                        "username": "rpdbuser",
                        "writeMode": "update"
                    }
                }
            }
        ],
        "setting": {
            "speed": {
                "channel": "10",
				"batchSize":2048
            }
        }
    }
}
