{
    "job": {
        "content": [
            {
                "reader": {
                    "name": "mysqlreader",
                    "parameter": {
                        "column": [],
                        "connection": [
                            {
              							    "querySql": ["SELECT FROM_UNIXTIME(ipos_zdjhd.qrrq, '%Y-%m-%d') as stock_date, ipos_zdjhd.zddm as shop_code, ipos_zdjhdmx.spdm as item_id, ipos_zdjhdmx.gg1dm as color_id, ipos_zdjhdmx.gg2mc as size_id, sum(ipos_zdjhdmx.sl) as stock_qtys
                                  FROM ipos_zdjhdmx
                                  LEFT JOIN ipos_zdjhd ON ipos_zdjhd.id=ipos_zdjhdmx.dj_id
                                  WHERE ipos_zdjhd.qr='1' and FROM_UNIXTIME(ipos_zdjhd.qrrq, '%Y-%m-%d') >= '${s_day}' and FROM_UNIXTIME(ipos_zdjhd.qrrq, '%Y-%m-%d') < '${e_day}'
                                  GROUP BY zddm, ipos_zdjhd.qrrq, ipos_zdjhdmx.spdm, gg1dm, gg2mc"],
                                "jdbcUrl": ["jdbc:mysql://172.20.18.106/bsiposmgn?characterEncoding=UTF-8&useSSL=false&serverTimezone=Asia/Shanghai"],
                            }
                        ],
                        "password": "3y123456",
                        "username": "3y"
                    }
                },
                "writer": {
                    "name": "mysqlwriter",
                    "parameter": {
                        "column": ["stock_date","shop_code","item_id","color_id","size_id","stock_qtys"],
                        "connection": [
                            {
                                "jdbcUrl": "jdbc:mysql://localhost:3306/report_db_mgn?characterEncoding=UTF-8&useSSL=false&serverTimezone=Asia/Shanghai",
                                "table": ["sy_v_shopstock"]
                            }
                        ],
                        "password": "9cjEVa83",
                        "preSql": ["delete from sy_v_shopstock where stock_date>='${s_day}' and stock_date<'${e_day}'"],
                        "session": ["set session sql_mode='ANSI'"],
                        "username": "rpdbuser",
                        "writeMode": "insert"
                    }
                }
            }
        ],
        "setting": {
            "speed": {
                "channel": "5"
            }
        }
    }
}
