{
    "job": {
        "content": [
            {
                "reader": {
                    "name": "mysqlreader",
                    "parameter": {
                        "column": [],
                        "connection": [
                            {
							                  "querySql": ["select ipos_vip.vpdm as vip_no, ipos_vip.vpmc as cust_name, ipos_zdjbb.zddm as shop_code, ipos_customer.xb+1 as cust_sex, 0 as age,
                                if(ipos_customer.sr1 is null, ipos_customer.sr1, DATE_FORMAT(DATE_ADD(FROM_UNIXTIME(0), INTERVAL ipos_customer.sr1 SECOND), '%Y-%m-%d')) as born_date,
                                from_unixtime(ipos_vip.qyrq, '%Y-%m-%d %H:%i:%S') as register_date, ipos_viplb.lbmc as vip_level, ipos_customer.sj as mobile, ipos_customer.dz as address,
                                ifnull(ipos_dianyuan.dydm,0) as staff_id, (CASE WHEN ipos_vip.status = 1 THEN 1 ELSE 2 END) as vip_state, 0 as active_money, ipos_vip.dqjf as vip_points
                                from ipos_vip
                                left join ipos_customer on ipos_customer.gkdm = ipos_vip.gkdm
                                left join ipos_viplb on ipos_viplb.id = ipos_vip.lb_id
                                left join ipos_zdjbb on ipos_zdjbb.pid = ipos_vip.zd_id
                                left join ipos_dianyuan on ipos_dianyuan.id = ipos_vip.jsdy
                                where from_unixtime(ipos_vip.qyrq, '%Y-%m-%d %H:%i:%S')>='${s_day}' and from_unixtime(ipos_vip.qyrq, '%Y-%m-%d %H:%i:%S')<'${e_day}'
                                group by ipos_vip.vpdm"],
                                "jdbcUrl": ["jdbc:mysql://172.20.18.106/bsipospol?characterEncoding=UTF-8&useSSL=false&serverTimezone=Asia/Shanghai"],
                            }
                        ],
                        "password": "3y123456",
                        "username": "3y"
                    }
                },
                "writer": {
                    "name": "mysqlwriter",
                    "parameter": {
                        "column": ["vip_no","cust_name","shop_code","cust_sex","age","born_date","register_date","vip_level","mobile","address","staff_id","vip_state","active_money","vip_points"],
                        "connection": [
                            {
                                "jdbcUrl": "jdbc:mysql://localhost:3306/report_db_pol?characterEncoding=UTF-8&useSSL=false&serverTimezone=Asia/Shanghai",
                                "table": ["sy_v_vip"]
                            }
                        ],
                        "password": "9cjEVa83",
                        "preSql": ["delete from sy_v_vip where register_date>='${s_day}' and register_date<'${e_day}'"],
                        "session": ["set session sql_mode='ANSI'"],
                        "username": "rpdbuser",
                        "writeMode": "insert"
                    }
                }
            }
        ],
        "setting": {
            "speed": {
                "channel": "10",
				"batchSize":2048
            }
        }
    }
}
