{
    "job": {
        "content": [
            {
                "reader": {
                    "name": "mysqlreader",
                    "parameter": {
                        "column": [],
                        "connection": [
                            {
							                  "querySql": ["select sxdm as st_code, sxmc as st_name, 'ALL' as st_type_code, '全部' as st_type_name, sxdm as st_order_seq, '1' as st_state
                                  from com_base_khsx1"],
                                "jdbcUrl": ["jdbc:mysql://172.20.18.106/bsipospol?characterEncoding=UTF-8&useSSL=false&serverTimezone=Asia/Shanghai"],
                            }
                        ],
                        "password": "3y123456",
                        "username": "3y"
                    }
                },
                "writer": {
                    "name": "mysqlwriter",
                    "parameter": {
                        "column": ["st_code","st_name","st_type_code","st_type_name","st_order_seq","st_state"],
                        "connection": [
                            {
                                "jdbcUrl": "jdbc:mysql://localhost:3306/report_db_pol?characterEncoding=UTF-8&useSSL=false&serverTimezone=Asia/Shanghai",
                                "table": ["sy_v_shop_type"]
                            }
                        ],
                        "password": "9cjEVa83",
                        "preSql": ["truncate sy_v_shop_type"],
                        "session": ["set session sql_mode='ANSI'"],
                        "username": "rpdbuser",
                        "writeMode": "insert"
                    }
                }
            }
        ],
        "setting": {
            "speed": {
                "channel": "6"
            }
        }
    }
}
