{
    "job": {
        "content": [
            {
                "reader": {
                    "name": "mysqlreader",
                    "parameter": {
                        "column": [],
                        "connection": [
                            {
              							    "querySql": ["SELECT ipos_zdjhd.zddm as shop_code, ipos_zdjhdmx.spdm as item_id, ipos_zdjhdmx.gg1dm as color_id, ipos_zdjhdmx.gg2mc as size_id, sum(ipos_zdjhdmx.sl) as instock_qtys
                                  FROM ipos_zdjhdmx
                                  LEFT JOIN ipos_zdjhd ON ipos_zdjhd.id=ipos_zdjhdmx.dj_id
                                  WHERE ipos_zdjhd.qr='0' GROUP BY ipos_zdjhd.zddm,ipos_zdjhdmx.spdm,ipos_zdjhdmx.gg1dm,ipos_zdjhdmx.gg2mc"],
                                "jdbcUrl": ["jdbc:mysql://172.20.18.106/bsipospol?characterEncoding=UTF-8&useSSL=false&serverTimezone=Asia/Shanghai"],
                            }
                        ],
                        "password": "3y123456",
                        "username": "3y"
                    }
                },
                "writer": {
                    "name": "mysqlwriter",
                    "parameter": {
                        "column": ["shop_code","item_id","color_id","size_id","instock_qtys"],
                        "connection": [
                            {
                                "jdbcUrl": "jdbc:mysql://localhost:3306/report_db_pol?characterEncoding=UTF-8&useSSL=false&serverTimezone=Asia/Shanghai",
                                "table": ["sy_v_instock"]
                            }
                        ],
                        "password": "9cjEVa83",
                        "preSql": ["truncate sy_v_instock"],
                        "session": ["set session sql_mode='ANSI'"],
                        "username": "rpdbuser",
                        "writeMode": "insert"
                    }
                }
            }
        ],
        "setting": {
            "speed": {
                "channel": "10",
				"batchSize":2048
            }
        }
    }
}
