{
    "job": {
        "content": [
            {
                "reader": {
                    "name": "mysqlreader",
                    "parameter": {
                        "column": [],
                        "connection": [
                            {
							                  "querySql": ["SELECT dldm as ic_id, dlmc as ic_name, dldm as ic_code, case when dldm='000' then '000' else left(dldm,1) end as class_id FROM com_base_dalei WHERE length(dldm)=3"],
                                "jdbcUrl": ["jdbc:mysql://172.20.18.106/bsipospol?characterEncoding=UTF-8&useSSL=false&serverTimezone=Asia/Shanghai"],
                            }
                        ],
                        "password": "3y123456",
                        "username": "3y"
                    }
                },
                "writer": {
                    "name": "mysqlwriter",
                    "parameter": {
                        "column": ["ic_id","ic_name","ic_code","class_id"],
                        "connection": [
                            {
                                "jdbcUrl": "jdbc:mysql://localhost:3306/report_db_pol?characterEncoding=UTF-8&useSSL=false&serverTimezone=Asia/Shanghai",
                                "table": ["sy_v_category"]
                            }
                        ],
                        "password": "9cjEVa83",
                        "preSql": [],
                        "session": ["set session sql_mode='ANSI'"],
                        "username": "rpdbuser",
                        "writeMode": "update"
                    }
                }
            }
        ],
        "setting": {
            "speed": {
                "channel": "5"
            }
        }
    }
}
