{
    "job": {
        "content": [
            {
                "reader": {
                    "name": "oraclereader",
                    "parameter": {
                        "column": [],
                        "connection": [
                            {
							    "querySql": ["SELECT BILLS_ID AS inv_no, SETDEPOT_ID AS shop_code, to_char(SALE_DATE,'yyyy-mm-dd hh24:mi:ss') AS sale_date, case when length(VIP_ID)>=1 then 1 else 0 end AS vip_state, DECODE(SURE_USERID, null, ' ', SURE_USERID) AS staff_id, DECODE(VIP_ID, null, ' ', VIP_ID) AS vip_no, BILLS_NUMS AS inv_qtys, BILLS_S_SUMS AS inv_money, BILLS_J_SUMS AS tag_money FROM SYNC_RETAIL WHERE to_char(SALE_DATE,'yyyy-mm-dd hh24:mi:ss') >= '${s_day}' and to_char(SALE_DATE,'yyyy-mm-dd hh24:mi:ss') < '${e_day}'"],
                                "jdbcUrl": ["jdbc:oracle:thin:@//47.112.190.142:1551/ORCL"],
                            }
                        ],
                        "password": "GPw9rQJwXbdU",
                        "username": "x3_sync"
                    }
                },
                "writer": {
                    "name": "mysqlwriter",
                    "parameter": {
                        "column": ["inv_no","shop_code","sale_date","vip_state","staff_id","vip_no","inv_qtys","inv_money","tag_money"],
                        "connection": [
                            {
                                "jdbcUrl": "jdbc:mysql://localhost:3306/lsl_report_db?characterEncoding=UTF-8&useSSL=false&serverTimezone=Asia/Shanghai",
                                "table": ["sales_info"]
                            }
                        ],
                        "password": "SyRp#7951",
                        "preSql": ["delete from sales_info where sale_date>='${s_day}' and sale_date<'${e_day}'"],
                        "postSql": ["update sales_info set staff_id = '00000' where staff_id <> '00000' and sale_date>='${s_day}' and sale_date<'${e_day}'"],
                        "session": ["set session sql_mode='ANSI'"],
                        "username": "root",
                        "writeMode": "insert"
                    }
                }
            }
        ],
        "setting": {
            "speed": {
                "channel": "5"
            }
        }
    }
}
