{
    "job": {
        "content": [
            {
                "reader": {
                    "name": "oraclereader",
                    "parameter": {
                        "column": [],
                        "connection": [
                            {
							    "querySql": ["SELECT vip_no as vip_no,NVL(max(cust_name), ' ') as cust_name, max(shop_code) as shop_code, max(cust_sex) as cust_sex, 0 as age, NVL(max(born_date), to_char(to_date('1970-01-01', 'yyyy-mm-dd'),'yyyy-mm-dd')) as born_date, to_char(register_date, 'YYYY-MM-DD HH24:mi:ss') as register_date, 0 as vip_level, mobile as mobile, ' ' as address, ' ' as staff_id, vip_state as vip_state, 0 as active_money, max(VIP_POINTS) as vip_points FROM qpms.sy_v_vip where to_char(register_date, 'YYYY-MM-DD HH24:mi:ss') >= '${s_day}' and to_char(register_date, 'YYYY-MM-DD HH24:mi:ss') < '${e_day}' group by vip_no, register_date, mobile, vip_state"],
                                "jdbcUrl": ["jdbc:oracle:thin:@//freebidb/dslrqas2"],
                            }
                        ],
                        "password": "sanyun2019",
                        "username": "sanyun"
                    }
                },
                "writer": {
                    "name": "mysqlwriter",
                    "parameter": {
                        "column": ["vip_no","cust_name","shop_code","cust_sex","age","born_date","register_date","vip_level","mobile","address","staff_id","vip_state","active_money","vip_points"],
                        "connection": [
                            {
                                "jdbcUrl": "jdbc:mysql://odisydb:3306/report_db?characterEncoding=UTF-8&useSSL=false&serverTimezone=Asia/Shanghai",
                                "table": ["sy_v_vip"]
                            }
                        ],
                        "password": "DScjEVa83l",
                        "preSql": ["delete from sy_v_vip where register_date>='${s_day}' and register_date<'${e_day}'"],
                        "session": ["set session sql_mode='ANSI'"],
                        "username": "rpdbuser",
                        "writeMode": "insert"
                    }
                }
            }
        ],
        "setting": {
            "speed": {
                "channel": "10",
				"batchSize":2048
            }
        }
    }
}
