{
    "job": {
        "content": [
            {
                "reader": {
                    "name": "oraclereader",
                    "parameter": {
                        "column": [],
                        "connection": [
                            {
							    "querySql": [" SELECT color_id as color_id, color_desc as color_desc FROM qpms.sy_v_color"],
                                "jdbcUrl": ["jdbc:oracle:thin:@//freebidb/dslrqas2"],
                            }
                        ],
                        "password": "sanyun2019",
                        "username": "sanyun"
                    }
                },
                "writer": {
                    "name": "mysqlwriter",
                    "parameter": {
                        "column": ["color_id","color_desc"],
                        "connection": [
                            {
                                "jdbcUrl": "jdbc:mysql://odisydb:3306/report_db?characterEncoding=UTF-8&useSSL=false&serverTimezone=Asia/Shanghai",
                                "table": ["sy_v_color"]
                            }
                        ],
                        "password": "DScjEVa83l",
                        "preSql": ["truncate sy_v_color"],
                        "session": ["set session sql_mode='ANSI'"],
                        "username": "rpdbuser",
                        "writeMode": "insert"
                    }
                }
            }
        ],
        "setting": {
            "speed": {
                "channel": "1"
            }
        }
    }
}
