{
    "job": {
        "content": [
            {
                "reader": {
                    "name": "oraclereader",
                    "parameter": {
                        "column": [],
                        "connection": [
                            {
							    "querySql": ["SELECT
	RTRIM(C_STORE.CODE) AS shop_code,
	trunc(TO_NUMBER(to_date(C_STOREMARKITEM.MONTHDATE, 'yyyymmdd') - TO_DATE('1970-01-01 8:0:0', 'yyyy-mm-dd hh24:mi:ss')) * 24 * 60 * 60) AS plan_date,
	C_STOREMARKITEM.TOT_AMT_MARK AS plan_amt
FROM
	BOSNDS3.C_STOREMARKITEM
LEFT JOIN BOSNDS3.C_STOREMARK ON C_STOREMARKITEM.C_STOREMARK_ID = C_STOREMARK. ID
LEFT JOIN BOSNDS3.C_STORE ON C_STOREMARK.C_STORE_ID = C_STORE. ID
WHERE TO_CHAR(TO_DATE(C_STOREMARKITEM.MONTHDATE,'yyyy-mm-dd'),'yyyy-mm-dd') >= '${s_day}' and TO_CHAR(TO_DATE(C_STOREMARKITEM.MONTHDATE,'yyyy-mm-dd'),'yyyy-mm-dd') < '${e_day}'
AND C_STOREMARKITEM.TOT_AMT_MARK > 0"],
                                "jdbcUrl": ["jdbc:oracle:thin:@//freebidb/dslrqas2"],
                            }
                        ],
                        "password": "sanyun123",
                        "username": "sanyun"
                    }
                },
                "writer": {
                    "name": "mysqlwriter",
                    "parameter": {
                        "column": ["shop_code","plan_date","plan_amt"],
                        "connection": [
                            {
                                "jdbcUrl": "jdbc:mysql://10.10.20.26:3306/datax_test?characterEncoding=UTF-8&useSSL=false&serverTimezone=Asia/Shanghai",
                                "table": ["sy_v_plani"]
                            }
                        ],
                        "password": "DScjEVa83l",
                        "preSql": ["delete from sy_v_plani where plan_date >=UNIX_TIMESTAMP('${s_day}') and plan_date<UNIX_TIMESTAMP('${e_day}')"],
                        "session": ["set session sql_mode='ANSI'"],
                        "username": "rpdbuser",
                        "writeMode": "update"
                    }
                }
            }
        ],
        "setting": {
            "speed": {
                "channel": "5"
            }
        }
    }
}
