{
    "job": {
        "content": [
            {
                "reader": {
                    "name": "oraclereader",
                    "parameter": {
                        "column": [],
                        "connection": [
                            {
							    "querySql": ["SELECT inv_no as inv_no, to_char(stock_date, 'yyyy-mm-dd') as stock_date, shop_code as shop_code, item_id as item_id, color_id as color_id, size_id as size_id, stock_qtys as stock_qtys, stock_money as stock_money FROM qpms.sy_v_shopstock WHERE SUBSTR(inv_no,0,1) in ('Q','S') and to_char(stock_date, 'yyyy-mm-dd') >= '${s_day}' and to_char(stock_date, 'yyyy-mm-dd') < '${e_day}'"],
                                "jdbcUrl": ["jdbc:oracle:thin:@//freebidb/dslrqas2"],
                            }
                        ],
                        "password": "sanyun2019",
                        "username": "sanyun"
                    }
                },
                "writer": {
                    "name": "mysqlwriter",
                    "parameter": {
                        "column": ["inv_no","stock_date","shop_code","item_id","color_id","size_id","stock_qtys","stock_money"],
                        "connection": [
                            {
                                "jdbcUrl": "jdbc:mysql://odisydb:3306/report_db?characterEncoding=UTF-8&useSSL=false&serverTimezone=Asia/Shanghai",
                                "table": ["sy_v_shopstock"]
                            }
                        ],
                        "password": "DScjEVa83l",
                        "preSql": ["delete from sy_v_shopstock where stock_date>='${s_day}' and stock_date<'${e_day}'"],
                        "session": ["set session sql_mode='ANSI'"],
                        "username": "rpdbuser",
                        "writeMode": "insert"
                    }
                }
            }
        ],
        "setting": {
            "speed": {
                "channel": "5"
            }
        }
    }
}
