{
    "job": {
        "content": [
            {
                "reader": {
                    "name": "oraclereader",
                    "parameter": {
                        "column": [],
                        "connection": [
                            {
							    "querySql": ["SELECT ic_id as ic_id, ic_name as ic_name, ic_id as ic_code, NVL(class_id, 0) as class_id, 2 as ic_prop, substr(ic_id, 4, 6) as ic_order FROM qpms.sy_v_category WHERE ic_id is not null"],
                                "jdbcUrl": ["jdbc:oracle:thin:@//freebidb/dslrqas2"],
                            }
                        ],
                        "password": "sanyun2019",
                        "username": "sanyun"
                    }
                },
                "writer": {
                    "name": "mysqlwriter",
                    "parameter": {
                        "column": ["ic_id","ic_name","ic_code","class_id","ic_prop","ic_order"],
                        "connection": [
                            {
                                "jdbcUrl": "jdbc:mysql://odisydb:3306/report_db?characterEncoding=UTF-8&useSSL=false&serverTimezone=Asia/Shanghai",
                                "table": ["sy_v_category"]
                            }
                        ],
                        "password": "DScjEVa83l",
                        "preSql": [],
                        "session": ["set session sql_mode='ANSI'"],
                        "username": "rpdbuser",
                        "writeMode": "update"
                    }
                }
            }
        ],
        "setting": {
            "speed": {
                "channel": "5"
            }
        }
    }
}
