{
    "job": {
        "content": [
            {
                "reader": {
                    "name": "oraclereader",
                    "parameter": {
                        "column": [],
                        "connection": [
                            {
							    "querySql": ["SELECT sea_id as sea_id, sea_name as sea_name, sea_name as sea_desc, 1 as sea_order, (case sy_v_sea.sea_id
                  				when '100' then '01'
                  				when '101' then '02'
                  				when '102' then '08'
                  				when '104' then '05'
                  				else '01' end
                  			) as s_mon, (case sy_v_sea.sea_id
                  				when '100' then '12'
                  				when '101' then '07'
                  				when '102' then '01'
                  				when '104' then '07'
                  				else '12' end
                  			) as e_mon, (case sy_v_sea.sea_id
                  			when '102' then '1'
                  			else '0' end) as is_span_sea FROM qpms.sy_v_sea"],
                                "jdbcUrl": ["jdbc:oracle:thin:@//freebidb/dslrqas2"],
                            }
                        ],
                        "password": "sanyun2019",
                        "username": "sanyun"
                    }
                },
                "writer": {
                    "name": "mysqlwriter",
                    "parameter": {
                        "column": ["sea_id","sea_name","sea_desc","sea_order","s_mon","e_mon","is_span_sea"],
                        "connection": [
                            {
                                "jdbcUrl": "jdbc:mysql://odisydb:3306/report_db?characterEncoding=UTF-8&useSSL=false&serverTimezone=Asia/Shanghai",
                                "table": ["sy_v_sea"]
                            }
                        ],
                        "password": "DScjEVa83l",
                        "preSql": [""],
                        "session": ["set session sql_mode='ANSI'"],
                        "username": "rpdbuser",
                        "writeMode": "update"
                    }
                }
            }
        ],
        "setting": {
            "speed": {
                "channel": "6"
            }
        }
    }
}
