{
    "job": {
        "content": [
            {
                "reader": {
                    "name": "mysqlreader",
                    "parameter": {
                        "column": [],
                        "connection": [
                            {
              							    "querySql": ["SELECT ifnull(sx4dm,'000') as st_code, khdm as shop_code FROM com_base_kehu"],
                                  "jdbcUrl": ["jdbc:mysql://rm-wz9f9l8f2r80va6mg.mysql.rds.aliyuncs.com/ipos?characterEncoding=UTF-8&useSSL=false&serverTimezone=Asia/Shanghai"],
                              }
                          ],
                          "password": "BSread20180607",
                          "username": "iposread"
                    }
                },
                "writer": {
                    "name": "mysqlwriter",
                    "parameter": {
                        "column": ["st_code","shop_code"],
                        "connection": [
                            {
                                "jdbcUrl": "jdbc:mysql://localhost:3306/report_db?characterEncoding=UTF-8&useSSL=false&serverTimezone=Asia/Shanghai",
                                "table": ["sy_v_typeshop"]
                            }
                        ],
                        "password": "9cjEVa83",
                        "preSql": ["truncate sy_v_typeshop"],
                        "session": ["set session sql_mode='ANSI'"],
                        "username": "rpdbuser",
                        "writeMode": "insert"
                    }
                }
            }
        ],
        "setting": {
            "speed": {
                "channel": "6"
            }
        }
    }
}
