{
    "job": {
        "content": [
            {
                "reader": {
                    "name": "mysqlreader",
                    "parameter": {
                        "column": [],
                        "connection": [
                            {
							                  "querySql": ["SELECT spdm as item_id, com_base_guige2.ggwz1 as size_group FROM com_base_spgg2 LEFT JOIN com_base_guige2 ON com_base_guige2.ggdm = com_base_spgg2.ggdm GROUP BY spdm"],
                                "jdbcUrl": ["jdbc:mysql://rm-wz9f9l8f2r80va6mg.mysql.rds.aliyuncs.com/ipos?characterEncoding=UTF-8&useSSL=false&serverTimezone=Asia/Shanghai"],
                            }
                        ],
                        "password": "BSread20180607",
                        "username": "iposread"
                    }
                },
                "writer": {
                    "name": "mysqlwriter",
                    "parameter": {
                        "column": ["item_id","size_group"],
                        "connection": [
                            {
                                "jdbcUrl": "jdbc:mysql://localhost:3306/report_db?characterEncoding=UTF-8&useSSL=false&serverTimezone=Asia/Shanghai",
                                "table": ["sy_v_itemsize"]
                            }
                        ],
                        "password": "9cjEVa83",
                        "preSql": ["truncate sy_v_itemsize"],
                        "session": ["set session sql_mode='ANSI'"],
                        "username": "rpdbuser",
                        "writeMode": "insert"
                    }
                }
            }
        ],
        "setting": {
            "speed": {
                "channel": "6"
            }
        }
    }
}
