{
    "job": {
        "content": [
            {
                "reader": {
                    "name": "mysqlreader",
                    "parameter": {
                        "column": [],
                        "connection": [
                            {
							                  "querySql": ["SELECT spdm AS item_id,'' AS brand_id,1 AS is_add,nddm AS year_id,com_base_jijie.jjdm AS sea_id,com_base_jijie.jjmc AS sea_name,0 AS cost,' ' AS class_id,' ' AS class_name,com_base_shangpin.dldm AS ic_id,com_base_dalei.dlmc AS ic_name,'N' AS is_acc,bzsj AS sale_price,spmc AS item_desc,concat(substring(spdm,3),'.jpg') AS item_file,' ' AS info_url,'0' AS style_id,from_unixtime(ssrq,'%Y-%m-%d') AS s_date,from_unixtime(UNIX_TIMESTAMP(timestampadd(DAY,19,from_unixtime(ssrq))),'%Y-%m-%d') AS e_date FROM com_base_shangpin LEFT JOIN com_base_jijie ON com_base_jijie.id=com_base_shangpin.jj_id LEFT JOIN com_base_dalei ON com_base_dalei.dldm=com_base_shangpin.dldm WHERE com_base_shangpin.pp_id<> 10995"],
                                "jdbcUrl": ["jdbc:mysql://rm-wz9f9l8f2r80va6mg.mysql.rds.aliyuncs.com/ipos?characterEncoding=UTF-8&useSSL=false&serverTimezone=Asia/Shanghai"],
                            }
                        ],
                        "password": "BSread20180607",
                        "username": "iposread"
                    }
                },
                "writer": {
                    "name": "mysqlwriter",
                    "parameter": {
                        "column": ["item_id","brand_id","is_add","year_id","sea_id","sea_name","cost","class_id","class_name","ic_id","ic_name","is_acc","sale_price","item_desc","item_file","info_url","style_id","s_date","e_date"],
                        "connection": [
                            {
                                "jdbcUrl": "jdbc:mysql://localhost:3306/report_db?characterEncoding=UTF-8&useSSL=false&serverTimezone=Asia/Shanghai",
                                "table": ["sy_v_item"]
                            }
                        ],
                        "password": "9cjEVa83",
                        "preSql": ["truncate sy_v_item"],
						            "postSql":["update sy_v_item a left join (select year_id, i.sea_id, s_mon, e_mon, concat(if(is_span_sea<0, year_id+is_span_sea, year_id), '-', LPAD(s_mon,2,'0'), '-01') as s, LAST_DAY(concat(if(is_span_sea>0, year_id+is_span_sea, year_id), '-', LPAD(e_mon,2,'0'), '-01')) as e from sy_v_item i left join sy_v_sea s on s.sea_id = i.sea_id where i.sea_id is not null and i.sea_id <> '' and year_id > 0 GROUP BY year_id, i.sea_id)b on a.sea_id = b.sea_id and a.year_id = b.year_id set s_date = s, e_date = e where a.year_id > 0 and a.sea_id is not null and a.sea_id <> '' and a.s_date = '0000-00-00'",
                        "update sy_v_item set pub_date=UNIX_TIMESTAMP(s_date) where pub_date <= 0 and s_date <> '0000-00-00'",
						            "update sy_v_item a,sy_v_category b set a.is_add =2 where a.ic_id = b.ic_id and b.ic_prop >2",
									      "update sy_v_item a,sy_v_category b set a.is_acc='Y' where a.ic_id = b.ic_id and b.ic_prop <>2"],
                        "session": ["set session sql_mode='ANSI'"],
                        "username": "rpdbuser",
                        "writeMode": "insert"
                    }
                }
            }
        ],
        "setting": {
            "speed": {
                "channel": "10"
            }
        }
    }
}
