{
    "job": {
        "content": [
            {
                "reader": {
                    "name": "mysqlreader",
                    "parameter": {
                        "column": [],
                        "connection": [
                            {
							                  "querySql": ["SELECT djbh as inv_no, zddm as shop_code, from_unixtime(yyrq, '%Y-%m-%d %H:%i:%s') as sale_date, IF(vpdm = '', 0, 1) as vip_state, SUBSTRING_INDEX(dgy_list_dm,rtrim(','),1) as staff_id, vpdm as vip_no, 0 as inv_qtys, je as inv_money, 0 as tag_money FROM ipos_qtlsd WHERE zf=0 and gd=0 and from_unixtime(yyrq, '%Y-%m-%d %H:%i:%s') >= '${s_day}' and from_unixtime(yyrq, '%Y-%m-%d %H:%i:%s') < '${e_day}'"],
                                "jdbcUrl": ["jdbc:mysql://rm-wz9f9l8f2r80va6mg.mysql.rds.aliyuncs.com/ipos?characterEncoding=UTF-8&useSSL=false&serverTimezone=Asia/Shanghai"],
                            }
                        ],
                        "password": "BSread20180607",
                        "username": "iposread"
                    }
                },
                "writer": {
                    "name": "mysqlwriter",
                    "parameter": {
                        "column": ["inv_no","shop_code","sale_date","vip_state","staff_id","vip_no","inv_qtys","inv_money","tag_money"],
                        "connection": [
                            {
                                "jdbcUrl": "jdbc:mysql://localhost:3306/report_db?characterEncoding=UTF-8&useSSL=false&serverTimezone=Asia/Shanghai",
                                "table": ["sales_info"]
                            }
                        ],
                        "password": "9cjEVa83",
                        "preSql": ["delete from sales_info where sale_date>='${s_day}' and sale_date<'${e_day}'"],
                        "postSql": ["UPDATE sales_info a, (SELECT b.inv_no ,sum(b.inv_qtys) AS inv_qtys, sum(b.inv_money) AS inv_money, sum(b.rec_money) AS rec_money, sum(b.arr_money) AS arr_money, sum(b.inv_qtys*b.tag_price) AS tag_money FROM sales_info a,sales_detail b WHERE a.inv_no=b.inv_no AND a.sale_date >='${s_day}' AND a.sale_date<'${e_day}' GROUP BY b.inv_no) b SET a.inv_qtys=b.inv_qtys,a.tag_money=b.tag_money,a.inv_money=b.inv_money WHERE a.inv_no=b.inv_no;",
                                    "update  sales_info	a,sy_v_vip b set a.vip_state = 0 where a.sale_date >= '${s_day}' and a.sale_date < '${e_day}' and a.vip_no=b.vip_no and date_format(b.register_date,'%Y-%m-%d')>= a.sale_date"
                                  ],
                        "session": ["set session sql_mode='ANSI'"],
                        "username": "rpdbuser",
                        "writeMode": "insert"
                    }
                }
            }
        ],
        "setting": {
            "speed": {
                "channel": "5"
            }
        }
    }
}
