{
    "job": {
        "content": [
            {
                "reader": {
                    "name": "mysqlreader",
                    "parameter": {
                        "column": [],
                        "connection": [
                            {
							    "querySql": ["SELECT jjdm AS sea_id,jjmc AS sea_name,jjmc AS sea_desc,jjdm AS sea_erp_code,jjmc AS sea_erp_name,(CASE jjdm WHEN '01' THEN '02' WHEN '02' THEN '05' WHEN '03' THEN '08' WHEN '04' THEN '11' ELSE '01' END) AS s_mon,(CASE jjdm WHEN '01' THEN '04' WHEN '02' THEN '07' WHEN '03' THEN '10' WHEN '04' THEN '01' ELSE '12' END) AS e_mon,IF (jjdm='04',1,0) AS is_span_sea FROM com_base_jijie"],
                                "jdbcUrl": ["jdbc:mysql://rm-wz9f9l8f2r80va6mg.mysql.rds.aliyuncs.com/ipos?characterEncoding=UTF-8&useSSL=false&serverTimezone=Asia/Shanghai"],
                            }
                        ],
                        "password": "BSread20180607",
                        "username": "iposread"
                    }
                },
                "writer": {
                    "name": "mysqlwriter",
                    "parameter": {
                        "column": ["sea_id","sea_name","sea_desc", "sea_erp_code", "sea_erp_name","s_mon","e_mon","is_span_sea"],
                        "connection": [
                            {
                                "jdbcUrl": "jdbc:mysql://localhost:3306/report_db?characterEncoding=UTF-8&useSSL=false&serverTimezone=Asia/Shanghai",
                                "table": ["sy_v_sea"]
                            }
                        ],
                        "password": "9cjEVa83",
                        "preSql": [""],
                        "session": ["set session sql_mode='ANSI'"],
                        "username": "rpdbuser",
                        "writeMode": "update"
                    }
                }
            }
        ],
        "setting": {
            "speed": {
                "channel": "6"
            }
        }
    }
}
