{
    "job": {
        "content": [
            {
                "reader": {
                    "name": "sqlserverreader",
                    "parameter": {
                        "column": [],
                        "connection": [
                            {
							    "querySql": ["SELECT rtrim(SYS_PRSNL.PRSNL_CODE) as staff_id, SYS_PRSNL.FULL_NAME as staff_name, SYS_UNIT.UNIT_CODE as staff_shop_code, UNIT_NAME as staff_shop_name FROM SHOP_EMP LEFT JOIN SYS_UNIT ON SHOP_EMP.SHOP_ID =SYS_UNIT.UNIT_ID LEFT JOIN SYS_PRSNL ON SHOP_EMP.EMPL_ID =SYS_PRSNL.PRSNL_ID where SYS_UNIT.UNIT_CODE is not null"],
                                "jdbcUrl": ["jdbc:sqlserver://satchishoes.net.cn:14333;DatabaseName=CROSSLINK"],
                            }
                        ],
                        "password": "caxun86788878",
                        "username": "caxun"
                    }
                },
                "writer": {
                    "name": "mysqlwriter",
                    "parameter": {
                        "column": ["staff_id","staff_name","staff_shop_code","staff_shop_name"],
                        "connection": [
                            {
                                "jdbcUrl": "jdbc:mysql://localhost:3306/report_db?characterEncoding=UTF-8&useSSL=false&serverTimezone=Asia/Shanghai",
                                "table": ["sy_v_staff"]
                            }
                        ],
                        "password": "9cjEVa83",
                        "preSql": ["truncate sy_v_staff"],
                        "session": ["set session sql_mode='ANSI'"],
                        "username": "rpdbuser",
                        "writeMode": "update"
                    }
                }
            }
        ],
        "setting": {
            "speed": {
                "channel": "6"
            }
        }
    }
}
