{
    "job": {
        "content": [
            {
                "reader": {
                    "name": "sqlserverreader",
                    "parameter": {
                        "column": [],
                        "connection": [
                            {
							    "querySql": ["SELECT PRODUCT.PROD_CODE as bar_no, PROD_CLS.PROD_CLS_CODE as item_id, COLOR.COLOR_CODE as color_id, COLOR.COLOR_NAME as color_name, SPEC.SPEC_NAME as size_id FROM PRODUCT LEFT JOIN PROD_CLS ON PRODUCT.PROD_CLS_ID=PROD_CLS.PROD_CLS_ID LEFT JOIN COLOR ON PRODUCT.COLOR_ID =COLOR.COLOR_ID LEFT JOIN SPEC ON PRODUCT.SPEC_ID=SPEC.SPEC_ID"],
                                "jdbcUrl": ["jdbc:sqlserver://satchishoes.net.cn:14333;DatabaseName=CROSSLINK"],

                            }
                        ],
                        "password": "caxun86788878",
                        "username": "caxun"
                    }
                },
                "writer": {
                    "name": "mysqlwriter",
                    "parameter": {
                        "column": ["bar_no","item_id","color_id","color_name","size_id"],
                        "connection": [
                            {
                                "jdbcUrl": "jdbc:mysql://localhost:3306/report_db?characterEncoding=UTF-8&useSSL=false&serverTimezone=Asia/Shanghai",
                                "table": ["sy_v_barcode"]
                            }
                        ],
                        "password": "9cjEVa83",
                        "preSql": ["truncate sy_v_barcode"],
                        "session": ["set session sql_mode='ANSI'"],
                        "username": "rpdbuser",
                        "writeMode": "insert"
                    }
                }
            }
        ],
        "setting": {
            "speed": {
                "channel": "6"
            }
        }
    }
}
