{
    "job": {
        "content": [
            {
                "reader": {
                    "name": "sqlserverreader",
                    "parameter": {
                        "column": [],
                        "connection": [
                            {
							    "querySql": ["SELECT rtrim(SYS_PRSNL.PRSNL_CODE) as vip_no, SYS_PRSNL.FULL_NAME as cust_name, rtrim(SYS_UNIT.UNIT_CODE) as shop_code, (case when SYS_PRSNL.GENDER ='F' then 2 else 1 end) as cust_sex, 0 as age, (case CUST.BIRTHDAY when null then '1970-01-01' else convert(varchar(10), CUST.BIRTHDAY, 120) end) as born_date, convert(varchar(10), CUST.REG_DATE, 120) as register_date, isnull(CUST.CUST_GRD,' ') as vip_level, isnull(SYS_PRSNL.MOBILE_NUM,' ') as mobile, isnull(SYS_PRSNL.ADDRESS,' ') as address, ' ' as staff_id, (case when CUST.CUST_STATUS='A' then 1 else 2 end) as vip_state, 0 as active_money, CUST.RATING_PNT as vip_points FROM CUST LEFT JOIN SYS_PRSNL ON SYS_PRSNL.PRSNL_ID =CUST.CUST_ID LEFT JOIN SYS_UNIT ON CUST.SV_UNIT_ID =SYS_UNIT.UNIT_ID WHERE SYS_PRSNL.PRSNL_CODE is not null and SYS_PRSNL.PRSNL_CODE <> ''"],
                                "jdbcUrl": ["jdbc:sqlserver://satchishoes.net.cn:14333;DatabaseName=CROSSLINK"],
                            }
                        ],
                        "password": "caxun86788878",
                        "username": "caxun"
                    }
                },
                "writer": {
                    "name": "mysqlwriter",
                    "parameter": {
                        "column": ["vip_no","cust_name","shop_code","cust_sex","age","born_date","register_date","vip_level","mobile","address","staff_id","vip_state","active_money","vip_points"],
                        "connection": [
                            {
                                "jdbcUrl": "jdbc:mysql://localhost:3306/report_db?characterEncoding=UTF-8&useSSL=false&serverTimezone=Asia/Shanghai",
                                "table": ["sy_v_vip"]
                            }
                        ],
                        "password": "9cjEVa83",
                        "preSql": ["truncate sy_v_vip"],
                        "session": ["set session sql_mode='ANSI'"],
                        "username": "rpdbuser",
                        "writeMode": "insert"
                    }
                }
            }
        ],
        "setting": {
            "speed": {
                "channel": "10",
				"batchSize":2048
            }
        }
    }
}
