{
    "job": {
        "content": [
            {
                "reader": {
                    "name": "mysqlreader",
                    "parameter": {
                        "column": [],
                        "connection": [
                            {
							                  "querySql": ["SELECT zddm as shop_code, ipos_spkcb.spdm as item_id, gg1dm as color_id, gg2mc as size_id, sum(sl) as stock_qtys FROM ipos_spkcb LEFT JOIN ipos_zdjbb ON ipos_zdjbb.pid = ipos_spkcb.zd_id LEFT JOIN com_base_shangpin ON ipos_spkcb.spdm = com_base_shangpin.spdm WHERE zddm is not null and sl <> 0 GROUP BY zddm, ipos_spkcb.spdm, gg1dm, gg2mc"],
                                "jdbcUrl": ["jdbc:mysql://192.168.1.201/IPOS?characterEncoding=UTF-8&useSSL=false&serverTimezone=Asia/Shanghai"],
                            }
                        ],
                        "password": "Bs@4585",
                        "username": "ipos"
                    }
                },
                "writer": {
                    "name": "mysqlwriter",
                    "parameter": {
                        "column": ["shop_code","item_id","color_id","size_id","stock_qtys"],
                        "connection": [
                            {
                                "jdbcUrl": "jdbc:mysql://localhost:3306/report_db?characterEncoding=UTF-8&useSSL=false&serverTimezone=Asia/Shanghai",
                                "table": ["sy_v_stock"]
                            }
                        ],
                        "password": "9cjEVa83",
                        "preSql": ["truncate sy_v_stock"],
                        "session": ["set session sql_mode='ANSI'"],
                        "username": "rpdbuser",
                        "writeMode": "insert"
                    }
                }
            }
        ],
        "setting": {
            "speed": {
                "channel": "10",
				"batchSize":2048
            }
        }
    }
}
