{
    "job": {
        "content": [
            {
                "reader": {
                    "name": "mysqlreader",
                    "parameter": {
                        "column": [],
                        "connection": [
                            {
							                  "querySql": ["SELECT ipos_vip.vpdm as vip_no, ipos_vip.vpmc as cust_name, ipos_zdjbb.zddm as shop_code, ipos_customer.xb+1 as cust_sex, 0 as age, if(from_unixtime(ipos_customer.sr1, '%Y-%m-%d') is null, '1970-01-01', from_unixtime(ipos_customer.sr1, '%Y-%m-%d')) as born_date, from_unixtime(ipos_vip.qyrq, '%Y-%m-%d %H:%i:%S') as register_date, ipos_viplb.lbdm as vip_level, ipos_customer.sj as mobile, ipos_customer.dz as address, ifnull(ipos_dianyuan.dydm,0) as staff_id, (CASE WHEN ipos_vip.status = 1 THEN 1 ELSE 2 END) as vip_state, 0 as active_money, ipos_vip.dqjf as vip_points FROM ipos_vip LEFT JOIN ipos_customer ON ipos_customer.gkdm = ipos_vip.gkdm LEFT JOIN ipos_viplb ON ipos_viplb.id = ipos_vip.lb_id LEFT JOIN ipos_zdjbb ON ipos_zdjbb.pid = ipos_vip.zd_id LEFT JOIN ipos_dianyuan ON ipos_dianyuan.id = ipos_vip.jsdy"],
                                "jdbcUrl": ["jdbc:mysql://192.168.1.201/IPOS?characterEncoding=UTF-8&useSSL=false&serverTimezone=Asia/Shanghai"],
                            }
                        ],
                        "password": "Bs@4585",
                        "username": "ipos"
                    }
                },
                "writer": {
                    "name": "mysqlwriter",
                    "parameter": {
                        "column": ["vip_no","cust_name","shop_code","cust_sex","age","born_date","register_date","vip_level","mobile","address","staff_id","vip_state","active_money","vip_points"],
                        "connection": [
                            {
                                "jdbcUrl": "jdbc:mysql://localhost:3306/report_db?characterEncoding=UTF-8&useSSL=false&serverTimezone=Asia/Shanghai",
                                "table": ["sy_v_vip"]
                            }
                        ],
                        "password": "9cjEVa83",
                        "preSql": ["truncate sy_v_vip"],
                        "session": ["set session sql_mode='ANSI'"],
                        "username": "rpdbuser",
                        "writeMode": "insert"
                    }
                }
            }
        ],
        "setting": {
            "speed": {
                "channel": "10",
				"batchSize":2048
            }
        }
    }
}
